EESchema Schematic File Version 2
LIBS:pistuino_smd-rescue
LIBS:power
LIBS:device
LIBS:transistors
LIBS:conn
LIBS:linear
LIBS:regul
LIBS:74xx
LIBS:cmos4000
LIBS:adc-dac
LIBS:memory
LIBS:xilinx
LIBS:special
LIBS:microcontrollers
LIBS:dsp
LIBS:microchip
LIBS:analog_switches
LIBS:motorola
LIBS:texas
LIBS:intel
LIBS:audio
LIBS:interface
LIBS:digital-audio
LIBS:philips
LIBS:display
LIBS:cypress
LIBS:siliconi
LIBS:opto
LIBS:atmel
LIBS:contrib
LIBS:valves
LIBS:74xgxx
LIBS:ac-dc
LIBS:actel
LIBS:analog_devices
LIBS:brooktre
LIBS:cmos_ieee
LIBS:dc-dc
LIBS:elec-unifil
LIBS:ftdi
LIBS:gennum
LIBS:graphic
LIBS:hc11
LIBS:ir
LIBS:logo
LIBS:maxim
LIBS:microchip_dspic33dsc
LIBS:microchip_pic10mcu
LIBS:microchip_pic12mcu
LIBS:microchip_pic16mcu
LIBS:microchip_pic18mcu
LIBS:microchip_pic32mcu
LIBS:motor_drivers
LIBS:msp430
LIBS:nordicsemi
LIBS:nxp_armmcu
LIBS:onsemi
LIBS:powerint
LIBS:pspice
LIBS:references
LIBS:relays
LIBS:rfcom
LIBS:sensors
LIBS:silabs
LIBS:stm8
LIBS:stm32
LIBS:supertex
LIBS:switches
LIBS:transf
LIBS:ttl_ieee
LIBS:video
LIBS:arduino_shieldsNCL
LIBS:pistuino_smd-cache
EELAYER 25 0
EELAYER END
$Descr A4 11693 8268
encoding utf-8
Sheet 1 1
Title "Microcontrolador ATMEGA328-P"
Date "28 dec 2013"
Rev ""
Comp "NOVVO"
Comment1 ""
Comment2 ""
Comment3 ""
Comment4 ""
$EndDescr
$Comp
L GND #PWR2
U 1 1 5266E714
P 1100 2050
F 0 "#PWR2" H 1100 2050 30  0001 C CNN
F 1 "GND" H 1100 1980 30  0001 C CNN
F 2 "" H 1100 2050 60  0001 C CNN
F 3 "" H 1100 2050 60  0001 C CNN
	1    1100 2050
	1    0    0    -1  
$EndComp
$Comp
L C-RESCUE-pistuino_smd C4
U 1 1 5266E6F4
P 1100 1700
F 0 "C4" H 1150 1800 50  0000 L CNN
F 1 "0.1uF" H 1150 1600 50  0000 L CNN
F 2 "Capacitors_SMD:C_0805_HandSoldering" H 1100 1700 60  0001 C CNN
F 3 "" H 1100 1700 60  0001 C CNN
	1    1100 1700
	1    0    0    -1  
$EndComp
$Comp
L GND #PWR7
U 1 1 5265B079
P 1850 5050
F 0 "#PWR7" H 1850 5050 30  0001 C CNN
F 1 "GND" H 1850 4980 30  0001 C CNN
F 2 "" H 1850 5050 60  0001 C CNN
F 3 "" H 1850 5050 60  0001 C CNN
	1    1850 5050
	1    0    0    -1  
$EndComp
$Comp
L +5V #PWR6
U 1 1 5265B072
P 1850 4650
F 0 "#PWR6" H 1850 4740 20  0001 C CNN
F 1 "+5V" H 1850 4740 30  0000 C CNN
F 2 "" H 1850 4650 60  0001 C CNN
F 3 "" H 1850 4650 60  0001 C CNN
	1    1850 4650
	1    0    0    -1  
$EndComp
Text Label 1850 4850 0    60   ~ 0
PB3
Text Label 650  4750 0    60   ~ 0
PB4
Text Label 650  4850 0    60   ~ 0
PB5
Text Label 650  4950 0    60   ~ 0
RESET
$Comp
L CONN_3X2 ICSP1
U 1 1 5265AFB0
P 1350 4900
F 0 "ICSP1" H 1350 5150 50  0000 C CNN
F 1 "CONN_3X2" V 1350 4950 40  0000 C CNN
F 2 "Pin_Headers:Pin_Header_Straight_2x03" H 1350 4900 60  0001 C CNN
F 3 "" H 1350 4900 60  0001 C CNN
	1    1350 4900
	1    0    0    -1  
$EndComp
$Comp
L +5V #PWR10
U 1 1 52645453
P 4700 7050
F 0 "#PWR10" H 4700 7140 20  0001 C CNN
F 1 "+5V" H 4700 7140 30  0000 C CNN
F 2 "" H 4700 7050 60  0001 C CNN
F 3 "" H 4700 7050 60  0001 C CNN
	1    4700 7050
	0    1    1    0   
$EndComp
$Comp
L +5V #PWR14
U 1 1 52644E0F
P 7450 5150
F 0 "#PWR14" H 7450 5240 20  0001 C CNN
F 1 "+5V" H 7450 5240 30  0000 C CNN
F 2 "" H 7450 5150 60  0001 C CNN
F 3 "" H 7450 5150 60  0001 C CNN
	1    7450 5150
	1    0    0    -1  
$EndComp
$Comp
L +12V #PWR8
U 1 1 52644DD4
P 2450 6800
F 0 "#PWR8" H 2450 6750 20  0001 C CNN
F 1 "+12V" H 2450 6900 30  0000 C CNN
F 2 "" H 2450 6800 60  0001 C CNN
F 3 "" H 2450 6800 60  0001 C CNN
	1    2450 6800
	1    0    0    -1  
$EndComp
Text Label 3900 2700 0    60   ~ 0
PC5
Text Label 3900 2600 0    60   ~ 0
PC4
Text Label 3900 2500 0    60   ~ 0
PC3
Text Label 3900 2400 0    60   ~ 0
PC2
Text Label 4050 1850 0    60   ~ 0
PB5
Text Label 4050 1750 0    60   ~ 0
PB4
Text Label 4050 1650 0    60   ~ 0
PB3
Text Label 4050 1550 0    60   ~ 0
PB2
Text Label 4050 1450 0    60   ~ 0
PB1
Text Label 4050 1350 0    60   ~ 0
PB0
Text Label 4050 3650 0    60   ~ 0
PD7
Text Label 4050 3550 0    60   ~ 0
PD6
Text Label 3900 2200 0    60   ~ 0
PC0
Text Label 3900 2300 0    60   ~ 0
PC1
Text Label 4050 3450 0    60   ~ 0
PD5
Text Label 4050 3350 0    60   ~ 0
PD4
Text Label 4050 3250 0    60   ~ 0
PD3
Text Label 4050 3150 0    60   ~ 0
PD2
Text Label 4050 3050 0    60   ~ 0
TXD
Text Label 4050 2950 0    60   ~ 0
RXD
Text Label 4250 2800 2    60   ~ 0
RESET
$Comp
L GND #PWR5
U 1 1 52640270
P 1650 3600
F 0 "#PWR5" H 1650 3600 30  0001 C CNN
F 1 "GND" H 1650 3530 30  0001 C CNN
F 2 "" H 1650 3600 60  0001 C CNN
F 3 "" H 1650 3600 60  0001 C CNN
	1    1650 3600
	0    1    1    0   
$EndComp
Text Label 7150 5800 0    60   ~ 0
RESET
$Comp
L R-RESCUE-pistuino_smd R1
U 1 1 52640047
P 7450 5550
F 0 "R1" V 7530 5550 50  0000 C CNN
F 1 "10k" V 7450 5550 50  0000 C CNN
F 2 "Resistors_SMD:R_0805_HandSoldering" H 7450 5550 60  0001 C CNN
F 3 "" H 7450 5550 60  0001 C CNN
	1    7450 5550
	-1   0    0    1   
$EndComp
$Comp
L SW_PUSH SW1
U 1 1 5263FFF6
P 8600 5100
F 0 "SW1" H 8750 5210 50  0000 C CNN
F 1 "SW_PUSH" H 8600 5020 50  0000 C CNN
F 2 "Discret:SW_PUSH_SMALL" H 8600 5100 60  0001 C CNN
F 3 "" H 8600 5100 60  0001 C CNN
	1    8600 5100
	1    0    0    -1  
$EndComp
Text Label 8300 5500 0    60   ~ 0
TXD
Text Label 8300 5400 0    60   ~ 0
RXD
$Comp
L GND #PWR21
U 1 1 5263FEDF
P 8900 4950
F 0 "#PWR21" H 8900 4950 30  0001 C CNN
F 1 "GND" H 8900 4880 30  0001 C CNN
F 2 "" H 8900 4950 60  0001 C CNN
F 3 "" H 8900 4950 60  0001 C CNN
	1    8900 4950
	-1   0    0    1   
$EndComp
$Comp
L CONN_6 P2
U 1 1 5263FEA6
P 9400 5350
F 0 "P2" V 9350 5350 60  0000 C CNN
F 1 "FTDI" V 9450 5350 60  0000 C CNN
F 2 "Pin_Headers:Pin_Header_Angled_1x06" H 9400 5350 60  0001 C CNN
F 3 "" H 9400 5350 60  0001 C CNN
	1    9400 5350
	1    0    0    -1  
$EndComp
$Comp
L C-RESCUE-pistuino_smd C6
U 1 1 5263FDED
P 8700 5800
F 0 "C6" H 8750 5900 50  0000 L CNN
F 1 "0.1uF" H 8750 5700 50  0000 L CNN
F 2 "Capacitors_SMD:C_0805_HandSoldering" H 8700 5800 60  0001 C CNN
F 3 "" H 8700 5800 60  0001 C CNN
	1    8700 5800
	0    1    1    0   
$EndComp
$Comp
L GND #PWR13
U 1 1 5263FCC9
P 5150 2000
F 0 "#PWR13" H 5150 2000 30  0001 C CNN
F 1 "GND" H 5150 1930 30  0001 C CNN
F 2 "" H 5150 2000 60  0001 C CNN
F 3 "" H 5150 2000 60  0001 C CNN
	1    5150 2000
	0    -1   -1   0   
$EndComp
$Comp
L GND #PWR11
U 1 1 5263F621
P 4700 7450
F 0 "#PWR11" H 4700 7450 30  0001 C CNN
F 1 "GND" H 4700 7380 30  0001 C CNN
F 2 "" H 4700 7450 60  0001 C CNN
F 3 "" H 4700 7450 60  0001 C CNN
	1    4700 7450
	0    -1   -1   0   
$EndComp
$Comp
L CP1-RESCUE-pistuino_smd C3
U 1 1 5263F510
P 4300 7250
F 0 "C3" H 4350 7350 50  0000 L CNN
F 1 "47uF" H 4350 7150 50  0000 L CNN
F 2 "Capacitors_SMD:c_elec_6.3x5.3" H 4300 7250 60  0001 C CNN
F 3 "" H 4300 7250 60  0001 C CNN
	1    4300 7250
	1    0    0    -1  
$EndComp
$Comp
L ATMEGA328-P IC1
U 1 1 53B92AD3
P 2750 2450
F 0 "IC1" H 2000 3700 40  0000 L BNN
F 1 "ATMEGA328-P" H 3150 1050 40  0000 L BNN
F 2 "Sockets_DIP:DIP-28__300_ELL" H 2750 2450 30  0000 C CIN
F 3 "" H 2750 2450 60  0000 C CNN
	1    2750 2450
	1    0    0    -1  
$EndComp
$Comp
L C-RESCUE-pistuino_smd C7
U 1 1 53B92E66
P 4850 1700
F 0 "C7" H 4850 1800 40  0000 L CNN
F 1 "22pF" H 4856 1615 40  0000 L CNN
F 2 "Capacitors_SMD:C_0805_HandSoldering" H 4888 1550 30  0001 C CNN
F 3 "" H 4850 1700 60  0000 C CNN
	1    4850 1700
	0    1    1    0   
$EndComp
$Comp
L C-RESCUE-pistuino_smd C8
U 1 1 53B92E7A
P 4850 2300
F 0 "C8" H 4850 2400 40  0000 L CNN
F 1 "22pF" H 4856 2215 40  0000 L CNN
F 2 "Capacitors_SMD:C_0805_HandSoldering" H 4888 2150 30  0001 C CNN
F 3 "" H 4850 2300 60  0000 C CNN
	1    4850 2300
	0    1    1    0   
$EndComp
Text Label 7450 3350 2    60   ~ 0
PC5
Text Label 7450 3250 2    60   ~ 0
PC4
Text Label 7450 3150 2    60   ~ 0
PC3
Text Label 7450 3050 2    60   ~ 0
PC2
Text Label 7450 2850 2    60   ~ 0
PC0
Text Label 7450 2950 2    60   ~ 0
PC1
$Comp
L +12V #PWR20
U 1 1 53B93587
P 7600 2650
F 0 "#PWR20" H 7600 2600 20  0001 C CNN
F 1 "+12V" H 7600 2750 30  0000 C CNN
F 2 "" H 7600 2650 60  0000 C CNN
F 3 "" H 7600 2650 60  0000 C CNN
	1    7600 2650
	0    -1   -1   0   
$EndComp
$Comp
L GND #PWR19
U 1 1 53B9359B
P 7600 2550
F 0 "#PWR19" H 7600 2550 30  0001 C CNN
F 1 "GND" H 7600 2480 30  0001 C CNN
F 2 "" H 7600 2550 60  0000 C CNN
F 3 "" H 7600 2550 60  0000 C CNN
	1    7600 2550
	0    1    1    0   
$EndComp
$Comp
L GND #PWR18
U 1 1 53B935AF
P 7600 2450
F 0 "#PWR18" H 7600 2450 30  0001 C CNN
F 1 "GND" H 7600 2380 30  0001 C CNN
F 2 "" H 7600 2450 60  0000 C CNN
F 3 "" H 7600 2450 60  0000 C CNN
	1    7600 2450
	0    1    1    0   
$EndComp
$Comp
L +3.3V #PWR16
U 1 1 53B935FA
P 7600 2250
F 0 "#PWR16" H 7600 2210 30  0001 C CNN
F 1 "+3.3V" H 7600 2360 30  0000 C CNN
F 2 "" H 7600 2250 60  0000 C CNN
F 3 "" H 7600 2250 60  0000 C CNN
	1    7600 2250
	0    -1   -1   0   
$EndComp
Text Label 7100 2150 0    60   ~ 0
RESET
$Comp
L C-RESCUE-pistuino_smd C5
U 1 1 53B93649
P 1600 2150
F 0 "C5" H 1600 2250 40  0000 L CNN
F 1 "0.1uF" H 1606 2065 40  0000 L CNN
F 2 "Capacitors_SMD:C_0805_HandSoldering" H 1638 2000 30  0001 C CNN
F 3 "" H 1600 2150 60  0000 C CNN
	1    1600 2150
	1    0    0    -1  
$EndComp
$Comp
L GND #PWR4
U 1 1 53B936D6
P 1600 2350
F 0 "#PWR4" H 1600 2350 30  0001 C CNN
F 1 "GND" H 1600 2280 30  0001 C CNN
F 2 "" H 1600 2350 60  0000 C CNN
F 3 "" H 1600 2350 60  0000 C CNN
	1    1600 2350
	1    0    0    -1  
$EndComp
Text Label 3850 4800 2    60   ~ 0
PB5
$Comp
L R-RESCUE-pistuino_smd R3
U 1 1 53B936F8
P 4400 4800
F 0 "R3" V 4480 4800 40  0000 C CNN
F 1 "1k" V 4407 4801 40  0000 C CNN
F 2 "Resistors_SMD:R_0805_HandSoldering" V 4330 4800 30  0001 C CNN
F 3 "" H 4400 4800 30  0000 C CNN
	1    4400 4800
	0    1    1    0   
$EndComp
$Comp
L LED D4
U 1 1 53B93718
P 4850 4800
F 0 "D4" H 4850 4900 50  0000 C CNN
F 1 "LED" H 4850 4700 50  0000 C CNN
F 2 "LEDs:LED-0805" H 4850 4800 60  0001 C CNN
F 3 "" H 4850 4800 60  0000 C CNN
	1    4850 4800
	1    0    0    -1  
$EndComp
$Comp
L GND #PWR12
U 1 1 53B9372C
P 5050 4800
F 0 "#PWR12" H 5050 4800 30  0001 C CNN
F 1 "GND" H 5050 4730 30  0001 C CNN
F 2 "" H 5050 4800 60  0000 C CNN
F 3 "" H 5050 4800 60  0000 C CNN
	1    5050 4800
	0    -1   -1   0   
$EndComp
Text Notes 650  6600 0    60   ~ 0
Use Jumper or regulator.\n\nWith Jumper, acceptable inputs include:\n5 V DC regulated adapter,\n4.5 V battery input\n\nWith regulator, acceptable inputs \nare DC power supplies, 5.5-24 V.\n\nVCC_in: entrada de corriente. Alternativo al jack\nGND_in: entrada de tierra. Alternativo al jack\n\n
Text Label 9800 3000 0    60   ~ 0
PD4
Text Label 9800 3100 0    60   ~ 0
PD3
Text Label 9800 3200 0    60   ~ 0
PD2
Text Label 9800 3300 0    60   ~ 0
TXD
Text Label 9800 3400 0    60   ~ 0
RXD
Text Label 9800 2700 0    60   ~ 0
PD7
Text Label 9800 2800 0    60   ~ 0
PD6
Text Label 9800 2900 0    60   ~ 0
PD5
Text Label 9800 2100 0    60   ~ 0
PB5
Text Label 9800 2200 0    60   ~ 0
PB4
Text Label 9800 2300 0    60   ~ 0
PB3
Text Label 9800 2400 0    60   ~ 0
PB2
Text Label 9800 2500 0    60   ~ 0
PB1
Text Label 9800 2600 0    60   ~ 0
PB0
Text Label 1400 1950 0    60   ~ 0
AREF
Text Label 9800 1900 0    60   ~ 0
AREF
$Comp
L 7805 U1
U 1 1 53B9514E
P 3700 7100
F 0 "U1" H 3850 6904 60  0000 C CNN
F 1 "7805" H 3700 7300 60  0000 C CNN
F 2 "Discret:LM78XXV" H 3700 7100 60  0001 C CNN
F 3 "" H 3700 7100 60  0000 C CNN
	1    3700 7100
	1    0    0    -1  
$EndComp
$Comp
L C-RESCUE-pistuino_smd C2
U 1 1 53B963E2
P 3100 7250
F 0 "C2" H 3100 7350 40  0000 L CNN
F 1 "0.1uF" H 3106 7165 40  0000 L CNN
F 2 "Capacitors_SMD:C_0805_HandSoldering" H 3138 7100 30  0001 C CNN
F 3 "" H 3100 7250 60  0000 C CNN
	1    3100 7250
	1    0    0    -1  
$EndComp
$Comp
L CRYSTAL X1
U 1 1 53B997F3
P 4650 2000
F 0 "X1" H 4650 2150 60  0000 C CNN
F 1 "CRYSTAL" H 4650 1850 60  0000 C CNN
F 2 "Crystals:Crystal_HC49-U_Vertical" H 4650 2000 60  0001 C CNN
F 3 "" H 4650 2000 60  0000 C CNN
	1    4650 2000
	0    1    1    0   
$EndComp
$Comp
L CONN_2 V_IN1
U 1 1 53C258E5
P 1250 7350
F 0 "V_IN1" V 1200 7350 40  0000 C CNN
F 1 "CONN_2" V 1300 7350 40  0000 C CNN
F 2 "w_conn_kk100:kk100_22-23-2021" H 1250 7350 60  0001 C CNN
F 3 "" H 1250 7350 60  0000 C CNN
	1    1250 7350
	-1   0    0    -1  
$EndComp
$Comp
L CONN_2 5V_in1
U 1 1 53C2613A
P 4900 6600
F 0 "5V_in1" V 4850 6600 40  0000 C CNN
F 1 "CONN_2" V 4950 6600 40  0000 C CNN
F 2 "w_conn_kk100:kk100_22-23-2021" H 4900 6600 60  0001 C CNN
F 3 "" H 4900 6600 60  0000 C CNN
	1    4900 6600
	1    0    0    1   
$EndComp
$Comp
L GND #PWR9
U 1 1 53C2623F
P 4550 6500
F 0 "#PWR9" H 4550 6500 30  0001 C CNN
F 1 "GND" H 4550 6430 30  0001 C CNN
F 2 "" H 4550 6500 60  0000 C CNN
F 3 "" H 4550 6500 60  0000 C CNN
	1    4550 6500
	0    1    1    0   
$EndComp
$Comp
L CP1-RESCUE-pistuino_smd C1
U 1 1 53C26FEB
P 2700 7250
F 0 "C1" H 2750 7350 50  0000 L CNN
F 1 "47uF" H 2750 7150 50  0000 L CNN
F 2 "Capacitors_SMD:c_elec_6.3x5.3" H 2700 7250 60  0001 C CNN
F 3 "" H 2700 7250 60  0001 C CNN
	1    2700 7250
	1    0    0    -1  
$EndComp
$Comp
L GND #PWR1
U 1 1 53C2A78D
P 650 2050
F 0 "#PWR1" H 650 2050 30  0001 C CNN
F 1 "GND" H 650 1980 30  0001 C CNN
F 2 "" H 650 2050 60  0001 C CNN
F 3 "" H 650 2050 60  0001 C CNN
	1    650  2050
	1    0    0    -1  
$EndComp
$Comp
L C-RESCUE-pistuino_smd C9
U 1 1 53C2A793
P 650 1700
F 0 "C9" H 700 1800 50  0000 L CNN
F 1 "0.1uF" H 700 1600 50  0000 L CNN
F 2 "Capacitors_SMD:C_0805_HandSoldering" H 650 1700 60  0001 C CNN
F 3 "" H 650 1700 60  0001 C CNN
	1    650  1700
	1    0    0    -1  
$EndComp
Wire Wire Line
	1100 1900 1100 2050
Wire Wire Line
	1750 4850 1850 4850
Wire Wire Line
	1850 5050 1850 4950
Wire Wire Line
	1850 4950 1750 4950
Wire Wire Line
	950  4850 650  4850
Connection ~ 3100 7050
Wire Wire Line
	3750 1850 4050 1850
Wire Wire Line
	3750 1650 4050 1650
Wire Wire Line
	3750 1450 4050 1450
Wire Wire Line
	3750 3650 4050 3650
Wire Wire Line
	3750 2700 3900 2700
Wire Wire Line
	3750 2500 3900 2500
Wire Wire Line
	3750 3350 4050 3350
Wire Wire Line
	3750 3150 4050 3150
Wire Wire Line
	3750 2950 4050 2950
Wire Wire Line
	9050 5500 8300 5500
Wire Wire Line
	9050 5400 8300 5400
Wire Wire Line
	8900 4950 8900 5200
Wire Wire Line
	8900 5100 9050 5100
Wire Wire Line
	8900 5800 9050 5800
Wire Wire Line
	3300 7050 2450 7050
Wire Wire Line
	3700 7450 3700 7350
Connection ~ 3700 7450
Wire Wire Line
	9050 5800 9050 5600
Wire Wire Line
	3750 2800 4250 2800
Wire Wire Line
	3750 3050 4050 3050
Wire Wire Line
	3750 3250 4050 3250
Wire Wire Line
	3750 3450 4050 3450
Wire Wire Line
	3750 2300 3900 2300
Wire Wire Line
	3900 2200 3750 2200
Wire Wire Line
	3750 2400 3900 2400
Wire Wire Line
	3750 2600 3900 2600
Wire Wire Line
	3750 3550 4050 3550
Wire Wire Line
	3750 1350 4050 1350
Wire Wire Line
	3750 1550 4050 1550
Wire Wire Line
	3750 1750 4050 1750
Connection ~ 4300 7050
Connection ~ 4300 7450
Connection ~ 3100 7450
Wire Wire Line
	4100 7050 4700 7050
Wire Wire Line
	950  4750 650  4750
Wire Wire Line
	950  4950 650  4950
Wire Wire Line
	1750 4750 1850 4750
Wire Wire Line
	1850 4750 1850 4650
Wire Wire Line
	2450 6800 2450 7250
Connection ~ 2450 7050
Wire Wire Line
	3750 1950 4350 1950
Wire Wire Line
	4350 1950 4350 1700
Wire Wire Line
	4350 1700 4650 1700
Wire Wire Line
	3750 2050 4350 2050
Wire Wire Line
	4350 2050 4350 2300
Wire Wire Line
	4350 2300 4650 2300
Wire Wire Line
	5050 1700 5050 2300
Wire Wire Line
	1850 3550 1850 3650
Wire Wire Line
	1850 3600 1650 3600
Connection ~ 1850 3600
Wire Wire Line
	7600 3350 7450 3350
Wire Wire Line
	7600 3150 7450 3150
Wire Wire Line
	7600 2950 7450 2950
Wire Wire Line
	7450 2850 7600 2850
Wire Wire Line
	7600 3050 7450 3050
Wire Wire Line
	7600 3250 7450 3250
Wire Wire Line
	7600 2150 7100 2150
Wire Wire Line
	1400 1950 1850 1950
Wire Wire Line
	4150 4800 3850 4800
Wire Wire Line
	8900 5200 9050 5200
Connection ~ 8900 5100
Wire Wire Line
	7450 5150 7450 5300
Connection ~ 7450 5800
Wire Wire Line
	7850 5300 9050 5300
Wire Wire Line
	7150 5800 8500 5800
Wire Wire Line
	8300 5100 7750 5100
Wire Wire Line
	7750 5100 7750 5800
Connection ~ 7750 5800
Wire Wire Line
	9500 3000 9800 3000
Wire Wire Line
	9500 3200 9800 3200
Wire Wire Line
	9500 3400 9800 3400
Wire Wire Line
	9500 3300 9800 3300
Wire Wire Line
	9500 3100 9800 3100
Wire Wire Line
	9500 2700 9800 2700
Wire Wire Line
	9500 2900 9800 2900
Wire Wire Line
	9500 2800 9800 2800
Wire Wire Line
	9500 2100 9800 2100
Wire Wire Line
	9500 2300 9800 2300
Wire Wire Line
	9500 2500 9800 2500
Wire Wire Line
	9500 2600 9800 2600
Wire Wire Line
	9500 2400 9800 2400
Wire Wire Line
	9500 2200 9800 2200
Connection ~ 1600 1950
Wire Wire Line
	9500 1900 9800 1900
Wire Wire Line
	5050 2000 5150 2000
Connection ~ 5050 2000
Wire Wire Line
	4300 7050 4550 7050
Connection ~ 4550 7050
Wire Wire Line
	2450 7250 2300 7250
Wire Wire Line
	4550 7050 4550 6700
Wire Wire Line
	1600 7450 4700 7450
Connection ~ 2700 7450
Wire Wire Line
	650  1900 650  2050
$Comp
L +5V #PWR3
U 1 1 53B933C8
P 1350 1500
F 0 "#PWR3" H 1350 1590 20  0001 C CNN
F 1 "+5V" H 1350 1590 30  0000 C CNN
F 2 "" H 1350 1500 60  0000 C CNN
F 3 "" H 1350 1500 60  0000 C CNN
	1    1350 1500
	1    0    0    -1  
$EndComp
Wire Wire Line
	650  1500 1850 1500
Connection ~ 1100 1500
Wire Wire Line
	1850 1350 1850 1650
Connection ~ 1350 1500
Connection ~ 1850 1500
Connection ~ 2700 7050
$Comp
L CONN_2 USB_JV1
U 1 1 53C2B6CC
P 7750 4500
F 0 "USB_JV1" V 7700 4500 40  0000 C CNN
F 1 "CONN_2" V 7800 4500 40  0000 C CNN
F 2 "Pin_Headers:Pin_Header_Straight_1x02" H 7750 4500 60  0001 C CNN
F 3 "" H 7750 4500 60  0000 C CNN
	1    7750 4500
	0    -1   -1   0   
$EndComp
Wire Wire Line
	7650 4850 7650 5300
Wire Wire Line
	7650 5300 7450 5300
Wire Wire Line
	7850 4850 7850 5300
$Comp
L CONN_01X03 P1
U 1 1 548B8F2A
P 3700 6500
F 0 "P1" H 3700 6700 50  0000 C CNN
F 1 "CONN_01X03" V 3800 6500 50  0000 C CNN
F 2 "Housings_SOT-89:SOT89-3_Housing_Handsoldering" H 3700 6500 60  0001 C CNN
F 3 "" H 3700 6500 60  0000 C CNN
	1    3700 6500
	0    -1   -1   0   
$EndComp
Wire Wire Line
	3300 6800 3300 7050
Wire Wire Line
	3700 6700 3700 6800
Wire Wire Line
	3400 6700 3400 7350
Wire Wire Line
	3400 7350 3700 7350
Wire Wire Line
	3800 6700 4100 6700
Wire Wire Line
	4100 6700 4100 7050
Wire Notes Line
	550  5450 5350 5450
Wire Notes Line
	5350 5450 5350 7700
Wire Notes Line
	5350 7700 550  7700
Wire Notes Line
	550  7700 550  5450
Text Notes 3450 5800 0    157  ~ 31
Alimentación
Wire Notes Line
	550  4200 2200 4200
Wire Notes Line
	2200 4200 2200 5300
Wire Notes Line
	2200 5300 550  5300
Wire Notes Line
	550  5300 550  4200
Text Notes 750  4500 0    157  ~ 31
ICSP
Wire Notes Line
	550  600  5350 600 
Wire Notes Line
	5350 600  5350 4000
Wire Notes Line
	5350 4000 550  4000
Wire Notes Line
	550  4000 550  600 
Text Notes 750  950  0    157  ~ 31
Microcontrolador ATMEGA328-P
Wire Notes Line
	5350 5300 5350 4200
Wire Notes Line
	5350 4200 3200 4200
Wire Notes Line
	3200 4200 3200 5300
Wire Notes Line
	3200 5300 5350 5300
Text Notes 3400 4500 0    157  ~ 31
LED de vida
Wire Notes Line
	6950 4200 9950 4200
Wire Notes Line
	9950 4200 9950 6400
Wire Notes Line
	9950 6400 6950 6400
Wire Notes Line
	6950 6400 6950 4200
Text Notes 8450 4600 0    157  ~ 31
FTDI
Wire Notes Line
	6950 600  10300 600 
Wire Notes Line
	10300 600  10300 4000
Wire Notes Line
	10300 4000 6950 4000
Wire Notes Line
	6950 4000 6950 600 
Text Notes 7100 950  0    157  ~ 31
PINs de conexión
Wire Wire Line
	3400 6700 3600 6700
Wire Wire Line
	3700 6800 3300 6800
$Comp
L CONN_01X02 P3
U 1 1 5521A78B
P 1200 6900
F 0 "P3" H 1200 7050 50  0000 C CNN
F 1 "bloque_terminal" V 1300 6900 50  0000 C CNN
F 2 "Connect:bornier2" H 1200 6900 60  0001 C CNN
F 3 "" H 1200 6900 60  0000 C CNN
	1    1200 6900
	-1   0    0    1   
$EndComp
Wire Wire Line
	1400 6950 1600 6950
$Comp
L ARDUINO_SHIELD_R3 SHIELD1
U 1 1 555E5259
P 8550 2550
F 0 "SHIELD1" H 8200 3500 60  0000 C CNN
F 1 "ARDUINO_SHIELD_R3" H 8600 1600 60  0000 C CNN
F 2 "propiosFP:ARDUINO_SHIELD_R3" H 8550 2550 60  0001 C CNN
F 3 "" H 8550 2550 60  0000 C CNN
	1    8550 2550
	1    0    0    -1  
$EndComp
$Comp
L GND #PWR22
U 1 1 555E57BF
P 9500 2000
F 0 "#PWR22" H 9500 1750 50  0001 C CNN
F 1 "GND" H 9500 1850 50  0000 C CNN
F 2 "" H 9500 2000 60  0000 C CNN
F 3 "" H 9500 2000 60  0000 C CNN
	1    9500 2000
	0    -1   -1   0   
$EndComp
Text Label 9800 1800 0    60   ~ 0
PC4
Text Label 9800 1700 0    60   ~ 0
PC5
Wire Wire Line
	9500 1800 9800 1800
Wire Wire Line
	9500 1700 9800 1700
NoConn ~ 7600 1950
$Comp
L +5V #PWR15
U 1 1 555E5F29
P 7600 2050
F 0 "#PWR15" H 7600 1900 50  0001 C CNN
F 1 "+5V" H 7600 2190 50  0000 C CNN
F 2 "" H 7600 2050 60  0000 C CNN
F 3 "" H 7600 2050 60  0000 C CNN
	1    7600 2050
	0    -1   -1   0   
$EndComp
$Comp
L +5V #PWR17
U 1 1 53B93573
P 7600 2350
F 0 "#PWR17" H 7600 2440 20  0001 C CNN
F 1 "+5V" H 7600 2440 30  0000 C CNN
F 2 "" H 7600 2350 60  0000 C CNN
F 3 "" H 7600 2350 60  0000 C CNN
	1    7600 2350
	0    -1   -1   0   
$EndComp
$Comp
L D D3
U 1 1 555E64AE
P 2150 7250
F 0 "D3" H 2150 7350 50  0000 C CNN
F 1 "D" H 2150 7150 50  0000 C CNN
F 2 "Diodes_SMD:Diode-SMA_Handsoldering" H 2150 7250 60  0001 C CNN
F 3 "" H 2150 7250 60  0000 C CNN
	1    2150 7250
	-1   0    0    1   
$EndComp
$Comp
L F_Small F1
U 1 1 555E6798
P 1850 7250
F 0 "F1" H 1810 7310 50  0000 L CNN
F 1 "F_Small" H 1730 7190 50  0000 L CNN
F 2 "Fuse_Holders_and_Fuses:Fuse_SMD1206_HandSoldering" H 1850 7250 60  0001 C CNN
F 3 "" H 1850 7250 60  0000 C CNN
	1    1850 7250
	1    0    0    -1  
$EndComp
Wire Wire Line
	1950 7250 2000 7250
Wire Wire Line
	1600 7250 1750 7250
Wire Wire Line
	1600 6950 1600 7250
Wire Wire Line
	1700 7450 1700 6850
Wire Wire Line
	1700 6850 1400 6850
Connection ~ 1700 7450
$EndSCHEMATC
