EESchema Schematic File Version 2
LIBS:power
LIBS:device
LIBS:transistors
LIBS:conn
LIBS:linear
LIBS:regul
LIBS:74xx
LIBS:cmos4000
LIBS:adc-dac
LIBS:memory
LIBS:xilinx
LIBS:special
LIBS:microcontrollers
LIBS:dsp
LIBS:microchip
LIBS:analog_switches
LIBS:motorola
LIBS:texas
LIBS:intel
LIBS:audio
LIBS:interface
LIBS:digital-audio
LIBS:philips
LIBS:display
LIBS:cypress
LIBS:siliconi
LIBS:opto
LIBS:atmel
LIBS:contrib
LIBS:valves
EELAYER 24 0
EELAYER END
$Descr A4 11693 8268
encoding utf-8
Sheet 1 1
Title "Serialino"
Date "10 oct 2011"
Rev "1.0"
Comp "TrustFm (www.trustfm.net)"
Comment1 "Karidis Anastasios"
Comment2 "for www.hw2sw.com"
Comment3 "HW2SW.COM"
Comment4 ""
$EndDescr
$Comp
L DIODE D1
U 1 1 4E925B2C
P 1700 2250
F 0 "D1" H 1700 2350 40  0000 C CNN
F 1 "DIODE" H 1700 2150 40  0000 C CNN
F 2 "" H 1700 2250 60  0001 C CNN
F 3 "" H 1700 2250 60  0001 C CNN
	1    1700 2250
	1    0    0    -1  
$EndComp
Text Label 8250 3250 0    60   ~ 0
V33
Text Label 8300 2250 0    60   ~ 0
AREF
$Comp
L GND #PWR01
U 1 1 4E91105E
P 8050 2200
F 0 "#PWR01" H 8050 2200 30  0001 C CNN
F 1 "GND" H 8050 2130 30  0001 C CNN
F 2 "" H 8050 2200 60  0001 C CNN
F 3 "" H 8050 2200 60  0001 C CNN
	1    8050 2200
	1    0    0    -1  
$EndComp
Text Label 8300 2050 0    60   ~ 0
pd13
Text Label 8300 1950 0    60   ~ 0
pd12
Text Label 8300 1850 0    60   ~ 0
pd11
Text Label 8300 1750 0    60   ~ 0
pd10
Text Label 8300 1650 0    60   ~ 0
pd9
Text Label 8300 1550 0    60   ~ 0
pd8
Text Label 8300 1350 0    60   ~ 0
pd7
Text Label 8300 1250 0    60   ~ 0
pd6
Text Label 8300 1150 0    60   ~ 0
pd5
Text Label 8300 1050 0    60   ~ 0
pd4
Text Label 8300 950  0    60   ~ 0
pd3
Text Label 8300 850  0    60   ~ 0
pd2
Text Label 8300 750  0    60   ~ 0
pd1
Text Label 8300 650  0    60   ~ 0
pd0
Text Label 8300 2950 0    60   ~ 0
pc5
Text Label 8300 2850 0    60   ~ 0
pc4
Text Label 8300 2750 0    60   ~ 0
pc3
Text Label 8300 2650 0    60   ~ 0
pc2
Text Label 8300 2550 0    60   ~ 0
pc1
Text Label 8300 2450 0    60   ~ 0
pc0
Text Label 8250 3650 0    60   ~ 0
VIN
$Comp
L GND #PWR02
U 1 1 4E910F3A
P 8100 3500
F 0 "#PWR02" H 8100 3500 30  0001 C CNN
F 1 "GND" H 8100 3430 30  0001 C CNN
F 2 "" H 8100 3500 60  0001 C CNN
F 3 "" H 8100 3500 60  0001 C CNN
	1    8100 3500
	1    0    0    -1  
$EndComp
Text Label 8250 3350 0    60   ~ 0
VCC
Text Label 8250 3150 0    60   ~ 0
RESET
$Comp
L GND #PWR03
U 1 1 4E910D86
P 9400 4150
F 0 "#PWR03" H 9400 4150 30  0001 C CNN
F 1 "GND" H 9400 4080 30  0001 C CNN
F 2 "" H 9400 4150 60  0001 C CNN
F 3 "" H 9400 4150 60  0001 C CNN
	1    9400 4150
	1    0    0    -1  
$EndComp
Text Label 8250 4050 0    60   ~ 0
RESET
Text Label 8250 3950 0    60   ~ 0
pd13
Text Label 9400 3950 0    60   ~ 0
pd11
Text Label 9400 3850 0    60   ~ 0
VCC
Text Label 8250 3850 0    60   ~ 0
pd12
$Comp
L CONN_8 DIGITAL2
U 1 1 4E910B1B
P 8850 1900
F 0 "DIGITAL2" V 8800 1900 60  0000 C CNN
F 1 "CONN_8" V 8900 1900 60  0000 C CNN
F 2 "" H 8850 1900 60  0001 C CNN
F 3 "" H 8850 1900 60  0001 C CNN
	1    8850 1900
	1    0    0    -1  
$EndComp
$Comp
L CONN_8 DIGITAL1
U 1 1 4E910B12
P 8850 1000
F 0 "DIGITAL1" V 8800 1000 60  0000 C CNN
F 1 "CONN_8" V 8900 1000 60  0000 C CNN
F 2 "" H 8850 1000 60  0001 C CNN
F 3 "" H 8850 1000 60  0001 C CNN
	1    8850 1000
	1    0    0    -1  
$EndComp
$Comp
L CONN_6 POWER1
U 1 1 4E910B01
P 8850 3400
F 0 "POWER1" V 8800 3400 60  0000 C CNN
F 1 "CONN_6" V 8900 3400 60  0000 C CNN
F 2 "" H 8850 3400 60  0001 C CNN
F 3 "" H 8850 3400 60  0001 C CNN
	1    8850 3400
	1    0    0    -1  
$EndComp
$Comp
L CONN_3X2 ICSP1
U 1 1 4E910AF5
P 8850 4000
F 0 "ICSP1" H 8850 4250 50  0000 C CNN
F 1 "CONN_3X2" V 8850 4050 40  0000 C CNN
F 2 "" H 8850 4000 60  0001 C CNN
F 3 "" H 8850 4000 60  0001 C CNN
	1    8850 4000
	1    0    0    -1  
$EndComp
$Comp
L CONN_6 ANALOG1
U 1 1 4E910AE2
P 8850 2700
F 0 "ANALOG1" V 8800 2700 60  0000 C CNN
F 1 "CONN_6" V 8900 2700 60  0000 C CNN
F 2 "" H 8850 2700 60  0001 C CNN
F 3 "" H 8850 2700 60  0001 C CNN
	1    8850 2700
	1    0    0    -1  
$EndComp
$Comp
L GND #PWR04
U 1 1 4E9105A0
P 2200 5400
F 0 "#PWR04" H 2200 5400 30  0001 C CNN
F 1 "GND" H 2200 5330 30  0001 C CNN
F 2 "" H 2200 5400 60  0001 C CNN
F 3 "" H 2200 5400 60  0001 C CNN
	1    2200 5400
	1    0    0    -1  
$EndComp
Text Label 4600 6700 3    60   ~ 0
RESET
$Comp
L C C4
U 1 1 4E910561
P 4600 5300
F 0 "C4" H 4650 5400 50  0000 L CNN
F 1 "0.1u" H 4650 5200 50  0000 L CNN
F 2 "" H 4600 5300 60  0001 C CNN
F 3 "" H 4600 5300 60  0001 C CNN
	1    4600 5300
	1    0    0    -1  
$EndComp
$Comp
L BREAKER JP4
U 1 1 4E910538
P 4600 6000
F 0 "JP4" H 4600 5950 50  0000 C CNN
F 1 "AUTORESET" H 4600 5850 50  0000 C CNN
F 2 "" H 4600 6000 60  0001 C CNN
F 3 "" H 4600 6000 60  0001 C CNN
	1    4600 6000
	0    -1   -1   0   
$EndComp
$Comp
L DB9 Se1
U 1 1 4E910371
P 1600 4900
F 0 "Se1" H 1600 5450 70  0000 C CNN
F 1 "DB9" H 1600 4350 70  0000 C CNN
F 2 "" H 1600 4900 60  0001 C CNN
F 3 "" H 1600 4900 60  0001 C CNN
	1    1600 4900
	-1   0    0    1   
$EndComp
Text Label 1950 2250 0    60   ~ 0
VIN
Text Label 4150 1950 0    60   ~ 0
AREF
Text Label 6250 1850 0    60   ~ 0
pd13
Text Label 6250 1750 0    60   ~ 0
pd12
Text Label 6250 1650 0    60   ~ 0
pd11
Text Label 6250 1550 0    60   ~ 0
pd10
Text Label 6250 1450 0    60   ~ 0
pd9
Text Label 6250 1350 0    60   ~ 0
pd8
Text Label 6200 2800 0    60   ~ 0
RESET
Text Label 4150 1500 2    60   ~ 0
VCC
Text Label 6250 2700 0    60   ~ 0
pc5
Text Label 6250 2600 0    60   ~ 0
pc4
Text Label 6250 2500 0    60   ~ 0
pc3
Text Label 6250 2400 0    60   ~ 0
pc2
Text Label 6250 2300 0    60   ~ 0
pc1
Text Label 6250 2200 0    60   ~ 0
pc0
Text Label 6250 2950 0    60   ~ 0
pd0
Text Label 6250 3050 0    60   ~ 0
pd1
Text Label 6250 3150 0    60   ~ 0
pd2
Text Label 6250 3250 0    60   ~ 0
pd3
Text Label 6250 3350 0    60   ~ 0
pd4
Text Label 6250 3450 0    60   ~ 0
pd5
Text Label 6250 3550 0    60   ~ 0
pd6
$Comp
L GND #PWR05
U 1 1 4E90F3C1
P 7650 3250
F 0 "#PWR05" H 7650 3250 30  0001 C CNN
F 1 "GND" H 7650 3180 30  0001 C CNN
F 2 "" H 7650 3250 60  0001 C CNN
F 3 "" H 7650 3250 60  0001 C CNN
	1    7650 3250
	1    0    0    -1  
$EndComp
$Comp
L SPST SW1
U 1 1 4E90F3A4
P 7000 3050
F 0 "SW1" H 7000 3150 70  0000 C CNN
F 1 "SPST" H 7000 2950 70  0000 C CNN
F 2 "" H 7000 3050 60  0001 C CNN
F 3 "" H 7000 3050 60  0001 C CNN
	1    7000 3050
	1    0    0    -1  
$EndComp
Text Label 6250 3650 0    60   ~ 0
pd7
$Comp
L GND #PWR06
U 1 1 4E5136AA
P 1650 1750
F 0 "#PWR06" H 1650 1750 30  0001 C CNN
F 1 "GND" H 1650 1680 30  0001 C CNN
F 2 "" H 1650 1750 60  0001 C CNN
F 3 "" H 1650 1750 60  0001 C CNN
	1    1650 1750
	-1   0    0    1   
$EndComp
$Comp
L R R11
U 1 1 4E512ABD
P 6750 2800
F 0 "R11" V 6830 2800 50  0000 C CNN
F 1 "10K" V 6750 2800 50  0000 C CNN
F 2 "" H 6750 2800 60  0001 C CNN
F 3 "" H 6750 2800 60  0001 C CNN
	1    6750 2800
	0    1    1    0   
$EndComp
$Comp
L GND #PWR07
U 1 1 4E51294E
P 7600 2050
F 0 "#PWR07" H 7600 2050 30  0001 C CNN
F 1 "GND" H 7600 1980 30  0001 C CNN
F 2 "" H 7600 2050 60  0001 C CNN
F 3 "" H 7600 2050 60  0001 C CNN
	1    7600 2050
	1    0    0    -1  
$EndComp
$Comp
L C C2
U 1 1 4E512919
P 7100 2350
F 0 "C2" H 7150 2450 50  0000 L CNN
F 1 "22p" H 7150 2250 50  0000 L CNN
F 2 "" H 7100 2350 60  0001 C CNN
F 3 "" H 7100 2350 60  0001 C CNN
	1    7100 2350
	0    1    1    0   
$EndComp
$Comp
L C C1
U 1 1 4E51290E
P 7100 1750
F 0 "C1" H 7150 1850 50  0000 L CNN
F 1 "22p" H 7150 1650 50  0000 L CNN
F 2 "" H 7100 1750 60  0001 C CNN
F 3 "" H 7100 1750 60  0001 C CNN
	1    7100 1750
	0    1    1    0   
$EndComp
$Comp
L CRYSTAL X1
U 1 1 4E51283B
P 6700 2050
F 0 "X1" H 6700 2200 60  0000 C CNN
F 1 "16Mhz" H 6700 1900 60  0000 C CNN
F 2 "" H 6700 2050 60  0001 C CNN
F 3 "" H 6700 2050 60  0001 C CNN
	1    6700 2050
	0    1    1    0   
$EndComp
$Comp
L GND #PWR08
U 1 1 4E5121AC
P 4100 3750
F 0 "#PWR08" H 4100 3750 30  0001 C CNN
F 1 "GND" H 4100 3680 30  0001 C CNN
F 2 "" H 4100 3750 60  0001 C CNN
F 3 "" H 4100 3750 60  0001 C CNN
	1    4100 3750
	1    0    0    -1  
$EndComp
$Comp
L ATMEGA168-P IC1
U 1 1 4E511010
P 5300 2500
F 0 "IC1" H 4500 3800 50  0000 L BNN
F 1 "ATMEGA168-P" H 5450 1150 50  0000 L BNN
F 2 "DIL28" H 4600 1200 50  0001 C CNN
F 3 "" H 5300 2500 60  0001 C CNN
	1    5300 2500
	1    0    0    -1  
$EndComp
$Comp
L GND #PWR09
U 1 1 4E510F34
P 3850 3400
F 0 "#PWR09" H 3850 3400 30  0001 C CNN
F 1 "GND" H 3850 3330 30  0001 C CNN
F 2 "" H 3850 3400 60  0001 C CNN
F 3 "" H 3850 3400 60  0001 C CNN
	1    3850 3400
	1    0    0    -1  
$EndComp
$Comp
L LED LED14
U 1 1 4E510EFC
P 3850 3100
F 0 "LED14" H 3850 3200 50  0000 C CNN
F 1 "Power LED" H 3850 3000 50  0000 C CNN
F 2 "" H 3850 3100 60  0001 C CNN
F 3 "" H 3850 3100 60  0001 C CNN
	1    3850 3100
	0    1    1    0   
$EndComp
$Comp
L R R4
U 1 1 4E510ED7
P 3850 2650
F 0 "R4" V 3930 2650 50  0000 C CNN
F 1 "330" V 3850 2650 50  0000 C CNN
F 2 "" H 3850 2650 60  0001 C CNN
F 3 "" H 3850 2650 60  0001 C CNN
	1    3850 2650
	1    0    0    -1  
$EndComp
$Comp
L GND #PWR010
U 1 1 4E510DBD
P 3250 3100
F 0 "#PWR010" H 3250 3100 30  0001 C CNN
F 1 "GND" H 3250 3030 30  0001 C CNN
F 2 "" H 3250 3100 60  0001 C CNN
F 3 "" H 3250 3100 60  0001 C CNN
	1    3250 3100
	1    0    0    -1  
$EndComp
$Comp
L GND #PWR011
U 1 1 4E510DB6
P 2700 3100
F 0 "#PWR011" H 2700 3100 30  0001 C CNN
F 1 "GND" H 2700 3030 30  0001 C CNN
F 2 "" H 2700 3100 60  0001 C CNN
F 3 "" H 2700 3100 60  0001 C CNN
	1    2700 3100
	1    0    0    -1  
$EndComp
$Comp
L GND #PWR012
U 1 1 4E510DAB
P 1950 3100
F 0 "#PWR012" H 1950 3100 30  0001 C CNN
F 1 "GND" H 1950 3030 30  0001 C CNN
F 2 "" H 1950 3100 60  0001 C CNN
F 3 "" H 1950 3100 60  0001 C CNN
	1    1950 3100
	1    0    0    -1  
$EndComp
$Comp
L CP1 C5
U 1 1 4E510D43
P 3250 2650
F 0 "C5" H 3300 2750 50  0000 L CNN
F 1 "100u" H 3300 2550 50  0000 L CNN
F 2 "" H 3250 2650 60  0001 C CNN
F 3 "" H 3250 2650 60  0001 C CNN
	1    3250 2650
	1    0    0    -1  
$EndComp
$Comp
L CP1 C8
U 1 1 4E510D3D
P 1950 2650
F 0 "C8" H 2000 2750 50  0000 L CNN
F 1 "100u" H 2000 2550 50  0000 L CNN
F 2 "" H 1950 2650 60  0001 C CNN
F 3 "" H 1950 2650 60  0001 C CNN
	1    1950 2650
	1    0    0    -1  
$EndComp
$Comp
L 7805 U1
U 1 1 4E510CC6
P 2700 2300
F 0 "U1" H 2850 2104 60  0000 C CNN
F 1 "7805" H 2700 2500 60  0000 C CNN
F 2 "" H 2700 2300 60  0001 C CNN
F 3 "" H 2700 2300 60  0001 C CNN
	1    2700 2300
	1    0    0    -1  
$EndComp
Text Label 4050 2250 0    60   ~ 0
VCC
$Comp
L C C7
U 1 1 53BD301E
P 2300 2650
F 0 "C7" H 2300 2750 40  0000 L CNN
F 1 "100n" H 2306 2565 40  0000 L CNN
F 2 "" H 2338 2500 30  0000 C CNN
F 3 "" H 2300 2650 60  0000 C CNN
	1    2300 2650
	1    0    0    -1  
$EndComp
$Comp
L GND #PWR013
U 1 1 53BD316A
P 2300 3100
F 0 "#PWR013" H 2300 3100 30  0001 C CNN
F 1 "GND" H 2300 3030 30  0001 C CNN
F 2 "" H 2300 3100 60  0001 C CNN
F 3 "" H 2300 3100 60  0001 C CNN
	1    2300 3100
	1    0    0    -1  
$EndComp
$Comp
L CONN_3 JP0
U 1 1 53BD33FD
P 1000 4950
F 0 "JP0" V 950 4950 50  0000 C CNN
F 1 "CONN_3" V 1050 4950 40  0000 C CNN
F 2 "" H 1000 4950 60  0000 C CNN
F 3 "" H 1000 4950 60  0000 C CNN
	1    1000 4950
	0    -1   -1   0   
$EndComp
$Comp
L BC557 T2
U 1 1 53BD342F
P 3350 4200
F 0 "T2" H 3350 4051 40  0000 R CNN
F 1 "BC557" H 3350 4350 40  0000 R CNN
F 2 "TO92" H 3250 4302 29  0000 C CNN
F 3 "" H 3350 4200 60  0000 C CNN
	1    3350 4200
	-1   0    0    1   
$EndComp
$Comp
L BC547 T1
U 1 1 53BD344D
P 2700 6950
F 0 "T1" H 2700 6801 40  0000 R CNN
F 1 "BC547" H 2700 7100 40  0000 R CNN
F 2 "TO92" H 2600 7052 29  0000 C CNN
F 3 "" H 2700 6950 60  0000 C CNN
	1    2700 6950
	1    0    0    -1  
$EndComp
$Comp
L R R8
U 1 1 53BD346B
P 3550 3950
F 0 "R8" V 3630 3950 40  0000 C CNN
F 1 "10k" V 3557 3951 40  0000 C CNN
F 2 "" V 3480 3950 30  0000 C CNN
F 3 "" H 3550 3950 30  0000 C CNN
	1    3550 3950
	1    0    0    -1  
$EndComp
$Comp
L R R5
U 1 1 53BD34A2
P 3800 4200
F 0 "R5" V 3880 4200 40  0000 C CNN
F 1 "10k" V 3807 4201 40  0000 C CNN
F 2 "" V 3730 4200 30  0000 C CNN
F 3 "" H 3800 4200 30  0000 C CNN
	1    3800 4200
	0    -1   -1   0   
$EndComp
$Comp
L R R9
U 1 1 53BD34B6
P 3250 4650
F 0 "R9" V 3330 4650 40  0000 C CNN
F 1 "4k7" V 3257 4651 40  0000 C CNN
F 2 "" V 3180 4650 30  0000 C CNN
F 3 "" H 3250 4650 30  0000 C CNN
	1    3250 4650
	1    0    0    -1  
$EndComp
$Comp
L CP1 C9
U 1 1 53BD34CA
P 3250 5100
F 0 "C9" H 3300 5200 50  0000 L CNN
F 1 "10u" H 3300 5000 50  0000 L CNN
F 2 "" H 3250 5100 60  0000 C CNN
F 3 "" H 3250 5100 60  0000 C CNN
	1    3250 5100
	1    0    0    -1  
$EndComp
$Comp
L DIODE D3
U 1 1 53BD34DE
P 3050 4900
F 0 "D3" H 3050 5000 40  0000 C CNN
F 1 "1N4148" H 3050 4800 40  0000 C CNN
F 2 "" H 3050 4900 60  0000 C CNN
F 3 "" H 3050 4900 60  0000 C CNN
	1    3050 4900
	-1   0    0    1   
$EndComp
$Comp
L GND #PWR014
U 1 1 53BD34F4
P 3250 5300
F 0 "#PWR014" H 3250 5300 30  0001 C CNN
F 1 "GND" H 3250 5230 30  0001 C CNN
F 2 "" H 3250 5300 60  0000 C CNN
F 3 "" H 3250 5300 60  0000 C CNN
	1    3250 5300
	1    0    0    -1  
$EndComp
$Comp
L R R2
U 1 1 53BD358E
P 3900 4650
F 0 "R2" V 3980 4650 40  0000 C CNN
F 1 "1k" V 3907 4651 40  0000 C CNN
F 2 "" V 3830 4650 30  0000 C CNN
F 3 "" H 3900 4650 30  0000 C CNN
	1    3900 4650
	1    0    0    -1  
$EndComp
$Comp
L LED TX1
U 1 1 53BD35AC
P 3900 5100
F 0 "TX1" H 3900 5200 50  0000 C CNN
F 1 "LED1" H 3900 5000 50  0000 C CNN
F 2 "" H 3900 5100 60  0000 C CNN
F 3 "" H 3900 5100 60  0000 C CNN
	1    3900 5100
	0    1    1    0   
$EndComp
$Comp
L GND #PWR015
U 1 1 53BD35C0
P 3900 5300
F 0 "#PWR015" H 3900 5300 30  0001 C CNN
F 1 "GND" H 3900 5230 30  0001 C CNN
F 2 "" H 3900 5300 60  0000 C CNN
F 3 "" H 3900 5300 60  0000 C CNN
	1    3900 5300
	1    0    0    -1  
$EndComp
Wire Wire Line
	3100 2250 4050 2250
Wire Wire Line
	1900 2250 2300 2250
Connection ~ 8250 3450
Wire Wire Line
	8100 3500 8100 3450
Wire Wire Line
	8100 3450 8500 3450
Wire Wire Line
	8500 3650 8250 3650
Wire Wire Line
	8500 3250 8250 3250
Wire Wire Line
	8500 2950 8300 2950
Wire Wire Line
	8500 2750 8300 2750
Wire Wire Line
	8500 2550 8300 2550
Wire Wire Line
	8500 2450 8300 2450
Wire Wire Line
	8500 1950 8300 1950
Wire Wire Line
	8500 1750 8300 1750
Wire Wire Line
	8500 1550 8300 1550
Wire Wire Line
	8500 1250 8300 1250
Wire Wire Line
	8500 1150 8300 1150
Wire Wire Line
	8500 950  8300 950 
Wire Wire Line
	8500 750  8300 750 
Wire Wire Line
	9400 4150 9400 4050
Wire Wire Line
	8450 3950 8250 3950
Wire Wire Line
	9250 3950 9400 3950
Wire Wire Line
	8450 3850 8250 3850
Wire Wire Line
	2200 5400 2200 5300
Wire Wire Line
	2200 5300 2050 5300
Wire Wire Line
	6200 1650 6250 1650
Wire Wire Line
	6200 1450 6250 1450
Wire Wire Line
	6200 1850 6250 1850
Wire Wire Line
	6200 2300 6250 2300
Wire Wire Line
	6200 2500 6250 2500
Wire Wire Line
	6200 2700 6250 2700
Wire Wire Line
	6200 3050 6250 3050
Wire Wire Line
	6200 3250 6250 3250
Wire Wire Line
	6200 3450 6250 3450
Wire Wire Line
	7650 3250 7650 3050
Wire Wire Line
	7650 3050 7500 3050
Wire Wire Line
	6200 3650 6250 3650
Connection ~ 1950 2250
Connection ~ 6700 2350
Wire Wire Line
	6500 2350 6900 2350
Wire Wire Line
	7400 2350 7300 2350
Wire Wire Line
	4150 3650 4150 3550
Wire Wire Line
	4150 3550 4300 3550
Wire Wire Line
	7000 2800 7700 2800
Wire Wire Line
	7700 2800 7700 1050
Wire Wire Line
	7700 1050 4300 1050
Wire Wire Line
	7600 2050 7600 2000
Connection ~ 7400 2000
Wire Wire Line
	7600 2000 7400 2000
Wire Wire Line
	6200 2050 6500 2050
Wire Wire Line
	6500 2050 6500 2350
Wire Wire Line
	3250 1650 4300 1650
Wire Wire Line
	3850 3300 3850 3400
Connection ~ 3250 2250
Wire Wire Line
	3850 2250 3850 2400
Wire Wire Line
	1950 2250 1950 2450
Wire Wire Line
	3250 2850 3250 3100
Wire Wire Line
	1950 2850 1950 3100
Wire Wire Line
	2700 2550 2700 3100
Wire Wire Line
	3250 2250 3250 2450
Connection ~ 3850 2250
Wire Wire Line
	6500 1950 6500 1750
Wire Wire Line
	6500 1950 6200 1950
Wire Wire Line
	6500 1750 6900 1750
Connection ~ 6700 1750
Wire Wire Line
	7300 1750 7400 1750
Wire Wire Line
	7400 1750 7400 2350
Wire Wire Line
	6200 2800 6500 2800
Wire Wire Line
	4300 1950 4150 1950
Wire Wire Line
	4100 3650 4300 3650
Wire Wire Line
	4100 3650 4100 3750
Connection ~ 4150 3650
Wire Wire Line
	6450 2800 6450 3050
Connection ~ 6450 2800
Wire Wire Line
	6450 3050 6500 3050
Wire Wire Line
	6200 3550 6250 3550
Wire Wire Line
	6200 3350 6250 3350
Wire Wire Line
	6200 3150 6250 3150
Wire Wire Line
	6200 2950 6250 2950
Wire Wire Line
	6200 2600 6250 2600
Wire Wire Line
	6200 2400 6250 2400
Wire Wire Line
	6200 2200 6250 2200
Wire Wire Line
	6200 1350 6250 1350
Wire Wire Line
	6200 1550 6250 1550
Wire Wire Line
	6200 1750 6250 1750
Wire Wire Line
	2050 5100 4600 5100
Wire Wire Line
	9250 3850 9400 3850
Wire Wire Line
	9400 4050 9250 4050
Wire Wire Line
	8450 4050 8250 4050
Wire Wire Line
	8500 650  8300 650 
Wire Wire Line
	8500 850  8300 850 
Wire Wire Line
	8500 1050 8300 1050
Wire Wire Line
	8500 1350 8300 1350
Wire Wire Line
	8500 1650 8300 1650
Wire Wire Line
	8500 1850 8300 1850
Wire Wire Line
	8500 2050 8300 2050
Wire Wire Line
	8500 2250 8300 2250
Wire Wire Line
	8500 2650 8300 2650
Wire Wire Line
	8500 2850 8300 2850
Wire Wire Line
	8500 3150 8250 3150
Wire Wire Line
	8500 3350 8250 3350
Wire Wire Line
	8500 3550 8250 3550
Wire Wire Line
	8250 3550 8250 3450
Wire Wire Line
	8500 2150 8050 2150
Wire Wire Line
	8050 2150 8050 2200
Wire Wire Line
	1450 2250 1500 2250
Wire Wire Line
	2300 2250 2300 2450
Wire Wire Line
	2300 2850 2300 3100
Wire Wire Line
	2050 4900 2850 4900
Wire Wire Line
	2500 4400 3900 4400
$Comp
L R R1
U 1 1 53BD3777
P 3900 5800
F 0 "R1" V 3980 5800 40  0000 C CNN
F 1 "1k" V 3907 5801 40  0000 C CNN
F 2 "" V 3830 5800 30  0000 C CNN
F 3 "" H 3900 5800 30  0000 C CNN
	1    3900 5800
	1    0    0    -1  
$EndComp
$Comp
L LED RX1
U 1 1 53BD37A4
P 3900 6250
F 0 "RX1" H 3900 6350 50  0000 C CNN
F 1 "LED0" H 3900 6150 50  0000 C CNN
F 2 "" H 3900 6250 60  0000 C CNN
F 3 "" H 3900 6250 60  0000 C CNN
	1    3900 6250
	0    1    1    0   
$EndComp
$Comp
L GND #PWR016
U 1 1 53BD37B8
P 3900 6450
F 0 "#PWR016" H 3900 6450 30  0001 C CNN
F 1 "GND" H 3900 6380 30  0001 C CNN
F 2 "" H 3900 6450 60  0000 C CNN
F 3 "" H 3900 6450 60  0000 C CNN
	1    3900 6450
	1    0    0    -1  
$EndComp
Wire Wire Line
	2500 4900 2500 5850
Wire Wire Line
	2500 5550 3900 5550
Connection ~ 2500 4900
$Comp
L R R10
U 1 1 53BD3853
P 2500 6100
F 0 "R10" V 2580 6100 40  0000 C CNN
F 1 "10k" V 2507 6101 40  0000 C CNN
F 2 "" V 2430 6100 30  0000 C CNN
F 3 "" H 2500 6100 30  0000 C CNN
	1    2500 6100
	1    0    0    -1  
$EndComp
$Comp
L R R7
U 1 1 53BD3871
P 2800 6100
F 0 "R7" V 2880 6100 40  0000 C CNN
F 1 "10k" V 2807 6101 40  0000 C CNN
F 2 "" V 2730 6100 30  0000 C CNN
F 3 "" H 2800 6100 30  0000 C CNN
	1    2800 6100
	1    0    0    -1  
$EndComp
$Comp
L DIODE D2
U 1 1 53BD38A3
P 2500 7150
F 0 "D2" H 2500 7250 40  0000 C CNN
F 1 "1N4148" H 2500 7050 40  0000 C CNN
F 2 "" H 2500 7150 60  0000 C CNN
F 3 "" H 2500 7150 60  0000 C CNN
	1    2500 7150
	0    -1   -1   0   
$EndComp
$Comp
L GND #PWR017
U 1 1 53BD38DF
P 2800 7400
F 0 "#PWR017" H 2800 7400 30  0001 C CNN
F 1 "GND" H 2800 7330 30  0001 C CNN
F 2 "" H 2800 7400 60  0000 C CNN
F 3 "" H 2800 7400 60  0000 C CNN
	1    2800 7400
	1    0    0    -1  
$EndComp
Wire Wire Line
	2500 7350 2800 7350
Wire Wire Line
	2800 7150 2800 7400
Connection ~ 2800 7350
Wire Wire Line
	2500 6950 2500 6350
Wire Wire Line
	2800 6350 2800 6750
Connection ~ 2500 5550
$Comp
L R R6
U 1 1 53BD3BB0
P 3300 6700
F 0 "R6" V 3380 6700 40  0000 C CNN
F 1 "1k" V 3307 6701 40  0000 C CNN
F 2 "" V 3230 6700 30  0000 C CNN
F 3 "" H 3300 6700 30  0000 C CNN
	1    3300 6700
	0    -1   -1   0   
$EndComp
Wire Wire Line
	2800 6700 3050 6700
Connection ~ 2800 6700
Wire Wire Line
	600  3700 3550 3700
Wire Wire Line
	3250 4000 3250 3700
Connection ~ 3250 3700
$Comp
L GND #PWR018
U 1 1 53BD3E1C
P 900 5300
F 0 "#PWR018" H 900 5300 30  0001 C CNN
F 1 "GND" H 900 5230 30  0001 C CNN
F 2 "" H 900 5300 60  0000 C CNN
F 3 "" H 900 5300 60  0000 C CNN
	1    900  5300
	1    0    0    -1  
$EndComp
Text Label 1100 5300 3    60   ~ 0
VCC
Wire Wire Line
	2800 5850 2800 5700
Wire Wire Line
	2800 5700 600  5700
Wire Wire Line
	600  5700 600  3700
Wire Wire Line
	1000 5300 1000 5700
Connection ~ 1000 5700
$Comp
L INDUCTOR_SMALL L1
U 1 1 53BD5440
P 3700 1350
F 0 "L1" H 3700 1450 50  0000 C CNN
F 1 "INDUCTOR_SMALL" H 3700 1300 50  0000 C CNN
F 2 "" H 3700 1350 60  0000 C CNN
F 3 "" H 3700 1350 60  0000 C CNN
	1    3700 1350
	-1   0    0    1   
$EndComp
$Comp
L C C6
U 1 1 53BD558D
P 3250 1150
F 0 "C6" H 3250 1250 40  0000 L CNN
F 1 "C" H 3256 1065 40  0000 L CNN
F 2 "" H 3288 1000 30  0000 C CNN
F 3 "" H 3250 1150 60  0000 C CNN
	1    3250 1150
	1    0    0    -1  
$EndComp
$Comp
L C C3
U 1 1 53BD55A1
P 4150 1150
F 0 "C3" H 4150 1250 40  0000 L CNN
F 1 "C" H 4156 1065 40  0000 L CNN
F 2 "" H 4188 1000 30  0000 C CNN
F 3 "" H 4150 1150 60  0000 C CNN
	1    4150 1150
	1    0    0    -1  
$EndComp
Wire Wire Line
	3950 1350 4300 1350
Connection ~ 4150 1350
Wire Wire Line
	3250 1350 3450 1350
Wire Wire Line
	3250 1350 3250 1650
Wire Wire Line
	4150 1350 4150 1500
$Comp
L GND #PWR019
U 1 1 53BD597D
P 3250 950
F 0 "#PWR019" H 3250 950 30  0001 C CNN
F 1 "GND" H 3250 880 30  0001 C CNN
F 2 "" H 3250 950 60  0000 C CNN
F 3 "" H 3250 950 60  0000 C CNN
	1    3250 950 
	-1   0    0    1   
$EndComp
$Comp
L GND #PWR020
U 1 1 53BD5991
P 4150 950
F 0 "#PWR020" H 4150 950 30  0001 C CNN
F 1 "GND" H 4150 880 30  0001 C CNN
F 2 "" H 4150 950 60  0000 C CNN
F 3 "" H 4150 950 60  0000 C CNN
	1    4150 950 
	-1   0    0    1   
$EndComp
Wire Wire Line
	4300 1350 4300 1050
Wire Wire Line
	4600 6500 4600 6700
Text Label 3550 6700 0    60   ~ 0
pd0
Text Label 4050 4200 0    60   ~ 0
pd1
$Comp
L LED LED13
U 1 1 53BD5DDA
P 8300 4850
F 0 "LED13" H 8300 4950 50  0000 C CNN
F 1 "LED13" H 8300 4750 50  0000 C CNN
F 2 "" H 8300 4850 60  0000 C CNN
F 3 "" H 8300 4850 60  0000 C CNN
	1    8300 4850
	1    0    0    -1  
$EndComp
Text Label 8100 4850 2    60   ~ 0
pd13
$Comp
L GND #PWR021
U 1 1 53BD5DF0
P 9000 4850
F 0 "#PWR021" H 9000 4850 30  0001 C CNN
F 1 "GND" H 9000 4780 30  0001 C CNN
F 2 "" H 9000 4850 60  0000 C CNN
F 3 "" H 9000 4850 60  0000 C CNN
	1    9000 4850
	0    -1   -1   0   
$EndComp
$Comp
L R R3
U 1 1 53BD5E04
P 8750 4850
F 0 "R3" V 8830 4850 40  0000 C CNN
F 1 "1k" V 8757 4851 40  0000 C CNN
F 2 "" V 8680 4850 30  0000 C CNN
F 3 "" H 8750 4850 30  0000 C CNN
	1    8750 4850
	0    -1   -1   0   
$EndComp
$Comp
L JACK_2P J1
U 1 1 53BDA3A9
P 1000 2150
F 0 "J1" H 650 1950 60  0000 C CNN
F 1 "JACK_2P" H 850 2400 60  0000 C CNN
F 2 "" H 1000 2150 60  0000 C CNN
F 3 "" H 1000 2150 60  0000 C CNN
	1    1000 2150
	1    0    0    -1  
$EndComp
Wire Wire Line
	1450 2150 1650 2150
Wire Wire Line
	1650 2150 1650 1750
Wire Wire Line
	1450 2000 1650 2000
Connection ~ 1650 2000
Wire Wire Line
	2050 4700 2500 4700
Wire Wire Line
	2500 4700 2500 4400
Connection ~ 3250 4400
$EndSCHEMATC
