PCBNEW-BOARD Version 2 date Wed 09 Jul 2014 12:13:02 CEST

# Created by Pcbnew(2013-12-30 BZR 4587)-product

$GENERAL
encoding utf-8
Units mm
LayerCount 2
EnabledLayers 1FFF8001
Links 78
NoConn 0
Di 30.270499 23.0598 109.776501 89.7322
Ndraw 9
Ntrack 494
Nzone 0
BoardThickness 1.6002
Nmodule 30
Nnets 33
$EndGENERAL

$SHEETDESCR
Sheet A4 11693 8268
Title "Serialino"
Date "13 oct 2011"
Rev "1.0"
Comp "HW2SW.COM"
Comment1 "Anastasios Karidis aka TrustFm"
Comment2 "www.hw2sw.com"
Comment3 "www.trustfm.net"
Comment4 ""
$EndSHEETDESCR

$SETUP
Layers 2
Layer[0] Back signal
Layer[15] Front signal
TrackWidth 0.80264
TrackClearence 0.4
ZoneClearence 0.89916
Zone_45_Only 0
TrackMinWidth 0.2032
DrawSegmWidth 0.381
EdgeSegmWidth 0.381
ViaSize 0.889
ViaDrill 0.635
ViaMinSize 0.889
ViaMinDrill 0.508
MicroViaSize 0.508
MicroViaDrill 0.127
MicroViasAllowed 0
MicroViaMinSize 0.508
MicroViaMinDrill 0.127
TextPcbWidth 0.3048
TextPcbSize 1.524 2.032
EdgeModWidth 0.381
TextModSize 1.524 1.524
TextModWidth 0.3048
PadSize 1.524 1.524
PadDrill 0.8128
Pad2MaskClearance 0.254
SolderMaskMinWidth 0
GridOrigin 0 0
AuxiliaryAxisOrg 0 0
VisibleElements FFFFFFFF
PcbPlotParams (pcbplotparams (layerselection 3178497) (usegerberextensions true) (excludeedgelayer true) (linewidth 0.150000) (plotframeref false) (viasonmask false) (mode 1) (useauxorigin false) (hpglpennumber 1) (hpglpenspeed 20) (hpglpendiameter 15) (hpglpenoverlay 0) (psnegative false) (psa4output false) (plotreference true) (plotvalue true) (plotothertext true) (plotinvisibletext false) (padsonsilk false) (subtractmaskfromsilk false) (outputformat 1) (mirror false) (drillshape 1) (scaleselection 1) (outputdirectory ""))
$EndSETUP

$EQUIPOT
Na 0 ""
St ~
$EndEQUIPOT
$EQUIPOT
Na 1 "/AREF"
St ~
$EndEQUIPOT
$EQUIPOT
Na 2 "/RESET"
St ~
$EndEQUIPOT
$EQUIPOT
Na 3 "/V33"
St ~
$EndEQUIPOT
$EQUIPOT
Na 4 "/VCC"
St ~
$EndEQUIPOT
$EQUIPOT
Na 5 "/VIN"
St ~
$EndEQUIPOT
$EQUIPOT
Na 6 "/pc0"
St ~
$EndEQUIPOT
$EQUIPOT
Na 7 "/pc1"
St ~
$EndEQUIPOT
$EQUIPOT
Na 8 "/pc2"
St ~
$EndEQUIPOT
$EQUIPOT
Na 9 "/pc3"
St ~
$EndEQUIPOT
$EQUIPOT
Na 10 "/pc4"
St ~
$EndEQUIPOT
$EQUIPOT
Na 11 "/pc5"
St ~
$EndEQUIPOT
$EQUIPOT
Na 12 "/pd0"
St ~
$EndEQUIPOT
$EQUIPOT
Na 13 "/pd1"
St ~
$EndEQUIPOT
$EQUIPOT
Na 14 "/pd10"
St ~
$EndEQUIPOT
$EQUIPOT
Na 15 "/pd11"
St ~
$EndEQUIPOT
$EQUIPOT
Na 16 "/pd12"
St ~
$EndEQUIPOT
$EQUIPOT
Na 17 "/pd13"
St ~
$EndEQUIPOT
$EQUIPOT
Na 18 "/pd2"
St ~
$EndEQUIPOT
$EQUIPOT
Na 19 "/pd3"
St ~
$EndEQUIPOT
$EQUIPOT
Na 20 "/pd4"
St ~
$EndEQUIPOT
$EQUIPOT
Na 21 "/pd5"
St ~
$EndEQUIPOT
$EQUIPOT
Na 22 "/pd6"
St ~
$EndEQUIPOT
$EQUIPOT
Na 23 "/pd7"
St ~
$EndEQUIPOT
$EQUIPOT
Na 24 "/pd8"
St ~
$EndEQUIPOT
$EQUIPOT
Na 25 "/pd9"
St ~
$EndEQUIPOT
$EQUIPOT
Na 26 "GND"
St ~
$EndEQUIPOT
$EQUIPOT
Na 27 "Net-(C4-Pad2)"
St ~
$EndEQUIPOT
$EQUIPOT
Na 28 "Net-(C5-Pad2)"
St ~
$EndEQUIPOT
$EQUIPOT
Na 29 "Net-(C9-Pad1)"
St ~
$EndEQUIPOT
$EQUIPOT
Na 30 "Net-(D1-Pad1)"
St ~
$EndEQUIPOT
$EQUIPOT
Na 31 "Net-(D2-Pad2)"
St ~
$EndEQUIPOT
$EQUIPOT
Na 32 "Net-(FTDI1-Pad6)"
St ~
$EndEQUIPOT
$NCLASS
Name "Default"
Desc "This is the default net class."
Clearance 0.4
TrackWidth 0.80264
ViaDia 0.889
ViaDrill 0.635
uViaDia 0.508
uViaDrill 0.127
AddNet ""
AddNet "/AREF"
AddNet "/RESET"
AddNet "/V33"
AddNet "/VCC"
AddNet "/VIN"
AddNet "/pc0"
AddNet "/pc1"
AddNet "/pc2"
AddNet "/pc3"
AddNet "/pc4"
AddNet "/pc5"
AddNet "/pd0"
AddNet "/pd1"
AddNet "/pd10"
AddNet "/pd11"
AddNet "/pd12"
AddNet "/pd13"
AddNet "/pd2"
AddNet "/pd3"
AddNet "/pd4"
AddNet "/pd5"
AddNet "/pd6"
AddNet "/pd7"
AddNet "/pd8"
AddNet "/pd9"
AddNet "GND"
AddNet "Net-(C4-Pad2)"
AddNet "Net-(C5-Pad2)"
AddNet "Net-(C9-Pad1)"
AddNet "Net-(D1-Pad1)"
AddNet "Net-(D2-Pad2)"
AddNet "Net-(FTDI1-Pad6)"
$EndNCLASS
$MODULE SW_PUSH_SMALL
Po 93.98 41.91 2700 15 4E923BBE 4E911D8E ~~
Li SW_PUSH_SMALL
Sc 4E911D8E
AR /4E90F3A4
Op 0 0 0
T0 1.016 0 1.016 1.016 3600 0.2032 N V 21 N "SW1"
T1 -1.016 -0.254 1.016 1.016 3600 0.2032 N V 21 N "SPST"
DC 0 0 0 -2.54 0.127 21
DS -3.81 -3.81 3.81 -3.81 0.127 21
DS 3.81 -3.81 3.81 3.81 0.127 21
DS 3.81 3.81 -3.81 3.81 0.127 21
DS -3.81 -3.81 -3.81 3.81 0.127 21
$PAD
Sh "1" C 1.397 1.397 0 0 2700
Dr 0.8128 0 0
At STD N 00E0FFFF
Ne 2 "/RESET"
Po 3.81 -2.54
$EndPAD
$PAD
Sh "2" C 1.397 1.397 0 0 2700
Dr 0.8128 0 0
At STD N 00E0FFFF
Ne 26 "GND"
Po 3.81 2.54
$EndPAD
$PAD
Sh "1" C 1.397 1.397 0 0 2700
Dr 0.8128 0 0
At STD N 00E0FFFF
Ne 2 "/RESET"
Po -3.81 -2.54
$EndPAD
$PAD
Sh "2" C 1.397 1.397 0 0 2700
Dr 0.8128 0 0
At STD N 00E0FFFF
Ne 26 "GND"
Po -3.81 2.54
$EndPAD
$EndMODULE SW_PUSH_SMALL
$MODULE pin_array_3x2
Po 90.805 50.8 0 15 4E923B8F 4E911D97 ~~
Li pin_array_3x2
Cd Double rangee de contacts 2 x 4 pins
Kw CONN
Sc 4E911D97
AR /4E910AF5
Op 0 0 0
T0 -1.016 -0.254 1.016 1.016 900 0.2032 N V 21 N "ICSP1"
T1 0 3.81 1.016 1.016 0 0.2032 N I 21 N "CONN_3X2"
DS 3.81 2.54 -3.81 2.54 0.2032 21
DS -3.81 -2.54 3.81 -2.54 0.2032 21
DS 3.81 -2.54 3.81 2.54 0.2032 21
DS -3.81 2.54 -3.81 -2.54 0.2032 21
$PAD
Sh "1" R 1.524 1.524 0 0 0
Dr 1.016 0 0
At STD N 00E0FFFF
Ne 16 "/pd12"
Po -2.54 1.27
$EndPAD
$PAD
Sh "2" C 1.524 1.524 0 0 0
Dr 1.016 0 0
At STD N 00E0FFFF
Ne 4 "/VCC"
Po -2.54 -1.27
$EndPAD
$PAD
Sh "3" C 1.524 1.524 0 0 0
Dr 1.016 0 0
At STD N 00E0FFFF
Ne 17 "/pd13"
Po 0 1.27
$EndPAD
$PAD
Sh "4" C 1.524 1.524 0 0 0
Dr 1.016 0 0
At STD N 00E0FFFF
Ne 15 "/pd11"
Po 0 -1.27
$EndPAD
$PAD
Sh "5" C 1.524 1.524 0 0 0
Dr 1.016 0 0
At STD N 00E0FFFF
Ne 2 "/RESET"
Po 2.54 1.27
$EndPAD
$PAD
Sh "6" C 1.524 1.524 0 0 0
Dr 1.016 0 0
At STD N 00E0FFFF
Ne 26 "GND"
Po 2.54 -1.27
$EndPAD
$SHAPE3D
Na "pin_array/pins_array_3x2.wrl"
Sc 1 1 1
Of 0 0 0
Ro 0 0 0
$EndSHAPE3D
$EndMODULE pin_array_3x2
$MODULE PIN_ARRAY-6X1
Po 79.375 80.01 0 15 41402119 4E911D9B ~~
Li PIN_ARRAY-6X1
Cd Connecteur 6 pins
Kw CONN DEV
Sc 4E911D9B
AR /4E910B01
Op 0 0 0
T0 0 -2.159 1.016 1.016 0 0.2032 N V 21 N "POWER1"
T1 0 2.159 1.016 0.889 0 0.2032 N I 21 N "CONN_6"
DS -7.62 1.27 -7.62 -1.27 0.3048 21
DS -7.62 -1.27 7.62 -1.27 0.3048 21
DS 7.62 -1.27 7.62 1.27 0.3048 21
DS 7.62 1.27 -7.62 1.27 0.3048 21
DS -5.08 1.27 -5.08 -1.27 0.3048 21
$PAD
Sh "1" R 1.524 1.524 0 0 0
Dr 1.016 0 0
At STD N 00E0FFFF
Ne 2 "/RESET"
Po -6.35 0
$EndPAD
$PAD
Sh "2" C 1.524 1.524 0 0 0
Dr 1.016 0 0
At STD N 00E0FFFF
Ne 3 "/V33"
Po -3.81 0
$EndPAD
$PAD
Sh "3" C 1.524 1.524 0 0 0
Dr 1.016 0 0
At STD N 00E0FFFF
Ne 4 "/VCC"
Po -1.27 0
$EndPAD
$PAD
Sh "4" C 1.524 1.524 0 0 0
Dr 1.016 0 0
At STD N 00E0FFFF
Ne 26 "GND"
Po 1.27 0
$EndPAD
$PAD
Sh "5" C 1.524 1.524 0 0 0
Dr 1.016 0 0
At STD N 00E0FFFF
Ne 26 "GND"
Po 3.81 0
$EndPAD
$PAD
Sh "6" C 1.524 1.524 0 0 0
Dr 1.016 0 0
At STD N 00E0FFFF
Ne 5 "/VIN"
Po 6.35 0
$EndPAD
$SHAPE3D
Na "pin_array/pins_array_6x1.wrl"
Sc 1 1 1
Of 0 0 0
Ro 0 0 0
$EndSHAPE3D
$EndMODULE PIN_ARRAY-6X1
$MODULE LM78XX
Po 50.8 81.28 900 15 00200000 4E9471C9 ~~
Li LM78XX
Cd Regulateur TO220 serie LM78xx
Kw TR TO220
Sc 4E9471C9
AR /4E510CC6
Op 0 0 0
T0 7.62 0 1.524 1.016 1800 0.2032 N V 21 N "U1"
T1 10.668 0.127 1.524 1.016 1800 0.2032 N V 21 N "7805"
DS 0 -2.54 5.08 -2.54 0.3048 21
DS 0 0 5.08 0 0.3048 21
DS 0 2.54 5.08 2.54 0.3048 21
DS 5.08 -3.81 5.08 5.08 0.3048 21
DS 5.08 5.08 20.32 5.08 0.3048 21
DS 20.32 5.08 20.32 -5.08 0.3048 21
DS 5.08 -3.81 5.08 -5.08 0.3048 21
DS 12.7 3.81 12.7 -5.08 0.3048 21
DS 12.7 3.81 12.7 5.08 0.3048 21
DS 5.08 -5.08 20.32 -5.08 0.3048 21
$PAD
Sh "4" R 8.89 8.89 0 0 900
Dr 3.048 0 0
At STD N 00F0FFFF
Ne 0 ""
Po 16.51 0
$EndPAD
$PAD
Sh "VI" C 1.778 1.778 0 0 900
Dr 1.143 0 0
At STD N 00E0FFFF
Ne 5 "/VIN"
Po 0 -2.54
$EndPAD
$PAD
Sh "GND" R 1.778 1.778 0 0 900
Dr 1.143 0 0
At STD N 00E0FFFF
Ne 26 "GND"
Po 0 0
$EndPAD
$PAD
Sh "VO" C 1.778 1.778 0 0 900
Dr 1.143 0 0
At STD N 00E0FFFF
Ne 4 "/VCC"
Po 0 2.54
$EndPAD
$SHAPE3D
Na "discret/to220_horiz.wrl"
Sc 1 1 1
Of 0 0 0
Ro 0 0 0
$EndSHAPE3D
$EndMODULE LM78XX
$MODULE HC-49V
Po 79.375 56.515 1800 15 4E923B38 4E911DA0 ~~
Li HC-49V
Cd Quartz boitier HC-49 Vertical
Kw QUARTZ DEV
Sc 4E911DA0
AR /4E51283B
Op 0 A 0
T0 0 -3.81 1.524 1.524 1800 0.3048 N V 21 N "X1"
T1 0 0.762 1.524 1.524 1800 0.3048 N V 21 N "16Mhz"
DS -3.175 2.54 3.175 2.54 0.3175 21
DS -3.175 -2.54 3.175 -2.54 0.3175 21
DA 3.175 0 3.175 -2.54 900 0.3175 21
DA 3.175 0 5.715 0 900 0.3175 21
DA -3.175 0 -5.715 0 900 0.3175 21
DA -3.175 0 -3.175 2.54 900 0.3175 21
$PAD
Sh "1" C 1.4224 1.4224 0 0 1800
Dr 0.762 0 0
At STD N 00E0FFFF
Ne 27 "Net-(C4-Pad2)"
Po -2.54 0
$EndPAD
$PAD
Sh "2" C 1.4224 1.4224 0 0 1800
Dr 0.762 0 0
At STD N 00E0FFFF
Ne 28 "Net-(C5-Pad2)"
Po 2.54 0
$EndPAD
$EndMODULE HC-49V
$MODULE DIP-28__300
Po 85.725 63.5 1800 15 00200000 4E911DA1 ~~
Li DIP-28__300
Cd 28 pins DIL package, round pads, width 300mil
Kw DIL
Sc 4E911DA1
AR /4E511010
Op 0 0 0
T0 -11.43 0 1.524 1.143 1800 0.28702 N V 21 N "IC1"
T1 10.16 0 1.524 1.143 1800 0.28702 N V 21 N "ATMEGA168-P"
DS -19.05 -2.54 19.05 -2.54 0.381 21
DS 19.05 -2.54 19.05 2.54 0.381 21
DS 19.05 2.54 -19.05 2.54 0.381 21
DS -19.05 2.54 -19.05 -2.54 0.381 21
DS -19.05 -1.27 -17.78 -1.27 0.381 21
DS -17.78 -1.27 -17.78 1.27 0.381 21
DS -17.78 1.27 -19.05 1.27 0.381 21
$PAD
Sh "2" C 1.397 1.397 0 0 1800
Dr 0.8128 0 0
At STD N 00E0FFFF
Ne 12 "/pd0"
Po -13.97 3.81
$EndPAD
$PAD
Sh "3" C 1.397 1.397 0 0 1800
Dr 0.8128 0 0
At STD N 00E0FFFF
Ne 13 "/pd1"
Po -11.43 3.81
$EndPAD
$PAD
Sh "4" C 1.397 1.397 0 0 1800
Dr 0.8128 0 0
At STD N 00E0FFFF
Ne 18 "/pd2"
Po -8.89 3.81
$EndPAD
$PAD
Sh "5" C 1.397 1.397 0 0 1800
Dr 0.8128 0 0
At STD N 00E0FFFF
Ne 19 "/pd3"
Po -6.35 3.81
$EndPAD
$PAD
Sh "6" C 1.397 1.397 0 0 1800
Dr 0.8128 0 0
At STD N 00E0FFFF
Ne 20 "/pd4"
Po -3.81 3.81
$EndPAD
$PAD
Sh "7" C 1.397 1.397 0 0 1800
Dr 0.8128 0 0
At STD N 00E0FFFF
Ne 4 "/VCC"
Po -1.27 3.81
$EndPAD
$PAD
Sh "8" C 1.397 1.397 0 0 1800
Dr 0.8128 0 0
At STD N 00E0FFFF
Ne 26 "GND"
Po 1.27 3.81
$EndPAD
$PAD
Sh "9" C 1.397 1.397 0 0 1800
Dr 0.8128 0 0
At STD N 00E0FFFF
Ne 27 "Net-(C4-Pad2)"
Po 3.81 3.81
$EndPAD
$PAD
Sh "10" C 1.397 1.397 0 0 1800
Dr 0.8128 0 0
At STD N 00E0FFFF
Ne 28 "Net-(C5-Pad2)"
Po 6.35 3.81
$EndPAD
$PAD
Sh "11" C 1.397 1.397 0 0 1800
Dr 0.8128 0 0
At STD N 00E0FFFF
Ne 21 "/pd5"
Po 8.89 3.81
$EndPAD
$PAD
Sh "12" C 1.397 1.397 0 0 1800
Dr 0.8128 0 0
At STD N 00E0FFFF
Ne 22 "/pd6"
Po 11.43 3.81
$EndPAD
$PAD
Sh "13" C 1.397 1.397 0 0 1800
Dr 0.8128 0 0
At STD N 00E0FFFF
Ne 23 "/pd7"
Po 13.97 3.81
$EndPAD
$PAD
Sh "14" C 1.397 1.397 0 0 1800
Dr 0.8128 0 0
At STD N 00E0FFFF
Ne 24 "/pd8"
Po 16.51 3.81
$EndPAD
$PAD
Sh "1" R 1.397 1.397 0 0 1800
Dr 0.8128 0 0
At STD N 00E0FFFF
Ne 2 "/RESET"
Po -16.51 3.81
$EndPAD
$PAD
Sh "15" C 1.397 1.397 0 0 1800
Dr 0.8128 0 0
At STD N 00E0FFFF
Ne 25 "/pd9"
Po 16.51 -3.81
$EndPAD
$PAD
Sh "16" C 1.397 1.397 0 0 1800
Dr 0.8128 0 0
At STD N 00E0FFFF
Ne 14 "/pd10"
Po 13.97 -3.81
$EndPAD
$PAD
Sh "17" C 1.397 1.397 0 0 1800
Dr 0.8128 0 0
At STD N 00E0FFFF
Ne 15 "/pd11"
Po 11.43 -3.81
$EndPAD
$PAD
Sh "18" C 1.397 1.397 0 0 1800
Dr 0.8128 0 0
At STD N 00E0FFFF
Ne 16 "/pd12"
Po 8.89 -3.81
$EndPAD
$PAD
Sh "19" C 1.397 1.397 0 0 1800
Dr 0.8128 0 0
At STD N 00E0FFFF
Ne 17 "/pd13"
Po 6.35 -3.81
$EndPAD
$PAD
Sh "20" C 1.397 1.397 0 0 1800
Dr 0.8128 0 0
At STD N 00E0FFFF
Ne 4 "/VCC"
Po 3.81 -3.81
$EndPAD
$PAD
Sh "21" C 1.397 1.397 0 0 1800
Dr 0.8128 0 0
At STD N 00E0FFFF
Ne 1 "/AREF"
Po 1.27 -3.81
$EndPAD
$PAD
Sh "22" C 1.397 1.397 0 0 1800
Dr 0.8128 0 0
At STD N 00E0FFFF
Ne 26 "GND"
Po -1.27 -3.81
$EndPAD
$PAD
Sh "23" C 1.397 1.397 0 0 1800
Dr 0.8128 0 0
At STD N 00E0FFFF
Ne 6 "/pc0"
Po -3.81 -3.81
$EndPAD
$PAD
Sh "24" C 1.397 1.397 0 0 1800
Dr 0.8128 0 0
At STD N 00E0FFFF
Ne 7 "/pc1"
Po -6.35 -3.81
$EndPAD
$PAD
Sh "25" C 1.397 1.397 0 0 1800
Dr 0.8128 0 0
At STD N 00E0FFFF
Ne 8 "/pc2"
Po -8.89 -3.81
$EndPAD
$PAD
Sh "26" C 1.397 1.397 0 0 1800
Dr 0.8128 0 0
At STD N 00E0FFFF
Ne 9 "/pc3"
Po -11.43 -3.81
$EndPAD
$PAD
Sh "27" C 1.397 1.397 0 0 1800
Dr 0.8128 0 0
At STD N 00E0FFFF
Ne 10 "/pc4"
Po -13.97 -3.81
$EndPAD
$PAD
Sh "28" C 1.397 1.397 0 0 1800
Dr 0.8128 0 0
At STD N 00E0FFFF
Ne 11 "/pc5"
Po -16.51 -3.81
$EndPAD
$SHAPE3D
Na "dil/dil_28-w300.wrl"
Sc 1 1 1
Of 0 0 0
Ro 0 0 0
$EndSHAPE3D
$EndMODULE DIP-28__300
$MODULE C1V5
Po 53.086 54.356 2700 15 3E070CF4 4E911DA3 ~~
Li C1V5
Cd Condensateur e = 1 pas
Kw C
Sc 4E911DA3
AR /4E510D43
Op 0 0 0
T0 0 -1.26746 0.762 0.762 2700 0.127 N V 21 N "C2"
T1 0 1.27 0.762 0.635 2700 0.127 N V 21 N "10u"
T2 -2.286 0 0.762 0.762 2700 0.1905 N V 21 N "+"
DC 0 0 0.127 -2.54 0.127 21
$PAD
Sh "1" R 1.397 1.397 0 0 2700
Dr 0.8128 0 0
At STD N 00E0FFFF
Ne 4 "/VCC"
Po -1.27 0
$EndPAD
$PAD
Sh "2" C 1.397 1.397 0 0 2700
Dr 0.8128 0 0
At STD N 00E0FFFF
Ne 26 "GND"
Po 1.27 0
$EndPAD
$SHAPE3D
Na "discret/c_vert_c1v5.wrl"
Sc 1 1 1
Of 0 0 0
Ro 0 0 0
$EndSHAPE3D
$EndMODULE C1V5
$MODULE C1V5
Po 47.5 54.3 0 15 4E94747E 4E911DA5 ~~
Li C1V5
Cd Condensateur e = 1 pas
Kw C
Sc 4E911DA5
AR /4E510D3D
Op 0 0 0
T0 0 -1.26746 0.762 0.762 900 0.127 N V 21 N "C1"
T1 0 1.27 0.762 0.635 0 0.127 N V 21 N "100u"
T2 -2.286 0 0.762 0.762 0 0.1905 N V 21 N "+"
DC 0 0 0.127 -2.54 0.127 21
$PAD
Sh "1" R 1.397 1.397 0 0 0
Dr 0.8128 0 0
At STD N 00E0FFFF
Ne 5 "/VIN"
Po -1.27 0
$EndPAD
$PAD
Sh "2" C 1.397 1.397 0 0 0
Dr 0.8128 0 0
At STD N 00E0FFFF
Ne 26 "GND"
Po 1.27 0
$EndPAD
$SHAPE3D
Na "discret/c_vert_c1v5.wrl"
Sc 1 1 1
Of 0 0 0
Ro 0 0 0
$EndSHAPE3D
$EndMODULE C1V5
$MODULE C1
Po 81.915 46.99 1800 15 4E923B29 4E911DAE ~~
Li C1
Cd Condensateur e = 1 pas
Kw C
Sc 4E911DAE
AR /4E512919
Op 0 0 0
T0 0.254 -2.286 1.016 1.016 1800 0.2032 N V 21 N "C5"
T1 4.572 0 1.016 1.016 1800 0.2032 N I 21 N "22p"
DS -2.4892 -1.27 2.54 -1.27 0.3048 21
DS 2.54 -1.27 2.54 1.27 0.3048 21
DS 2.54 1.27 -2.54 1.27 0.3048 21
DS -2.54 1.27 -2.54 -1.27 0.3048 21
DS -2.54 -0.635 -1.905 -1.27 0.3048 21
$PAD
Sh "1" C 1.397 1.397 0 0 1800
Dr 0.8128 0 0
At STD N 00E0FFFF
Ne 26 "GND"
Po -1.27 0
$EndPAD
$PAD
Sh "2" C 1.397 1.397 0 0 1800
Dr 0.8128 0 0
At STD N 00E0FFFF
Ne 28 "Net-(C5-Pad2)"
Po 1.27 0
$EndPAD
$SHAPE3D
Na "discret/capa_1_pas.wrl"
Sc 1 1 1
Of 0 0 0
Ro 0 0 0
$EndSHAPE3D
$EndMODULE C1
$MODULE C1
Po 81.915 49.53 1800 15 4E923B30 4E911DB0 ~~
Li C1
Cd Condensateur e = 1 pas
Kw C
Sc 4E911DB0
AR /4E51290E
Op 0 0 0
T0 0.254 -2.286 1.016 1.016 1800 0.2032 N V 21 N "C4"
T1 4.826 0.254 1.016 1.016 1800 0.2032 N I 21 N "22p"
DS -2.4892 -1.27 2.54 -1.27 0.3048 21
DS 2.54 -1.27 2.54 1.27 0.3048 21
DS 2.54 1.27 -2.54 1.27 0.3048 21
DS -2.54 1.27 -2.54 -1.27 0.3048 21
DS -2.54 -0.635 -1.905 -1.27 0.3048 21
$PAD
Sh "1" C 1.397 1.397 0 0 1800
Dr 0.8128 0 0
At STD N 00E0FFFF
Ne 26 "GND"
Po -1.27 0
$EndPAD
$PAD
Sh "2" C 1.397 1.397 0 0 1800
Dr 0.8128 0 0
At STD N 00E0FFFF
Ne 27 "Net-(C4-Pad2)"
Po 1.27 0
$EndPAD
$SHAPE3D
Na "discret/capa_1_pas.wrl"
Sc 1 1 1
Of 0 0 0
Ro 0 0 0
$EndSHAPE3D
$EndMODULE C1
$MODULE C1
Po 48.895 58.42 1800 15 4E923B72 4E911DB2 ~~
Li C1
Cd Condensateur e = 1 pas
Kw C
Sc 4E911DB2
AR /4E5126D2
Op 0 0 0
T0 0.254 -2.286 1.016 1.016 1800 0.2032 N V 21 N "C3"
T1 4.572 0 1.016 1.016 1800 0.2032 N I 21 N "0.1u"
DS -2.4892 -1.27 2.54 -1.27 0.3048 21
DS 2.54 -1.27 2.54 1.27 0.3048 21
DS 2.54 1.27 -2.54 1.27 0.3048 21
DS -2.54 1.27 -2.54 -1.27 0.3048 21
DS -2.54 -0.635 -1.905 -1.27 0.3048 21
$PAD
Sh "1" C 1.397 1.397 0 0 1800
Dr 0.8128 0 0
At STD N 00E0FFFF
Ne 4 "/VCC"
Po -1.27 0
$EndPAD
$PAD
Sh "2" C 1.397 1.397 0 0 1800
Dr 0.8128 0 0
At STD N 00E0FFFF
Ne 26 "GND"
Po 1.27 0
$EndPAD
$SHAPE3D
Na "discret/capa_1_pas.wrl"
Sc 1 1 1
Of 0 0 0
Ro 0 0 0
$EndSHAPE3D
$EndMODULE C1
$MODULE PIN_ARRAY_2X1
Po 49.403 36.195 2700 15 4E923B55 4E912086 ~~
Li PIN_ARRAY_2X1
Cd Connecteurs 2 pins
Kw CONN DEV
Sc 4E912086
AR /4E910538
Op 0 0 0
T0 -0.254 -3.556 0.762 0.762 2700 0.1524 N V 21 N "JP1"
T1 0 -1.905 0.762 0.762 2700 0.1524 N I 21 N "AUTORESET"
DS -2.54 1.27 -2.54 -1.27 0.1524 21
DS -2.54 -1.27 2.54 -1.27 0.1524 21
DS 2.54 -1.27 2.54 1.27 0.1524 21
DS 2.54 1.27 -2.54 1.27 0.1524 21
$PAD
Sh "1" R 1.524 1.524 0 0 2700
Dr 1.016 0 0
At STD N 00E0FFFF
Ne 32 "Net-(FTDI1-Pad6)"
Po -1.27 0
$EndPAD
$PAD
Sh "2" C 1.524 1.524 0 0 2700
Dr 1.016 0 0
At STD N 00E0FFFF
Ne 29 "Net-(C9-Pad1)"
Po 1.27 0
$EndPAD
$SHAPE3D
Na "pin_array/pins_array_2x1.wrl"
Sc 1 1 1
Of 0 0 0
Ro 0 0 0
$EndSHAPE3D
$EndMODULE PIN_ARRAY_2X1
$MODULE C1
Po 85.09 71.755 0 15 4E9247F3 4E9204E2 ~~
Li C1
Cd Condensateur e = 1 pas
Kw C
Sc 4E9204E2
AR /4E9203B2
Op 0 0 0
T0 3.81 1.27 1.016 1.016 0 0.2032 N V 21 N "C10"
T1 3.81 0 1.016 1.016 0 0.2032 N I 21 N "0.1u"
DS -2.4892 -1.27 2.54 -1.27 0.3048 21
DS 2.54 -1.27 2.54 1.27 0.3048 21
DS 2.54 1.27 -2.54 1.27 0.3048 21
DS -2.54 1.27 -2.54 -1.27 0.3048 21
DS -2.54 -0.635 -1.905 -1.27 0.3048 21
$PAD
Sh "1" C 1.397 1.397 0 0 0
Dr 0.8128 0 0
At STD N 00E0FFFF
Ne 3 "/V33"
Po -1.27 0
$EndPAD
$PAD
Sh "2" C 1.397 1.397 0 0 0
Dr 0.8128 0 0
At STD N 00E0FFFF
Ne 26 "GND"
Po 1.27 0
$EndPAD
$SHAPE3D
Na "discret/capa_1_pas.wrl"
Sc 1 1 1
Of 0 0 0
Ro 0 0 0
$EndSHAPE3D
$EndMODULE C1
$MODULE LM78XX-TO92
Po 80.645 75.565 2700 15 4E9241CC 4E92053E ~~
Li LM78XX-TO92
Cd 7805
Kw TR TO92
Sc 4E92053E
AR /4E92033B
Op 0 0 0
T0 0 -2.54 1.016 1.016 2700 0.2032 N V 21 N "U3"
T1 -5.08 -1.27 1.016 1.016 2700 0.2032 N V 21 N "78L33"
DS -1.27 2.54 2.54 -1.27 0.3048 21
DS 2.54 -1.27 2.54 -2.54 0.3048 21
DS 2.54 -2.54 1.27 -3.81 0.3048 21
DS 1.27 -3.81 -1.27 -3.81 0.3048 21
DS -1.27 -3.81 -3.81 -1.27 0.3048 21
DS -3.81 -1.27 -3.81 1.27 0.3048 21
DS -3.81 1.27 -2.54 2.54 0.3048 21
DS -2.54 2.54 -1.27 2.54 0.3048 21
$PAD
Sh "VI" R 1.397 1.397 0 0 2700
Dr 0.8128 0 0
At STD N 00E0FFFF
Ne 4 "/VCC"
Po 1.27 -1.27
$EndPAD
$PAD
Sh "GND" C 1.397 1.397 0 0 2700
Dr 0.8128 0 0
At STD N 00E0FFFF
Ne 26 "GND"
Po -1.27 -1.27
$EndPAD
$PAD
Sh "VO" C 1.397 1.397 0 0 2700
Dr 0.8128 0 0
At STD N 00E0FFFF
Ne 3 "/V33"
Po -1.27 1.27
$EndPAD
$SHAPE3D
Na "discret/to98.wrl"
Sc 1 1 1
Of 0 0 0
Ro 0 0 0
$EndSHAPE3D
$EndMODULE LM78XX-TO92
$MODULE JACK_ALIM
Po 38.735 78.74 0 15 4E944A70 4E944A55 ~~
Li JACK_ALIM
Cd module 1 pin (ou trou mecanique de percage)
Kw CONN JACK
Sc 4E944A55
AR /4E513623
Op 0 0 0
T0 0.254 -5.588 1.016 1.016 0 0.254 N V 21 N "P1"
T1 -5.08 5.588 1.016 1.016 0 0.254 N V 21 N "9V"
DS -7.112 -4.318 -7.874 -4.318 0.381 21
DS -7.874 -4.318 -7.874 4.318 0.381 21
DS -7.874 4.318 -7.112 4.318 0.381 21
DS -4.064 -4.318 -4.064 4.318 0.381 21
DS 5.588 -4.318 5.588 4.318 0.381 21
DS -7.112 4.318 5.588 4.318 0.381 21
DS -7.112 -4.318 5.588 -4.318 0.381 21
$PAD
Sh "2" C 4.20116 4.20116 0 0 0
Dr 1.016 0 0 O 1.016 2.54
At STD N 00E0FFFF
Ne 26 "GND"
Po 0 0
$EndPAD
$PAD
Sh "1" C 4.20116 4.20116 0 0 0
Dr 1.016 0 0 O 1.016 2.54
At STD N 00E0FFFF
Ne 30 "Net-(D1-Pad1)"
Po 6.096 0
$EndPAD
$PAD
Sh "3" C 4.20116 4.20116 0 0 0
Dr 2.54 0 0 O 2.54 1.016
At STD N 00E0FFFF
Ne 0 ""
Po 2.286 5.08
$EndPAD
$SHAPE3D
Na "connectors/POWER_21.wrl"
Sc 0.8 0.8 0.8
Of 0 0 0
Ro 0 0 0
$EndSHAPE3D
$EndMODULE JACK_ALIM
$MODULE LED-3MM
Po 56.6 79.2 1800 15 4E930BBC 4E925D03 ~~
Li LED-3MM
Cd LED 3mm - Lead pitch 100mil (2,54mm)
Kw LED led 3mm 3MM 100mil 2,54mm
Sc 4E925D03
AR /4E510EFC
Op 0 0 0
T0 0 -1.27 0.762 0.762 1800 0.0889 N V 21 N "D2"
T1 0 1.27 0.762 0.762 1800 0.0889 N V 21 N "LED"
DS 1.8288 1.27 1.8288 -1.27 0.254 21
DA 0.254 0 -1.27 0 398 0.1524 21
DA 0.254 0 -0.88392 1.01092 416 0.1524 21
DA 0.254 0 1.4097 -0.9906 406 0.1524 21
DA 0.254 0 1.778 0 398 0.1524 21
DA 0.254 0 0.254 -1.524 544 0.1524 21
DA 0.254 0 -0.9652 -0.9144 531 0.1524 21
DA 0.254 0 1.45542 0.93472 521 0.1524 21
DA 0.254 0 0.254 1.524 521 0.1524 21
DA 0.254 0 -0.381 0 900 0.1524 21
DA 0.254 0 -0.762 0 900 0.1524 21
DA 0.254 0 0.889 0 900 0.1524 21
DA 0.254 0 1.27 0 900 0.1524 21
DA 0.254 0 0.254 -2.032 501 0.254 21
DA 0.254 0 -1.5367 -0.95504 619 0.254 21
DA 0.254 0 1.8034 1.31064 497 0.254 21
DA 0.254 0 0.254 2.032 602 0.254 21
DA 0.254 0 -1.778 0 283 0.254 21
DA 0.254 0 -1.47574 1.06426 316 0.254 21
$PAD
Sh "1" C 1.6764 1.6764 0 0 1800
Dr 0.8128 0 0
At STD N 00A8FFFF
Ne 4 "/VCC"
Po -1.27 0
$EndPAD
$PAD
Sh "2" C 1.6764 1.6764 0 0 1800
Dr 0.8128 0 0
At STD N 00A8FFFF
Ne 31 "Net-(D2-Pad2)"
Po 1.27 0
$EndPAD
$SHAPE3D
Na "discret/leds/led3_vertical_verde.wrl"
Sc 1 1 1
Of 0 0 0
Ro 0 0 0
$EndSHAPE3D
$EndMODULE LED-3MM
$MODULE DO-41
Po 40.005 68.58 900 15 4E92FF22 4E944B28 ~~
Li DO-41
Cd Diode 3 pas
Kw DIODE DEV
Sc 4E944B28
AR /4E925B2C
Op 0 0 0
T0 -3.81 -1.27 1.016 1.016 900 0.2032 N V 21 N "D1"
T1 0 0 1.016 1.016 900 0.2032 N I 21 N "DIODE"
DS -3.81 0 -5.08 0 0.3175 21
DS 3.81 0 5.08 0 0.3175 21
DS 3.81 0 3.048 0 0.3175 21
DS 3.048 0 3.048 -1.016 0.3048 21
DS 3.048 -1.016 -3.048 -1.016 0.3048 21
DS -3.048 -1.016 -3.048 0 0.3048 21
DS -3.048 0 -3.81 0 0.3048 21
DS -3.048 0 -3.048 1.016 0.3048 21
DS -3.048 1.016 3.048 1.016 0.3048 21
DS 3.048 1.016 3.048 0 0.3048 21
DS 2.54 -1.016 2.54 1.016 0.3048 21
DS 2.286 1.016 2.286 -1.016 0.3048 21
$PAD
Sh "2" C 1.524 1.524 0 0 900
Dr 0.889 0 0
At STD N 00E0FFFF
Ne 5 "/VIN"
Po 5.08 0
$EndPAD
$PAD
Sh "1" C 1.524 1.524 0 0 900
Dr 0.889 0 0
At STD N 00E0FFFF
Ne 30 "Net-(D1-Pad1)"
Po -5.08 0
$EndPAD
$EndMODULE DO-41
$MODULE R4
Po 83.2 43 1800 15 4E9441E8 4E930D74 ~~
Li R4
Cd Resitance 4 pas
Kw R
Sc 4E930D74
AR /4E512ABD
Op 0 A 0
T0 0 0 1.397 1.27 1800 0.2032 N V 21 N "R2"
T1 0.635 -2.54 1.397 1.27 1800 0.2032 N I 21 N "10K"
DS -5.08 0 -4.064 0 0.3048 21
DS -4.064 0 -4.064 -1.016 0.3048 21
DS -4.064 -1.016 4.064 -1.016 0.3048 21
DS 4.064 -1.016 4.064 1.016 0.3048 21
DS 4.064 1.016 -4.064 1.016 0.3048 21
DS -4.064 1.016 -4.064 0 0.3048 21
DS -4.064 -0.508 -3.556 -1.016 0.3048 21
DS 5.08 0 4.064 0 0.3048 21
$PAD
Sh "1" C 1.524 1.524 0 0 1800
Dr 0.8128 0 0
At STD N 00E0FFFF
Ne 4 "/VCC"
Po -5.08 0
$EndPAD
$PAD
Sh "2" C 1.524 1.524 0 0 1800
Dr 0.8128 0 0
At STD N 00E0FFFF
Ne 2 "/RESET"
Po 5.08 0
$EndPAD
$SHAPE3D
Na "discret/resistor.wrl"
Sc 0.4 0.4 0.4
Of 0 0 0
Ro 0 0 0
$EndSHAPE3D
$EndMODULE R4
$MODULE R4
Po 44.45 66.675 2700 15 00200000 4E930FF7 ~~
Li R4
Cd Resitance 4 pas
Kw R
Sc 4E930FF7
AR /4E510ED7
Op 0 A 0
T0 0 0 1.397 1.27 2700 0.2032 N V 21 N "R1"
T1 0 0 1.397 1.27 2700 0.2032 N I 21 N "330"
DS -5.08 0 -4.064 0 0.3048 21
DS -4.064 0 -4.064 -1.016 0.3048 21
DS -4.064 -1.016 4.064 -1.016 0.3048 21
DS 4.064 -1.016 4.064 1.016 0.3048 21
DS 4.064 1.016 -4.064 1.016 0.3048 21
DS -4.064 1.016 -4.064 0 0.3048 21
DS -4.064 -0.508 -3.556 -1.016 0.3048 21
DS 5.08 0 4.064 0 0.3048 21
$PAD
Sh "1" C 1.524 1.524 0 0 2700
Dr 0.8128 0 0
At STD N 00E0FFFF
Ne 31 "Net-(D2-Pad2)"
Po -5.08 0
$EndPAD
$PAD
Sh "2" C 1.524 1.524 0 0 2700
Dr 0.8128 0 0
At STD N 00E0FFFF
Ne 26 "GND"
Po 5.08 0
$EndPAD
$SHAPE3D
Na "discret/resistor.wrl"
Sc 0.4 0.4 0.4
Of 0 0 0
Ro 0 0 0
$EndSHAPE3D
$EndMODULE R4
$MODULE C1
Po 68.58 80.01 0 15 4E95E73A 4E948B43 ~~
Li C1
Cd Condensateur e = 1 pas
Kw C
Sc 4E948B43
AR /4E910561
Op 0 0 0
T0 0 -3.81 1.016 1.016 0 0.2032 N V 21 N "C9"
T1 0 -2.286 1.016 1.016 0 0.2032 N I 21 N "0.1u"
DS -2.4892 -1.27 2.54 -1.27 0.3048 21
DS 2.54 -1.27 2.54 1.27 0.3048 21
DS 2.54 1.27 -2.54 1.27 0.3048 21
DS -2.54 1.27 -2.54 -1.27 0.3048 21
DS -2.54 -0.635 -1.905 -1.27 0.3048 21
$PAD
Sh "1" C 1.397 1.397 0 0 0
Dr 0.8128 0 0
At STD N 00E0FFFF
Ne 29 "Net-(C9-Pad1)"
Po -1.27 0
$EndPAD
$PAD
Sh "2" C 1.397 1.397 0 0 0
Dr 0.8128 0 0
At STD N 00E0FFFF
Ne 2 "/RESET"
Po 1.27 0
$EndPAD
$SHAPE3D
Na "discret/capa_1_pas.wrl"
Sc 1 1 1
Of 0 0 0
Ro 0 0 0
$EndSHAPE3D
$EndMODULE C1
$MODULE 1pin
Po 60.1 33.4 0 15 53BBC237 53BBC237 ~~
Li 1pin
Cd module 1 pin (ou trou mecanique de percage)
Kw DEV
Sc 53BBC237
AR 
Op 0 0 0
T0 0 -3.048 1.016 1.016 0 0.254 N V 21 N "1PIN"
T1 0 2.794 1.016 1.016 0 0.254 N I 21 N "P***"
DC 0 0 0 -2.286 0.381 21
$PAD
Sh "1" C 4.064 4.064 0 0 0
Dr 3.048 0 0
At STD N 00E0FFFF
Ne 0 ""
Po 0 0
$EndPAD
$EndMODULE 1pin
$MODULE 1pin
Po 62.2 78.6 0 15 53BBC290 53BBC298 ~~
Li 1pin
Cd module 1 pin (ou trou mecanique de percage)
Kw DEV
Sc 53BBC298
AR 
Op 0 0 0
T0 0 -3.048 1.016 1.016 0 0.254 N V 21 N "1PIN"
T1 0 2.794 1.016 1.016 0 0.254 N I 21 N "P***"
DC 0 0 0 -2.286 0.381 21
$PAD
Sh "1" C 4.064 4.064 0 0 0
Dr 3.048 0 0
At STD N 00E0FFFF
Ne 0 ""
Po 0 0
$EndPAD
$EndMODULE 1pin
$MODULE 1pin
Po 106.9 85.7 0 15 53BBC2C8 53BBC2C8 ~~
Li 1pin
Cd module 1 pin (ou trou mecanique de percage)
Kw DEV
Sc 53BBC2C8
AR 
Op 0 0 0
T0 0 -3.048 1.016 1.016 0 0.254 N V 21 N "1PIN"
T1 0 2.794 1.016 1.016 0 0.254 N I 21 N "P***"
DC 0 0 0 -2.286 0.381 21
$PAD
Sh "1" C 4.064 4.064 0 0 0
Dr 3.048 0 0
At STD N 00E0FFFF
Ne 0 ""
Po 0 0
$EndPAD
$EndMODULE 1pin
$MODULE 1pin
Po 106.5 27.6 0 15 53BBC2FC 53BBC2FC ~~
Li 1pin
Cd module 1 pin (ou trou mecanique de percage)
Kw DEV
Sc 53BBC2FC
AR 
Op 0 0 0
T0 0 -3.048 1.016 1.016 0 0.254 N V 21 N "1PIN"
T1 0 2.794 1.016 1.016 0 0.254 N I 21 N "P***"
DC 0 0 0 -2.286 0.381 21
$PAD
Sh "1" C 4.064 4.064 0 0 0
Dr 3.048 0 0
At STD N 00E0FFFF
Ne 0 ""
Po 0 0
$EndPAD
$EndMODULE 1pin
$MODULE pin_array_8x1
Po 95.885 30.48 1800 15 4E911716 53BD1651 ~~
Li pin_array_8x1
Cd 8 ARRAY PINS
Kw CONN
Sc 53BD1651
AR /4E910B12
Op 0 0 0
T0 0 -3.302 1.016 1.016 1800 0.2032 N V 21 N "DIGITAL1"
T1 0.4318 1.2827 1.016 1.016 1800 0.2032 N V 21 N "CONN_8"
DS -9.906 -2.286 9.906 -2.286 0.3048 21
DS 9.9441 0.1778 -9.8679 0.1778 0.3048 21
$PAD
Sh "1" C 1.524 1.524 0 0 1800
Dr 1.016 0 0
At STD N 00E0FFFF
Ne 12 "/pd0"
Po -8.89 -1.27
$EndPAD
$PAD
Sh "2" C 1.524 1.524 0 0 1800
Dr 1.016 0 0
At STD N 00E0FFFF
Ne 13 "/pd1"
Po -6.35 -1.27
$EndPAD
$PAD
Sh "3" C 1.524 1.524 0 0 1800
Dr 1.016 0 0
At STD N 00E0FFFF
Ne 18 "/pd2"
Po -3.81 -1.27
$EndPAD
$PAD
Sh "4" C 1.524 1.524 0 0 1800
Dr 1.016 0 0
At STD N 00E0FFFF
Ne 19 "/pd3"
Po -1.27 -1.27
$EndPAD
$PAD
Sh "5" C 1.524 1.524 0 0 1800
Dr 1.016 0 0
At STD N 00E0FFFF
Ne 20 "/pd4"
Po 1.27 -1.27
$EndPAD
$PAD
Sh "6" C 1.524 1.524 0 0 1800
Dr 1.016 0 0
At STD N 00E0FFFF
Ne 21 "/pd5"
Po 3.81 -1.27
$EndPAD
$PAD
Sh "7" C 1.524 1.524 0 0 1800
Dr 1.016 0 0
At STD N 00E0FFFF
Ne 22 "/pd6"
Po 6.35 -1.27
$EndPAD
$PAD
Sh "8" C 1.524 1.524 0 0 1800
Dr 1.016 0 0
At STD N 00E0FFFF
Ne 23 "/pd7"
Po 8.89 -1.27
$EndPAD
$EndMODULE pin_array_8x1
$MODULE pin_array_8x1
Po 74.295 30.48 1800 15 4E911716 53BD165E ~~
Li pin_array_8x1
Cd 8 ARRAY PINS
Kw CONN
Sc 53BD165E
AR /4E910B1B
Op 0 0 0
T0 0 -3.302 1.016 1.016 1800 0.2032 N V 21 N "DIGITAL2"
T1 0.4318 1.2827 1.016 1.016 1800 0.2032 N V 21 N "CONN_8"
DS -9.906 -2.286 9.906 -2.286 0.3048 21
DS 9.9441 0.1778 -9.8679 0.1778 0.3048 21
$PAD
Sh "1" C 1.524 1.524 0 0 1800
Dr 1.016 0 0
At STD N 00E0FFFF
Ne 24 "/pd8"
Po -8.89 -1.27
$EndPAD
$PAD
Sh "2" C 1.524 1.524 0 0 1800
Dr 1.016 0 0
At STD N 00E0FFFF
Ne 25 "/pd9"
Po -6.35 -1.27
$EndPAD
$PAD
Sh "3" C 1.524 1.524 0 0 1800
Dr 1.016 0 0
At STD N 00E0FFFF
Ne 14 "/pd10"
Po -3.81 -1.27
$EndPAD
$PAD
Sh "4" C 1.524 1.524 0 0 1800
Dr 1.016 0 0
At STD N 00E0FFFF
Ne 15 "/pd11"
Po -1.27 -1.27
$EndPAD
$PAD
Sh "5" C 1.524 1.524 0 0 1800
Dr 1.016 0 0
At STD N 00E0FFFF
Ne 16 "/pd12"
Po 1.27 -1.27
$EndPAD
$PAD
Sh "6" C 1.524 1.524 0 0 1800
Dr 1.016 0 0
At STD N 00E0FFFF
Ne 17 "/pd13"
Po 3.81 -1.27
$EndPAD
$PAD
Sh "7" C 1.524 1.524 0 0 1800
Dr 1.016 0 0
At STD N 00E0FFFF
Ne 26 "GND"
Po 6.35 -1.27
$EndPAD
$PAD
Sh "8" C 1.524 1.524 0 0 1800
Dr 1.016 0 0
At STD N 00E0FFFF
Ne 1 "/AREF"
Po 8.89 -1.27
$EndPAD
$EndMODULE pin_array_8x1
$MODULE SIL-2
Po 47.6 43.8 2700 15 53BD14E4 53BD1679 ~~
Li SIL-2
Cd Connecteurs 2 pins
Kw CONN DEV
Sc 53BD1679
AR /53BAE243
Op 0 0 0
T0 0 -2.54 1.72974 1.08712 2700 0.3048 N V 21 N "P2"
T1 0 -2.54 1.524 1.016 2700 0.3048 N I 21 N "CONN_2"
DS -2.54 1.27 -2.54 -1.27 0.3048 21
DS -2.54 -1.27 2.54 -1.27 0.3048 21
DS 2.54 -1.27 2.54 1.27 0.3048 21
DS 2.54 1.27 -2.54 1.27 0.3048 21
$PAD
Sh "1" R 1.397 1.397 0 0 2700
Dr 0.8128 0 0
At STD N 00E0FFFF
Ne 4 "/VCC"
Po -1.27 0
$EndPAD
$PAD
Sh "2" C 1.397 1.397 0 0 2700
Dr 0.8128 0 0
At STD N 00E0FFFF
Ne 26 "GND"
Po 1.27 0
$EndPAD
$EndMODULE SIL-2
$MODULE SIL-2
Po 45.9 83.8 2700 15 53BD14E4 53BD1682 ~~
Li SIL-2
Cd Connecteurs 2 pins
Kw CONN DEV
Sc 53BD1682
AR /53BAE257
Op 0 0 0
T0 0 -2.54 1.72974 1.08712 2700 0.3048 N V 21 N "P3"
T1 0 -2.54 1.524 1.016 2700 0.3048 N I 21 N "CONN_2"
DS -2.54 1.27 -2.54 -1.27 0.3048 21
DS -2.54 -1.27 2.54 -1.27 0.3048 21
DS 2.54 -1.27 2.54 1.27 0.3048 21
DS 2.54 1.27 -2.54 1.27 0.3048 21
$PAD
Sh "1" R 1.397 1.397 0 0 2700
Dr 0.8128 0 0
At STD N 00E0FFFF
Ne 5 "/VIN"
Po -1.27 0
$EndPAD
$PAD
Sh "2" C 1.397 1.397 0 0 2700
Dr 0.8128 0 0
At STD N 00E0FFFF
Ne 26 "GND"
Po 1.27 0
$EndPAD
$EndMODULE SIL-2
$MODULE pin_array_1x06
Po 97.155 80.01 0 15 53BD155E 53BD17DB ~~
Li pin_array_1x06
Cd Connecteur 6 pins
Kw CONN DEV
Sc 53BD17DB
AR /4E910AE2
Op 0 0 0
T0 0 -2.159 1.016 1.016 0 0.2032 N V 21 N "ANALOG1"
T1 0 2.159 1.016 0.889 0 0.2032 N I 21 N "CONN_6"
DS -7.62 1.27 -7.62 -1.27 0.3048 21
DS -7.62 -1.27 7.62 -1.27 0.3048 21
DS 7.62 -1.27 7.62 1.27 0.3048 21
DS 7.62 1.27 -7.62 1.27 0.3048 21
DS -5.08 1.27 -5.08 -1.27 0.3048 21
$PAD
Sh "1" R 1.524 1.524 0 0 0
Dr 1.016 0 0
At STD N 00E0FFFF
Ne 6 "/pc0"
Po -6.35 0
$EndPAD
$PAD
Sh "2" C 1.524 1.524 0 0 0
Dr 1.016 0 0
At STD N 00E0FFFF
Ne 7 "/pc1"
Po -3.81 0
$EndPAD
$PAD
Sh "3" C 1.524 1.524 0 0 0
Dr 1.016 0 0
At STD N 00E0FFFF
Ne 8 "/pc2"
Po -1.27 0
$EndPAD
$PAD
Sh "4" C 1.524 1.524 0 0 0
Dr 1.016 0 0
At STD N 00E0FFFF
Ne 9 "/pc3"
Po 1.27 0
$EndPAD
$PAD
Sh "5" C 1.524 1.524 0 0 0
Dr 1.016 0 0
At STD N 00E0FFFF
Ne 10 "/pc4"
Po 3.81 0
$EndPAD
$PAD
Sh "6" C 1.524 1.524 0 0 0
Dr 1.016 0 0
At STD N 00E0FFFF
Ne 11 "/pc5"
Po 6.35 0
$EndPAD
$SHAPE3D
Na "pin_array/pins_array_6x1.wrl"
Sc 1 1 1
Of 0 0 0
Ro 0 0 0
$EndSHAPE3D
$EndMODULE pin_array_1x06
$MODULE Pin_Header_Angled_1x06
Po 44.704 41.275 900 15 53BD155E 53BD17E9 ~~
Li Pin_Header_Angled_1x06
Cd 1 pin
Kw CONN DEV
Sc 53BD17E9
AR /53BAB74E
Op 0 0 0
T0 0 2.286 1.27 1.27 900 0.2032 N V 21 N "FTDI1"
T1 0 0 1.27 1.27 900 0.2032 N I 21 N "J1"
DS -5.08 -4.064 -7.62 -1.524 0.254 21
DS -7.62 -4.064 -5.08 -1.524 0.254 21
DS -6.477 -4.191 -6.477 -10.033 0.254 21
DS -6.477 -10.033 -6.223 -10.033 0.254 21
DS -6.223 -10.033 -6.223 -4.191 0.254 21
DS -6.223 -4.191 -6.35 -4.191 0.254 21
DS -6.35 -4.191 -6.35 -10.033 0.254 21
DS -6.604 -1.524 -6.604 -1.143 0.254 21
DS -6.096 -1.524 -6.096 -1.143 0.254 21
DS -4.064 -1.524 -4.064 -1.143 0.254 21
DS -3.556 -1.524 -3.556 -1.143 0.254 21
DS -1.524 -1.524 -1.524 -1.143 0.254 21
DS -1.016 -1.524 -1.016 -1.143 0.254 21
DS 6.604 -1.524 6.604 -1.143 0.254 21
DS 6.096 -1.524 6.096 -1.143 0.254 21
DS 4.064 -1.524 4.064 -1.143 0.254 21
DS 3.556 -1.524 3.556 -1.143 0.254 21
DS 1.524 -1.524 1.524 -1.143 0.254 21
DS 1.016 -1.524 1.016 -1.143 0.254 21
DS -7.62 -1.524 -7.62 -4.064 0.254 21
DS -5.08 -1.524 -5.08 -4.064 0.254 21
DS -5.08 -1.524 -2.54 -1.524 0.254 21
DS -2.54 -1.524 -2.54 -4.064 0.254 21
DS -4.064 -4.064 -4.064 -10.16 0.254 21
DS -4.064 -10.16 -3.556 -10.16 0.254 21
DS -3.556 -10.16 -3.556 -4.064 0.254 21
DS -2.54 -4.064 -5.08 -4.064 0.254 21
DS -5.08 -4.064 -7.62 -4.064 0.254 21
DS -6.096 -10.16 -6.096 -4.064 0.254 21
DS -6.604 -10.16 -6.096 -10.16 0.254 21
DS -6.604 -4.064 -6.604 -10.16 0.254 21
DS -5.08 -1.524 -5.08 -4.064 0.254 21
DS -7.62 -1.524 -5.08 -1.524 0.254 21
DS 2.54 -1.524 2.54 -4.064 0.254 21
DS 2.54 -1.524 5.08 -1.524 0.254 21
DS 5.08 -1.524 5.08 -4.064 0.254 21
DS 3.556 -4.064 3.556 -10.16 0.254 21
DS 3.556 -10.16 4.064 -10.16 0.254 21
DS 4.064 -10.16 4.064 -4.064 0.254 21
DS 5.08 -4.064 2.54 -4.064 0.254 21
DS 7.62 -4.064 5.08 -4.064 0.254 21
DS 6.604 -10.16 6.604 -4.064 0.254 21
DS 6.096 -10.16 6.604 -10.16 0.254 21
DS 6.096 -4.064 6.096 -10.16 0.254 21
DS 7.62 -1.524 7.62 -4.064 0.254 21
DS 5.08 -1.524 7.62 -1.524 0.254 21
DS 5.08 -1.524 5.08 -4.064 0.254 21
DS 0 -1.524 0 -4.064 0.254 21
DS 0 -1.524 2.54 -1.524 0.254 21
DS 2.54 -1.524 2.54 -4.064 0.254 21
DS 1.016 -4.064 1.016 -10.16 0.254 21
DS 1.016 -10.16 1.524 -10.16 0.254 21
DS 1.524 -10.16 1.524 -4.064 0.254 21
DS 2.54 -4.064 0 -4.064 0.254 21
DS 0 -4.064 -2.54 -4.064 0.254 21
DS -1.016 -10.16 -1.016 -4.064 0.254 21
DS -1.524 -10.16 -1.016 -10.16 0.254 21
DS -1.524 -4.064 -1.524 -10.16 0.254 21
DS 0 -1.524 0 -4.064 0.254 21
DS -2.54 -1.524 0 -1.524 0.254 21
DS -2.54 -1.524 -2.54 -4.064 0.254 21
$PAD
Sh "1" R 1.7272 2.032 0 0 900
Dr 1.016 0 0
At STD N 00E0FFFF
Ne 26 "GND"
Po -6.35 0
$EndPAD
$PAD
Sh "2" O 1.7272 2.032 0 0 900
Dr 1.016 0 0
At STD N 00E0FFFF
Ne 26 "GND"
Po -3.81 0
$EndPAD
$PAD
Sh "3" O 1.7272 2.032 0 0 900
Dr 1.016 0 0
At STD N 00E0FFFF
Ne 4 "/VCC"
Po -1.27 0
$EndPAD
$PAD
Sh "4" O 1.7272 2.032 0 0 900
Dr 1.016 0 0
At STD N 00E0FFFF
Ne 12 "/pd0"
Po 1.27 0
$EndPAD
$PAD
Sh "5" O 1.7272 2.032 0 0 900
Dr 1.016 0 0
At STD N 00E0FFFF
Ne 13 "/pd1"
Po 3.81 0
$EndPAD
$PAD
Sh "6" O 1.7272 2.032 0 0 900
Dr 1.016 0 0
At STD N 00E0FFFF
Ne 32 "Net-(FTDI1-Pad6)"
Po 6.35 0
$EndPAD
$SHAPE3D
Na "Pin_Headers/Pin_Header_Angled_1x06.wrl"
Sc 1 1 1
Of 0 0 0
Ro 0 0 0
$EndSHAPE3D
$EndMODULE Pin_Header_Angled_1x06
$PCB_TARGET
Po 0 28 106.68 85.09 2.60096 0.20066 0
$EndPCB_TARGET
$DRAWSEGMENT
Po 0 108.585 27.305 108.585 27.94 0.381
De 28 0 900 0 0
$EndDRAWSEGMENT
$DRAWSEGMENT
Po 0 108.585 25.4 108.585 27.305 0.381
De 28 0 900 0 0
$EndDRAWSEGMENT
$DRAWSEGMENT
Po 0 35.56 25.4 108.585 25.4 0.381
De 28 0 900 0 0
$EndDRAWSEGMENT
$DRAWSEGMENT
Po 0 35.56 86.995 35.56 25.4 0.381
De 28 0 900 0 0
$EndDRAWSEGMENT
$DRAWSEGMENT
Po 0 38.1 86.995 35.56 86.995 0.381
De 28 0 900 0 0
$EndDRAWSEGMENT
$DRAWSEGMENT
Po 0 108.585 86.995 38.1 86.995 0.381
De 28 0 900 0 0
$EndDRAWSEGMENT
$DRAWSEGMENT
Po 0 108.585 26.035 108.585 86.995 0.381
De 28 0 900 0 0
$EndDRAWSEGMENT
$TEXTPCB
Te "PistuinoS1.1 By fpiston.com"
Po 106.426 58.928 1.524 2.032 0.3048 900
De 0 0 0 Normal
$EndTEXTPCB
$TRACK
Po 0 60.4 53.11 60.4 51.219208 0.80264 -1
De 0 0 1 0 0
Po 0 77.6 73 76.246 74.354 0.80264 -1
De 0 0 1 53BC14D2 0
Po 0 76.246 74.354 64.702 74.354 0.80264 -1
De 0 0 1 53BC14DA 0
Po 0 64.702 74.354 60.4 70.052 0.80264 -1
De 0 0 1 53BC14E2 0
Po 0 60.4 70.052 60.4 53.11 0.80264 -1
De 0 0 1 53BC14E4 0
Po 0 63.5 40.9 63.5 45.35 0.80264 -1
De 0 0 1 53BC14F5 0
Po 0 81.1 70.9 77.6 72.7 0.80264 -1
De 0 0 1 53BC1453 0
Po 0 81.1 70.9 84.455 67.31 0.80264 -1
De 0 0 1 53BC144D 0
Po 0 77.6 72.7 77.6 73 0.80264 -1
De 0 0 1 0 0
Po 0 63.5 48.119208 63.5 45.35 0.80264 -1
De 0 0 1 53BC2A6A 0
Po 0 60.4 51.219208 63.5 48.119208 0.80264 -1
De 0 0 1 53BC2A69 0
Po 0 63.5 40.9 63.5 37.4 0.80264 -1
De 0 0 1 0 0
Po 0 65.405 35.495 65.405 31.75 0.80264 -1
De 0 0 1 53BC23AB 0
Po 0 63.5 37.4 65.405 35.495 0.80264 -1
De 0 0 1 53BC23A8 0
Po 0 63.5 40.9 63.5 40.7 0.80264 -1
De 0 0 1 53BC23A6 0
Po 0 78.12 43 79.4 43 0.80264 -1
De 0 0 2 0 0
Po 0 96.52 35.52 94.9 33.9 0.80264 -1
De 0 0 2 53BC2594 0
Po 0 94.9 33.9 91.8 33.9 0.80264 -1
De 0 0 2 53BC259B 0
Po 0 91.8 33.9 88 37.7 0.80264 -1
De 0 0 2 53BC259E 0
Po 0 88 37.7 84.7 37.7 0.80264 -1
De 0 0 2 53BC25A1 0
Po 0 84.7 37.7 82.6 39.8 0.80264 -1
De 0 0 2 53BC25A3 0
Po 0 96.52 35.52 96.52 38.1 0.80264 -1
De 0 0 2 0 0
Po 0 79.4 43 82.6 39.8 0.80264 -1
De 0 0 2 53BC2639 0
Po 0 73.025 80.01 69.85 80.01 0.80264 -1
De 0 0 2 0 0
Po 0 93.345 52.07 93.98 52.07 0.80264 -1
De 0 0 2 0 0
Po 0 73.025 78.105 73.025 80.01 0.80264 -1
De 0 0 2 0 0
Po 3 88.9 78.105 88.9 78.105 0.889 -1
De 15 1 2 0 0
Po 0 95.885 52.07 104.14 52.07 0.80264 -1
De 15 0 2 0 0
Po 0 104.14 52.07 104.14 59.69 0.80264 -1
De 0 0 2 0 0
Po 0 93.345 52.07 95.885 52.07 0.80264 -1
De 0 0 2 0 0
Po 0 88.9 79.375 88.9 78.105 0.80264 -1
De 0 0 2 0 0
Po 0 93.98 52.07 95.385 50.665 0.80264 -1
De 0 0 2 0 0
Po 0 95.385 50.665 95.385 46.855 0.80264 -1
De 0 0 2 0 0
Po 0 104.14 76.835 106.045 78.486 0.80264 -1
De 0 0 2 0 0
Po 0 88.9 82.55 88.9 79.375 0.80264 -1
De 0 0 2 0 0
Po 0 88.9 82.55 93.345 82.55 0.80264 -1
De 0 0 2 0 0
Po 3 104.14 52.07 104.14 52.07 0.889 -1
De 15 1 2 0 0
Po 0 104.14 60.96 104.14 60.96 0.80264 -1
De 0 0 2 0 0
Po 0 104.14 59.69 104.14 60.96 0.80264 -1
De 0 0 2 0 0
Po 0 104.14 59.69 102.235 59.69 0.80264 -1
De 0 0 2 0 0
Po 0 83.185 78.105 73.025 78.105 0.80264 -1
De 15 0 2 0 0
Po 0 106.045 82.55 93.345 82.55 0.80264 -1
De 0 0 2 0 0
Po 0 96.52 45.72 96.52 38.1 0.80264 -1
De 0 0 2 0 0
Po 3 95.885 52.07 95.885 52.07 0.889 -1
De 15 1 2 0 0
Po 3 73.025 78.105 73.025 78.105 0.889 -1
De 15 1 2 0 0
Po 0 88.9 78.105 83.185 78.105 0.80264 -1
De 15 0 2 0 0
Po 0 95.385 46.855 96.52 45.72 0.80264 -1
De 0 0 2 0 0
Po 0 106.045 78.486 106.045 82.55 0.80264 -1
De 0 0 2 0 0
Po 0 104.14 60.96 104.14 76.835 0.80264 -1
De 0 0 2 0 0
Po 0 79.375 75.565 75.565 75.565 0.80264 -1
De 0 0 3 0 0
Po 0 75.565 80.01 75.565 78.74 0.80264 -1
De 0 0 3 0 0
Po 0 75.565 78.74 75.565 75.565 0.80264 -1
De 0 0 3 0 0
Po 0 79.375 75.565 79.375 74.295 0.80264 -1
De 0 0 3 0 0
Po 0 83.82 71.755 80.01 73.025 0.80264 -1
De 0 0 3 0 0
Po 0 80.01 73.025 79.375 74.295 0.80264 -1
De 0 0 3 0 0
Po 0 85.09 45.3 85.09 44.71 0.80264 -1
De 0 0 4 0 0
Po 0 85.09 49.53 85.09 47.625 0.80264 -1
De 0 0 4 0 0
Po 0 85.09 47.625 85.09 45.3 0.80264 -1
De 0 0 4 0 0
Po 0 86.8 43 88.28 43 0.80264 -1
De 0 0 4 53BC2659 0
Po 0 85.09 44.71 86.8 43 0.80264 -1
De 0 0 4 53BC2656 0
Po 0 57.15 77.1 57.15 78.48 0.80264 -1
De 0 0 4 0 0
Po 0 57.15 78.48 57.87 79.2 0.80264 -1
De 0 0 4 53BBC2BF 0
Po 0 57.87 79.2 57.87 81.73 0.80264 -1
De 0 0 4 0 0
Po 0 57.87 81.73 57.7 81.9 0.80264 -1
De 0 0 4 53BBC2A7 0
Po 0 57.7 81.9 57.7 81.915 0.80264 -1
De 0 0 4 53BBC2AC 0
Po 0 47.6 42.53 46.878 42.53 0.80264 -1
De 0 0 4 0 0
Po 0 46.878 42.53 46.863 42.545 0.80264 -1
De 0 0 4 53BAE304 0
Po 0 53.086 53.086 53.086 48.768 0.80264 -1
De 0 0 4 0 0
Po 0 46.863 42.545 44.704 42.545 0.80264 -1
De 0 0 4 53BAC5B3 0
Po 0 53.086 48.768 46.863 42.545 0.80264 -1
De 0 0 4 53BAC5AE 0
Po 0 53.086 53.086 54.61 53.086 0.80264 -1
De 0 0 4 0 0
Po 0 57.15 55.626 57.15 59.055 0.80264 -1
De 0 0 4 53BABE03 0
Po 0 54.61 53.086 57.15 55.626 0.80264 -1
De 0 0 4 53BABE01 0
Po 0 57.15 59.055 57.15 77.1 0.80264 -1
De 0 0 4 0 0
Po 0 57.15 77.1 57.15 76.81976 0.80264 -1
De 0 0 4 53BBC2BD 0
Po 0 52.07 59.055 57.15 59.055 0.80264 -1
De 0 0 4 0 0
Po 0 52.07 59.055 50.165 58.42 0.80264 -1
De 0 0 4 0 0
Po 0 77.47 76.835 77.47 71.12 0.80264 -1
De 15 0 4 0 0
Po 0 81.28 68.58 80.01 69.85 0.80264 -1
De 0 0 4 0 0
Po 0 80.01 69.85 77.47 71.12 0.80264 -1
De 0 0 4 0 0
Po 3 77.47 71.12 77.47 71.12 0.889 -1
De 15 1 4 0 0
Po 0 81.28 68.58 81.915 67.31 0.80264 -1
De 0 0 4 0 0
Po 0 57.15 81.915 53.975 81.915 0.80264 -1
De 0 0 4 0 0
Po 0 58.42 81.915 57.7 81.915 0.80264 -1
De 0 0 4 0 0
Po 0 57.7 81.915 57.15 81.915 0.80264 -1
De 0 0 4 53BBC2AD 0
Po 0 60.325 81.915 58.42 81.915 0.80264 -1
De 0 0 4 0 0
Po 0 53.975 81.915 53.34 81.28 0.80264 -1
De 0 0 4 0 0
Po 0 64.135 81.915 62.865 81.915 0.80264 -1
De 0 0 4 0 0
Po 0 78.105 81.915 78.105 80.01 0.80264 -1
De 0 0 4 0 0
Po 0 62.865 81.915 60.325 81.915 0.80264 -1
De 0 0 4 0 0
Po 0 78.105 81.915 64.77 81.915 0.80264 -1
De 0 0 4 0 0
Po 0 64.77 81.915 64.135 81.915 0.80264 -1
De 0 0 4 0 0
Po 0 81.915 76.835 77.47 76.835 0.80264 -1
De 0 0 4 0 0
Po 0 77.47 76.835 78.105 80.01 0.80264 -1
De 0 0 4 0 0
Po 0 50.165 58.42 50.165 58.42 0.80264 -1
De 0 0 4 0 0
Po 0 81.915 63.5 86.995 63.5 0.80264 -1
De 15 0 4 0 0
Po 0 86.995 63.5 86.995 62.23 0.80264 -1
De 0 0 4 0 0
Po 0 81.915 67.31 81.915 63.5 0.80264 -1
De 0 0 4 0 0
Po 0 86.995 62.23 86.995 59.69 0.80264 -1
De 0 0 4 0 0
Po 3 86.995 63.5 86.995 63.5 0.889 -1
De 15 1 4 0 0
Po 3 81.915 63.5 81.915 63.5 0.889 -1
De 15 1 4 0 0
Po 0 86.995 57.15 85.09 54.61 0.80264 -1
De 0 0 4 0 0
Po 0 77.47 76.835 78.105 80.01 0.80264 -1
De 0 0 4 0 0
Po 0 77.47 76.835 77.47 76.835 0.80264 -1
De 0 0 4 0 0
Po 3 77.47 76.835 77.47 76.835 0.889 -1
De 15 1 4 0 0
Po 0 86.995 59.69 86.995 57.15 0.80264 -1
De 0 0 4 0 0
Po 0 77.47 76.835 77.47 76.835 0.80264 -1
De 15 0 4 0 0
Po 0 85.09 54.61 85.09 49.53 0.80264 -1
De 0 0 4 0 0
Po 0 86.995 49.53 88.265 49.53 0.80264 -1
De 0 0 4 0 0
Po 0 85.09 49.53 86.995 49.53 0.80264 -1
De 0 0 4 0 0
Po 0 45.9 82.53 47.01 82.53 0.80264 -1
De 0 0 5 0 0
Po 0 47.01 82.53 48.26 81.28 0.80264 -1
De 0 0 5 53BAE2EE 0
Po 0 46.355 54.61 44.45 54.61 0.80264 -1
De 0 0 5 0 0
Po 0 44.45 57.15 44.45 54.61 0.80264 -1
De 0 0 5 0 0
Po 0 40.005 59.69 44.45 57.15 0.80264 -1
De 0 0 5 0 0
Po 0 48.26 83.185 48.26 81.28 0.80264 -1
De 0 0 5 0 0
Po 0 40.005 63.5 40.005 69.85 0.80264 -1
De 0 0 5 0 0
Po 0 48.26 75.565 48.26 81.28 0.80264 -1
De 0 0 5 0 0
Po 0 40.005 69.85 43.815 74.295 0.80264 -1
De 0 0 5 0 0
Po 0 43.815 74.295 48.26 75.565 0.80264 -1
De 0 0 5 0 0
Po 0 85.725 80.01 85.725 83.185 0.80264 -1
De 0 0 5 0 0
Po 0 40.005 63.5 40.005 59.69 0.80264 -1
De 0 0 5 0 0
Po 0 85.725 83.185 48.26 83.185 0.80264 -1
De 0 0 5 0 0
Po 0 89.535 67.31 89.535 68.58 0.80264 -1
De 0 0 6 0 0
Po 0 89.535 68.58 90.805 70.485 0.80264 -1
De 0 0 6 0 0
Po 0 90.805 70.485 90.805 80.01 0.80264 -1
De 0 0 6 0 0
Po 0 92.71 68.58 92.71 78.74 0.80264 -1
De 0 0 7 0 0
Po 0 92.075 67.31 92.71 68.58 0.80264 -1
De 0 0 7 0 0
Po 0 92.71 78.74 93.345 80.01 0.80264 -1
De 0 0 7 0 0
Po 0 94.615 67.31 94.615 68.58 0.80264 -1
De 0 0 8 0 0
Po 0 94.615 78.74 95.885 80.01 0.80264 -1
De 0 0 8 0 0
Po 0 94.615 68.58 94.615 78.74 0.80264 -1
De 0 0 8 0 0
Po 0 97.155 67.31 97.155 68.58 0.80264 -1
De 0 0 9 0 0
Po 0 97.155 68.58 97.155 77.47 0.80264 -1
De 0 0 9 0 0
Po 0 97.155 77.47 97.155 78.74 0.80264 -1
De 0 0 9 0 0
Po 0 97.155 78.74 98.425 80.01 0.80264 -1
De 0 0 9 0 0
Po 0 99.695 78.74 100.965 80.01 0.80264 -1
De 0 0 10 0 0
Po 0 99.695 68.58 99.695 78.74 0.80264 -1
De 0 0 10 0 0
Po 0 99.695 67.31 99.695 68.58 0.80264 -1
De 0 0 10 0 0
Po 0 102.235 67.31 102.235 68.58 0.80264 -1
De 0 0 11 0 0
Po 0 102.235 78.74 103.505 80.01 0.80264 -1
De 0 0 11 0 0
Po 0 102.235 68.58 102.235 78.74 0.80264 -1
De 0 0 11 0 0
Po 0 100.5 27.305 101.405 27.305 0.80264 -1
De 0 0 12 0 0
Po 0 104.775 30.675 104.775 31.75 0.80264 -1
De 0 0 12 53BBC35C 0
Po 0 101.405 27.305 104.775 30.675 0.80264 -1
De 0 0 12 53BBC359 0
Po 0 48.514 27.305 45.085 27.305 0.80264 -1
De 0 0 12 0 0
Po 0 48.514 27.305 100.5 27.305 0.80264 -1
De 0 0 12 53BAC539 0
Po 0 100.5 27.305 100.4 27.305 0.80264 -1
De 0 0 12 53BBC357 0
Po 0 42.164 40.005 44.704 40.005 0.80264 -1
De 0 0 12 53BAC55F 0
Po 0 40.64 38.481 42.164 40.005 0.80264 -1
De 0 0 12 53BAC55E 0
Po 0 40.64 31.75 40.64 38.481 0.80264 -1
De 0 0 12 53BAC55C 0
Po 0 45.085 27.305 40.64 31.75 0.80264 -1
De 0 0 12 53BAC557 0
Po 0 104.14 34.925 104.775 31.75 0.80264 -1
De 0 0 12 0 0
Po 0 102.235 57.785 100.965 57.912 0.80264 -1
De 0 0 12 0 0
Po 0 104.14 34.925 104.14 49.53 0.80264 -1
De 0 0 12 0 0
Po 0 99.695 59.69 100.965 57.912 0.80264 -1
De 0 0 12 0 0
Po 0 102.235 50.8 102.235 57.785 0.80264 -1
De 0 0 12 0 0
Po 0 104.14 49.53 102.235 50.8 0.80264 -1
De 0 0 12 0 0
Po 0 104.775 31.75 104.775 31.75 0.80264 -1
De 0 0 12 0 0
Po 0 102.235 31.75 102.235 30.335 0.80264 -1
De 0 0 13 0 0
Po 0 42.765 37.465 44.704 37.465 0.80264 -1
De 0 0 13 53BC2CA5 0
Po 0 42 36.7 42.765 37.465 0.80264 -1
De 0 0 13 53BC2CA4 0
Po 0 42 32.3 42 36.7 0.80264 -1
De 0 0 13 53BC2CA1 0
Po 0 45.7 28.6 42 32.3 0.80264 -1
De 0 0 13 53BC2C9B 0
Po 0 100.5 28.6 45.7 28.6 0.80264 -1
De 0 0 13 53BC2C87 0
Po 0 102.235 30.335 100.5 28.6 0.80264 -1
De 0 0 13 53BC2C83 0
Po 0 100.965 50.165 100.967388 56.095312 0.80264 -1
De 0 0 13 0 0
Po 0 102.7938 34.91484 102.235 31.75 0.80264 -1
De 0 0 13 0 0
Po 0 100.967388 56.095312 98.75278 57.79222 0.80264 -1
De 0 0 13 0 0
Po 0 96.855 59.69 98.75278 57.79222 0.80264 -1
De 0 0 13 0 0
Po 0 102.743 48.514 100.965 50.165 0.80264 -1
De 0 0 13 0 0
Po 0 102.7938 34.91484 102.743 48.514 0.80264 -1
De 0 0 13 0 0
Po 0 102.235 31.75 102.235 31.75 0.80264 -1
De 0 0 13 0 0
Po 0 65.35 55.94 65.35 53.21 0.80264 -1
De 0 0 14 0 0
Po 0 68.407926 39.842074 70.95 37.3 0.80264 -1
De 0 0 14 53BC2293 0
Po 0 74.5 34.95 75.75 33.7 0.80264 -1
De 0 0 14 53BC1BEA 0
Po 0 75.75 33.7 76.5 33.7 0.80264 -1
De 0 0 14 53BC1BEF 0
Po 0 76.5 33.7 78.105 32.095 0.80264 -1
De 0 0 14 53BC1BF6 0
Po 0 71.755 67.31 71.755 68.845 0.80264 -1
De 0 0 14 0 0
Po 0 78.105 32.095 78.105 31.75 0.80264 -1
De 0 0 14 53BC1BF9 0
Po 0 73.3 34.95 74.5 34.95 0.80264 -1
De 0 0 14 53BC1BE3 0
Po 0 70.95 37.3 73.3 34.95 0.80264 -1
De 0 0 14 53BC1BDF 0
Po 0 68.407926 48.787674 68.407926 41.9 0.80264 -1
De 0 0 14 53BC1BD2 0
Po 0 65.35 67.05 65.35 55.94 0.80264 -1
De 0 0 14 53BC1BC1 0
Po 0 67.794716 69.494716 65.35 67.05 0.80264 -1
De 0 0 14 53BC1BBF 0
Po 0 71.105284 69.494716 67.794716 69.494716 0.80264 -1
De 0 0 14 53BC1BBD 0
Po 0 71.755 68.845 71.105284 69.494716 0.80264 -1
De 0 0 14 53BC1BB6 0
Po 0 68.407926 41.9 68.407926 39.842074 0.80264 -1
De 0 0 14 0 0
Po 0 68.407926 50.152074 68.407926 48.787674 0.80264 -1
De 0 0 14 53BC29B3 0
Po 0 65.35 53.21 68.407926 50.152074 0.80264 -1
De 0 0 14 53BC29AF 0
Po 0 64.105284 54.62 64.105284 52.714716 0.80264 -1
De 0 0 15 0 0
Po 0 68.5 70.697358 67.197358 70.697358 0.80264 -1
De 0 0 15 0 0
Po 0 73.447358 70.3 73.05 70.697358 0.80264 -1
De 0 0 15 53BC1B0D 0
Po 0 73.05 70.697358 68.5 70.697358 0.80264 -1
De 0 0 15 53BC1B19 0
Po 0 67.205284 44.9 67.205284 47.729716 0.80264 -1
De 0 0 15 53BC1B2F 0
Po 0 73.5 70.3 74.295 67.31 0.80264 -1
De 0 0 15 53BC1858 0
Po 0 73.5 70.3 73.447358 70.3 0.80264 -1
De 0 0 15 0 0
Po 0 64.105284 67.605284 64.105284 63.95 0.80264 -1
De 0 0 15 53BC1CF1 0
Po 0 67.197358 70.697358 64.105284 67.605284 0.80264 -1
De 0 0 15 53BC1CEC 0
Po 0 64.105284 63.95 64.105284 54.62 0.80264 -1
De 0 0 15 53BC1CD0 0
Po 0 67.205284 49.614716 67.205284 47.729716 0.80264 -1
De 0 0 15 53BC29C5 0
Po 0 64.105284 52.714716 67.205284 49.614716 0.80264 -1
De 0 0 15 53BC29C2 0
Po 0 67.2 44.9 88.4 44.9 0.80264 -1
De 15 0 15 0 0
Po 3 88.4 44.9 88.4 44.9 0.889 -1
De 15 1 15 0 0
Po 0 88.4 45.9 88.4 44.9 0.80264 -1
De 0 0 15 53BC2683 0
Po 0 90.805 48.305 88.4 45.9 0.80264 -1
De 0 0 15 53BC2666 0
Po 0 90.805 48.305 90.805 49.53 0.80264 -1
De 0 0 15 0 0
Po 3 67.2 44.9 67.2 44.9 0.889 -1
De 15 1 15 0 0
Po 0 67.2 44.9 67.205284 44.9 0.80264 -1
De 0 0 15 53BC285E 0
Po 0 67.205284 44.9 67.2 44.9 0.80264 -1
De 0 0 15 53BC285F 0
Po 0 67.2 44.9 67.205284 44.9 0.80264 -1
De 0 0 15 53BC2861 0
Po 0 70.45 36.099208 67.205284 39.343924 0.80264 -1
De 0 0 15 53BC22BB 0
Po 0 67.205284 39.343924 67.205284 43.3 0.80264 -1
De 0 0 15 53BC22C1 0
Po 0 67.205284 44.9 67.205284 43.3 0.80264 -1
De 0 0 15 53BC2862 0
Po 0 70.45 36.05 72.8 33.7 0.80264 -1
De 0 0 15 53BC1B40 0
Po 0 72.8 33.7 73.95 33.7 0.80264 -1
De 0 0 15 53BC1B49 0
Po 0 73.95 33.7 75.565 32.085 0.80264 -1
De 0 0 15 53BC1B4B 0
Po 0 75.565 31.75 75.565 32.085 0.80264 -1
De 0 0 15 53BC1B50 0
Po 0 70.45 36.05 70.45 36.099208 0.80264 -1
De 0 0 15 0 0
Po 0 86.3 52.1 62.97 52.1 0.80264 -1
De 15 0 16 0 0
Po 0 86.33 52.07 86.3 52.1 0.80264 -1
De 0 0 16 53BC2787 0
Po 3 86.3 52.1 86.3 52.1 0.889 -1
De 15 1 16 0 0
Po 0 88.265 52.07 86.33 52.07 0.80264 -1
De 0 0 16 0 0
Po 0 62.932642 52.137358 62.902642 52.137358 0.80264 -1
De 0 0 16 53BC2ABB 0
Po 0 62.96 52.11 62.932642 52.137358 0.80264 -1
De 0 0 16 53BC2ABA 0
Po 3 62.96 52.11 62.96 52.11 0.889 -1
De 15 1 16 0 0
Po 0 62.97 52.1 62.96 52.11 0.80264 -1
De 15 0 16 53BC2AB2 0
Po 0 62.902642 53.34 62.902642 52.137358 0.80264 -1
De 0 0 16 0 0
Po 0 66.002642 46.547358 66.002642 42 0.80264 -1
De 0 0 16 53BC1830 0
Po 0 66.002642 49.037358 66.002642 46.547358 0.80264 -1
De 0 0 16 53BC2A20 0
Po 0 62.902642 52.137358 66.002642 49.037358 0.80264 -1
De 0 0 16 53BC2A1F 0
Po 0 66.002642 42 66.002642 38.772358 0.80264 -1
De 0 0 16 0 0
Po 0 66.002642 38.772358 69.975 34.8 0.80264 -1
De 0 0 16 53BC2314 0
Po 0 69.975 34.8 73.025 31.75 0.80264 -1
De 0 0 16 53BC1841 0
Po 0 74.8 70.8 74.8 71.3 0.80264 -1
De 0 0 16 0 0
Po 0 76.835 67.31 75.5 69.2 0.80264 -1
De 0 0 16 53BC17D6 0
Po 0 75.5 69.2 74.9 70.2 0.80264 -1
De 0 0 16 53BC17D9 0
Po 0 74.8 70.8 74.9 70.2 0.80264 -1
De 0 0 16 53BC180B 0
Po 0 66.002642 42 66.002642 41.9 0.80264 -1
De 0 0 16 53BC2312 0
Po 0 62.902642 68.592242 62.902642 56.24 0.80264 -1
De 0 0 16 53BC1825 0
Po 0 62.902642 56.24 62.902642 53.34 0.80264 -1
De 0 0 16 53BC29E1 0
Po 0 62.902642 53.34 62.902642 53.3 0.80264 -1
De 0 0 16 53BC2A1D 0
Po 0 66.2104 71.9 62.902642 68.592242 0.80264 -1
De 0 0 16 53BC1823 0
Po 0 74.2 71.9 66.2104 71.9 0.80264 -1
De 0 0 16 53BC181D 0
Po 0 74.8 71.3 74.2 71.9 0.80264 -1
De 0 0 16 53BC1819 0
Po 0 86.36 53.34 61.71 53.34 0.80264 -1
De 15 0 17 0 0
Po 0 90.805 54.61 88.265 54.61 0.80264 -1
De 0 0 17 0 0
Po 0 88.265 54.61 86.36 53.34 0.80264 -1
De 0 0 17 0 0
Po 3 86.36 53.34 86.36 53.34 0.889 -1
De 15 1 17 0 0
Po 0 90.805 52.07 90.805 54.61 0.80264 -1
De 0 0 17 0 0
Po 0 61.7 53.34 61.7 53.4 0.80264 -1
De 0 0 17 53BC2AA2 0
Po 0 61.71 53.34 61.7 53.34 0.80264 -1
De 0 0 17 53BC2AA1 0
Po 3 61.71 53.34 61.71 53.34 0.889 -1
De 15 1 17 0 0
Po 0 61.7 53.4 61.7 52.5 0.80264 -1
De 0 0 17 53BC2833 0
Po 0 61.7 52.5 61.7 51.62 0.80264 -1
De 0 0 17 0 0
Po 0 64.8 38.2 70.485 32.515 0.80264 -1
De 0 0 17 53BC2551 0
Po 0 70.485 31.75 70.485 32.515 0.80264 -1
De 0 0 17 53BC2553 0
Po 0 76.1 72.5 75.452642 73.147358 0.80264 -1
De 0 0 17 53BC178E 0
Po 0 75.452642 73.147358 65.451158 73.147358 0.80264 -1
De 0 0 17 53BC1796 0
Po 0 65.451158 73.147358 61.7 69.3962 0.80264 -1
De 0 0 17 53BC1799 0
Po 0 61.7 54.48 61.7 53.4 0.80264 -1
De 0 0 17 53BC2A36 0
Po 0 61.7 69.3962 61.7 54.48 0.80264 -1
De 0 0 17 53BC17A1 0
Po 0 64.8 45.9 64.8 40.5 0.80264 -1
De 0 0 17 53BC17BC 0
Po 0 78.4 69 79.375 67.31 0.80264 -1
De 0 0 17 53BC1772 0
Po 0 76.9 69.7 76.1 70.7 0.80264 -1
De 0 0 17 53BC177C 0
Po 0 78.4 69 76.9 69.7 0.80264 -1
De 0 0 17 53BC1778 0
Po 0 76.1 70.7 76.1 72.5 0.80264 -1
De 0 0 17 0 0
Po 0 64.8 40.5 64.8 38.2 0.80264 -1
De 0 0 17 0 0
Po 0 64.8 48.52 64.8 45.9 0.80264 -1
De 0 0 17 53BC2A56 0
Po 0 61.7 51.62 64.8 48.52 0.80264 -1
De 0 0 17 53BC2A54 0
Po 0 99.695 49.53 99.695 55.346666 0.80264 -1
De 0 0 18 0 0
Po 0 99.695 31.75 99.695 31.75 0.80264 -1
De 0 0 18 0 0
Po 0 99.695 55.346666 96.885002 57.219998 0.80264 -1
De 0 0 18 0 0
Po 0 101.219 34.036 101.219 47.752 0.80264 -1
De 0 0 18 0 0
Po 0 101.219 34.036 99.695 31.75 0.80264 -1
De 0 0 18 0 0
Po 0 94.415 59.69 96.885002 57.219998 0.80264 -1
De 0 0 18 0 0
Po 0 101.219 47.752 99.695 49.53 0.80264 -1
De 0 0 18 0 0
Po 0 98.425 48.768 99.949 46.99 0.80264 -1
De 0 0 19 0 0
Po 0 99.949 34.544 97.155 31.75 0.80264 -1
De 0 0 19 0 0
Po 0 98.425 54.3575 94.645 56.72 0.80264 -1
De 0 0 19 0 0
Po 0 91.775 59.59 94.645 56.72 0.80264 -1
De 0 0 19 0 0
Po 0 99.949 46.99 99.949 34.544 0.80264 -1
De 0 0 19 0 0
Po 0 98.425 54.3575 98.425 48.768 0.80264 -1
De 0 0 19 0 0
Po 0 98.425 34.925 98.425 46.355 0.80264 -1
De 0 0 20 0 0
Po 0 89.535 59.69 93.805 55.42 0.80264 -1
De 0 0 20 0 0
Po 0 97.155 48.26 97.155 53.41 0.80264 -1
De 0 0 20 0 0
Po 0 97.155 53.41 93.805 55.42 0.80264 -1
De 0 0 20 0 0
Po 0 98.425 46.355 97.155 48.26 0.80264 -1
De 0 0 20 0 0
Po 0 98.425 34.925 94.615 31.75 0.80264 -1
De 0 0 20 0 0
Po 0 73.05 55.75 73.05 54.65 0.80264 -1
De 0 0 21 0 0
Po 0 74.7 50.2 74.7 42.6 0.80264 -1
De 0 0 21 53BC20EB 0
Po 0 74.7 42.6 75.9 41.4 0.80264 -1
De 0 0 21 53BC20F0 0
Po 0 75.9 41.4 77.1 41.4 0.80264 -1
De 0 0 21 53BC20F3 0
Po 0 77.1 41.4 78.3 40.2 0.80264 -1
De 0 0 21 53BC20FD 0
Po 0 78.3 40.2 79.1 40.2 0.80264 -1
De 0 0 21 53BC2102 0
Po 0 79.1 40.2 80.9 38.4 0.80264 -1
De 0 0 21 53BC2108 0
Po 0 80.9 38.4 82.2 38.4 0.80264 -1
De 0 0 21 53BC210F 0
Po 0 82.2 38.4 84.2 36.4 0.80264 -1
De 0 0 21 53BC2110 0
Po 0 84.2 36.4 87.5 36.4 0.80264 -1
De 0 0 21 53BC2113 0
Po 0 87.5 36.4 90.4 33.5 0.80264 -1
De 0 0 21 53BC2117 0
Po 0 90.4 33.5 90.4 33.425 0.80264 -1
De 0 0 21 53BC211A 0
Po 0 92.075 31.75 90.4 33.425 0.80264 -1
De 0 0 21 53BC211E 0
Po 0 76.835 59.535 76.835 59.69 0.80264 -1
De 0 0 21 0 0
Po 0 76.835 59.535 73.05 55.75 0.80264 -1
De 0 0 21 53BC1EC4 0
Po 0 74.7 53 74.7 50.2 0.80264 -1
De 0 0 21 53BC28F8 0
Po 0 73.05 54.65 74.7 53 0.80264 -1
De 0 0 21 53BC28F2 0
Po 0 70.6 54.9 70.6 55.7 0.80264 -1
De 0 0 22 0 0
Po 0 76.5 40.1 77.7 38.9 0.80264 -1
De 0 0 22 53BC20CB 0
Po 0 77.7 38.9 78.6 38.9 0.80264 -1
De 0 0 22 53BC20CD 0
Po 0 78.6 38.9 80.4 37.1 0.80264 -1
De 0 0 22 53BC20D0 0
Po 0 80.4 37.1 81.7 37.1 0.80264 -1
De 0 0 22 53BC20D3 0
Po 0 81.7 37.1 83.7 35.1 0.80264 -1
De 0 0 22 53BC20D6 0
Po 0 83.7 35.1 87 35.1 0.80264 -1
De 0 0 22 53BC20DC 0
Po 0 87 35.1 89.535 32.565 0.80264 -1
De 0 0 22 53BC20DE 0
Po 0 89.535 31.75 89.535 32.565 0.80264 -1
De 0 0 22 53BC20E1 0
Po 0 74.295 59.395 70.6 55.7 0.80264 -1
De 0 0 22 53BC1E89 0
Po 0 74.295 59.395 74.295 59.69 0.80264 -1
De 0 0 22 0 0
Po 0 73.4 42.1 75.4 40.1 0.80264 -1
De 0 0 22 53BC1ED6 0
Po 0 73.4 52.1 73.4 42.1 0.80264 -1
De 0 0 22 53BC1ED4 0
Po 0 70.6 54.9 73.4 52.1 0.80264 -1
De 0 0 22 53BC1ED0 0
Po 0 75.4 40.1 76.5 40.1 0.80264 -1
De 0 0 22 0 0
Po 0 74.8 38.8 76 38.8 0.80264 -1
De 0 0 23 0 0
Po 0 71.755 59.455 69.2 56.9 0.80264 -1
De 0 0 23 53BC1E4A 0
Po 0 69.2 56.9 69.2 54.5 0.80264 -1
De 0 0 23 53BC1E51 0
Po 0 69.2 54.5 72.1 51.6 0.80264 -1
De 0 0 23 53BC1E53 0
Po 0 72.1 51.6 72.1 41.5 0.80264 -1
De 0 0 23 53BC1E58 0
Po 0 72.1 41.5 74.8 38.8 0.80264 -1
De 0 0 23 53BC1E5D 0
Po 0 71.755 59.69 71.755 59.455 0.80264 -1
De 0 0 23 0 0
Po 0 86.995 33.105 86.995 31.75 0.80264 -1
De 0 0 23 53BC20C2 0
Po 0 86.3 33.8 86.995 33.105 0.80264 -1
De 0 0 23 53BC20BD 0
Po 0 83.2 33.8 86.3 33.8 0.80264 -1
De 0 0 23 53BC20BA 0
Po 0 81.2 35.8 83.2 33.8 0.80264 -1
De 0 0 23 53BC20B3 0
Po 0 79.9 35.8 81.2 35.8 0.80264 -1
De 0 0 23 53BC20B0 0
Po 0 78.1 37.6 79.9 35.8 0.80264 -1
De 0 0 23 53BC20AD 0
Po 0 77.2 37.6 78.1 37.6 0.80264 -1
De 0 0 23 53BC20A6 0
Po 0 76 38.8 77.2 37.6 0.80264 -1
De 0 0 23 53BC20A0 0
Po 0 67.8942 54.73 67.8942 54.105008 0.80264 -1
De 0 0 24 0 0
Po 0 70.81321 40.88679 71.9 39.8 0.80264 -1
De 0 0 24 53BC223F 0
Po 0 68.4022 59.69 67.8942 59.182 0.80264 -1
De 0 0 24 53BC1D67 0
Po 0 67.8942 59.182 67.8942 54.73 0.80264 -1
De 0 0 24 53BC1D6F 0
Po 0 70.81321 50.58679 70.81321 42.3 0.80264 -1
De 0 0 24 53BC1D77 0
Po 0 69.215 59.69 68.4022 59.69 0.80264 -1
De 0 0 24 0 0
Po 0 83.185 32.015 83.185 31.75 0.80264 -1
De 0 0 24 53BC207E 0
Po 0 80.7 34.5 83.185 32.015 0.80264 -1
De 0 0 24 53BC207B 0
Po 0 79.4 34.5 80.7 34.5 0.80264 -1
De 0 0 24 53BC2073 0
Po 0 77.6 36.3 79.4 34.5 0.80264 -1
De 0 0 24 53BC2071 0
Po 0 76.7 36.3 77.6 36.3 0.80264 -1
De 0 0 24 53BC206A 0
Po 0 75.5 37.5 76.7 36.3 0.80264 -1
De 0 0 24 53BC2067 0
Po 0 74.2 37.5 75.5 37.5 0.80264 -1
De 0 0 24 53BC2061 0
Po 0 71.9 39.8 74.2 37.5 0.80264 -1
De 0 0 24 53BC205E 0
Po 0 70.81321 42.3 70.81321 40.88679 0.80264 -1
De 0 0 24 0 0
Po 0 70.81321 51.185998 70.81321 50.58679 0.80264 -1
De 0 0 24 53BC2989 0
Po 0 67.8942 54.105008 70.81321 51.185998 0.80264 -1
De 0 0 24 53BC2985 0
Po 0 66.552642 55.54 66.552642 53.745774 0.80264 -1
De 0 0 25 0 0
Po 0 69.610568 40.38864 71.425 38.574208 0.80264 -1
De 0 0 25 53BC2261 0
Po 0 71.425 38.525792 71.425 38.574208 0.80264 -1
De 0 0 25 53BC2264 0
Po 0 67.56 67.31 69.215 67.31 0.80264 -1
De 0 0 25 0 0
Po 0 69.610568 49.889432 69.610568 43.9 0.80264 -1
De 0 0 25 53BC1C17 0
Po 0 66.552642 66.302642 66.552642 55.54 0.80264 -1
De 0 0 25 53BC1C0B 0
Po 0 67.56 67.31 66.552642 66.302642 0.80264 -1
De 0 0 25 53BC1C00 0
Po 0 69.610568 43.9 69.610568 40.38864 0.80264 -1
De 0 0 25 0 0
Po 0 69.610568 50.687848 69.610568 49.889432 0.80264 -1
De 0 0 25 53BC2996 0
Po 0 66.552642 53.745774 69.610568 50.687848 0.80264 -1
De 0 0 25 53BC2994 0
Po 0 78.86664 33.23336 79.40802 33.23336 0.80264 -1
De 0 0 25 53BC1C45 0
Po 0 71.425 38.525792 73.750792 36.2 0.80264 -1
De 0 0 25 53BC2265 0
Po 0 73.750792 36.2 75 36.2 0.80264 -1
De 0 0 25 53BC1C2C 0
Po 0 75 36.2 76.2 35 0.80264 -1
De 0 0 25 53BC1C35 0
Po 0 76.2 35 77.1 35 0.80264 -1
De 0 0 25 53BC1C38 0
Po 0 77.1 35 78.86664 33.23336 0.80264 -1
De 0 0 25 53BC1C42 0
Po 0 71.400792 38.55 71.425 38.525792 0.80264 -1
De 0 0 25 53BC1C29 0
Po 0 69.215 67.31 69.215 67.31 0.80264 -1
De 0 0 25 0 0
Po 0 80.645 31.75 79.40802 33.23336 0.80264 -1
De 0 0 25 0 0
Po 0 79.40802 33.23336 79.375 33.274 0.80264 -1
De 0 0 25 0 0
Po 0 44.704 45.085 47.585 45.085 0.80264 -1
De 0 0 26 0 0
Po 0 47.585 45.085 47.6 45.07 0.80264 -1
De 0 0 26 53BAE301 0
Po 0 45.9 85.07 45.93 85.07 0.80264 -1
De 0 0 26 0 0
Po 0 46.545 84.455 46.745 84.455 0.80264 -1
De 0 0 26 53BAE2F2 0
Po 0 45.93 85.07 46.545 84.455 0.80264 -1
De 0 0 26 53BAE2F1 0
Po 0 44.704 47.625 44.704 45.085 0.80264 -1
De 0 0 26 0 0
Po 0 48.895 54.61 48.895 49.276 0.80264 -1
De 0 0 26 0 0
Po 0 48.895 49.276 44.704 45.085 0.80264 -1
De 0 0 26 53BAC5B6 0
Po 0 38.1 33.782 38.1 30.734 0.80264 -1
De 0 0 26 0 0
Po 0 67.945 29.845 53.848 29.845 0.80264 -1
De 0 0 26 0 0
Po 0 53.848 29.845 50.165 29.845 0.80264 -1
De 0 0 26 53BABDDB 0
Po 0 67.945 31.75 67.945 29.845 0.80264 -1
De 0 0 26 0 0
Po 0 38.1 33.909 38.1 52.07 0.80264 -1
De 0 0 26 53BAC4F0 0
Po 0 38.1 33.782 38.1 33.909 0.80264 -1
De 0 0 26 0 0
Po 0 47.752 29.845 50.165 29.845 0.80264 -1
De 0 0 26 53BAC5A2 0
Po 0 46.863 30.734 47.752 29.845 0.80264 -1
De 0 0 26 53BAC5A1 0
Po 3 46.863 30.734 46.863 30.734 0.889 -1
De 15 1 26 0 0
Po 0 38.1 30.734 46.863 30.734 0.80264 -1
De 15 0 26 53BAC597 0
Po 3 38.1 30.734 38.1 30.734 0.889 -1
De 15 1 26 0 0
Po 0 53.086 55.626 49.911 55.626 0.80264 -1
De 0 0 26 0 0
Po 0 49.911 55.626 48.895 54.61 0.80264 -1
De 0 0 26 53BABDE3 0
Po 0 86.36 71.755 86.36 74.295 0.80264 -1
De 0 0 26 0 0
Po 0 86.36 74.295 85.09 74.295 0.80264 -1
De 0 0 26 0 0
Po 0 86.36 71.755 86.36 71.12 0.80264 -1
De 0 0 26 0 0
Po 0 85.09 74.295 85.09 74.295 0.80264 -1
De 0 0 26 0 0
Po 0 86.995 68.58 86.36 69.85 0.80264 -1
De 0 0 26 0 0
Po 0 86.36 71.12 86.36 69.85 0.80264 -1
De 0 0 26 0 0
Po 0 86.995 68.58 86.995 67.31 0.80264 -1
De 0 0 26 0 0
Po 0 81.915 74.295 85.09 74.295 0.80264 -1
De 0 0 26 0 0
Po 0 44.45 71.755 41.91 69.215 0.80264 -1
De 0 0 26 0 0
Po 0 44.45 71.755 46.355 72.39 0.80264 -1
De 0 0 26 0 0
Po 0 46.355 72.39 47.68088 73.18502 0.80264 -1
De 0 0 26 0 0
Po 0 46.0375 57.4675 47.625 58.42 0.80264 -1
De 0 0 26 0 0
Po 0 48.895 54.61 46.0375 57.4675 0.80264 -1
De 0 0 26 0 0
Po 0 46.0375 57.4675 44.45 59.055 0.80264 -1
De 0 0 26 0 0
Po 0 44.45 59.055 41.91 60.325 0.80264 -1
De 0 0 26 0 0
Po 0 41.91 60.325 41.91 69.215 0.80264 -1
De 0 0 26 0 0
Po 0 47.68088 73.18502 50.8 74.93 0.80264 -1
De 0 0 26 0 0
Po 0 50.8 74.93 50.8 78.105 0.80264 -1
De 0 0 26 0 0
Po 0 50.8 78.105 50.8 81.28 0.80264 -1
De 0 0 26 0 0
Po 0 48.895 54.61 48.895 53.975 0.80264 -1
De 0 0 26 0 0
Po 0 46.355 52.705 45.72 52.07 0.80264 -1
De 0 0 26 0 0
Po 0 47.625 52.705 46.355 52.705 0.80264 -1
De 0 0 26 0 0
Po 0 48.895 53.975 47.625 52.705 0.80264 -1
De 0 0 26 0 0
Po 0 85.09 76.835 87.63 76.835 0.80264 -1
De 0 0 26 0 0
Po 0 38.1 52.705 38.1 52.07 0.80264 -1
De 0 0 26 0 0
Po 0 91.44 45.72 91.44 41.275 0.80264 -1
De 0 0 26 0 0
Po 0 83.185 49.53 83.185 53.34 0.80264 -1
De 0 0 26 0 0
Po 0 83.185 46.99 83.185 49.53 0.80264 -1
De 0 0 26 0 0
Po 0 84.455 64.77 86.995 67.31 0.80264 -1
De 0 0 26 0 0
Po 0 84.455 59.69 84.455 64.77 0.80264 -1
De 0 0 26 0 0
Po 0 84.455 41.275 91.44 41.275 0.80264 -1
De 0 0 26 0 0
Po 0 83.185 46.99 83.185 42.545 0.80264 -1
De 0 0 26 0 0
Po 0 83.185 42.545 84.455 41.275 0.80264 -1
De 0 0 26 0 0
Po 0 38.735 83.82 41.021 83.82 0.80264 -1
De 0 0 26 0 0
Po 0 38.735 78.74 38.735 83.82 0.80264 -1
De 0 0 26 0 0
Po 0 42.545 83.82 43.18 84.455 0.80264 -1
De 0 0 26 0 0
Po 0 43.18 84.455 46.745 84.455 0.80264 -1
De 0 0 26 0 0
Po 0 46.745 84.455 47.625 84.455 0.80264 -1
De 0 0 26 53BAE2F5 0
Po 0 64.77 84.455 67.31 84.455 0.80264 -1
De 0 0 26 0 0
Po 0 50.165 84.455 47.625 84.455 0.80264 -1
De 0 0 26 0 0
Po 0 41.021 83.82 42.545 83.82 0.80264 -1
De 0 0 26 0 0
Po 0 38.1 52.07 45.72 52.07 0.80264 -1
De 0 0 26 0 0
Po 0 83.185 80.01 80.645 80.01 0.80264 -1
De 0 0 26 0 0
Po 0 84.455 57.15 84.455 59.69 0.80264 -1
De 0 0 26 0 0
Po 0 38.735 78.74 38.1 75.565 0.80264 -1
De 0 0 26 0 0
Po 0 83.185 80.01 83.185 80.01 0.80264 -1
De 0 0 26 0 0
Po 0 38.1 73.025 38.1 71.12 0.80264 -1
De 0 0 26 0 0
Po 0 38.1 73.025 38.1 75.565 0.80264 -1
De 0 0 26 0 0
Po 0 67.31 84.455 87.63 84.455 0.80264 -1
De 0 0 26 0 0
Po 0 91.44 41.275 91.44 38.1 0.80264 -1
De 0 0 26 0 0
Po 0 93.345 47.625 91.44 45.72 0.80264 -1
De 0 0 26 0 0
Po 0 64.77 84.455 50.8 84.455 0.80264 -1
De 0 0 26 0 0
Po 0 50.8 84.455 50.165 84.455 0.80264 -1
De 0 0 26 0 0
Po 0 67.31 84.455 67.31 84.455 0.80264 -1
De 0 0 26 0 0
Po 0 83.185 55.245 83.185 53.34 0.80264 -1
De 0 0 26 0 0
Po 0 87.63 84.455 87.63 84.455 0.80264 -1
De 0 0 26 0 0
Po 0 84.455 57.15 83.185 55.245 0.80264 -1
De 0 0 26 0 0
Po 0 93.345 49.53 93.345 47.625 0.80264 -1
De 0 0 26 0 0
Po 0 87.63 76.835 87.63 84.455 0.80264 -1
De 0 0 26 0 0
Po 0 85.09 76.835 85.09 74.295 0.80264 -1
De 0 0 26 0 0
Po 0 83.185 80.01 85.09 76.835 0.80264 -1
De 0 0 26 0 0
Po 0 38.1 66.04 38.1 68.58 0.80264 -1
De 0 0 26 0 0
Po 0 38.1 62.23 38.1 58.42 0.80264 -1
De 0 0 26 0 0
Po 0 38.1 66.04 38.1 62.23 0.80264 -1
De 0 0 26 0 0
Po 0 38.1 58.42 38.1 57.785 0.80264 -1
De 0 0 26 0 0
Po 0 38.1 71.12 38.1 68.58 0.80264 -1
De 0 0 26 0 0
Po 0 38.1 57.15 38.1 52.705 0.80264 -1
De 0 0 26 0 0
Po 0 38.1 57.785 38.1 57.15 0.80264 -1
De 0 0 26 0 0
Po 0 79.375 53.34 79.375 56.515 0.80264 -1
De 0 0 27 0 0
Po 0 79.375 56.515 81.915 56.515 0.80264 -1
De 0 0 27 0 0
Po 0 80.645 49.53 79.375 53.34 0.80264 -1
De 0 0 27 0 0
Po 0 81.915 56.515 81.915 59.69 0.80264 -1
De 0 0 27 0 0
Po 0 76.835 52.07 78.74 48.26 0.80264 -1
De 0 0 28 0 0
Po 0 78.74 48.26 80.645 46.99 0.80264 -1
De 0 0 28 0 0
Po 0 76.835 56.515 79.375 59.69 0.80264 -1
De 0 0 28 0 0
Po 0 76.835 56.515 76.835 54.61 0.80264 -1
De 0 0 28 0 0
Po 0 76.835 54.61 76.835 52.07 0.80264 -1
De 0 0 28 0 0
Po 0 67.31 75.565 64.065 75.565 0.80264 -1
De 0 0 29 0 0
Po 0 59.055 57.912 59.055 66.9 0.80264 -1
De 0 0 29 53BC23E4 0
Po 0 67.31 75.565 67.31 80.01 0.80264 -1
De 0 0 29 0 0
Po 0 59.055 70.555 59.055 66.9 0.80264 -1
De 0 0 29 53BC23F4 0
Po 0 64.065 75.565 59.055 70.555 0.80264 -1
De 0 0 29 53BC23EE 0
Po 0 59.055 54.102 59.055 50.27 0.80264 -1
De 0 0 29 0 0
Po 0 49.403 40.618 49.403 37.465 0.80264 -1
De 0 0 29 53BAC5C8 0
Po 0 59.055 50.27 49.403 40.618 0.80264 -1
De 0 0 29 53BAC5C2 0
Po 0 59.055 57.912 59.055 54.102 0.80264 -1
De 0 0 29 0 0
Po 0 59.055 54.102 59.055 53.975 0.80264 -1
De 0 0 29 53BAC0DE 0
Po 0 59.055 57.912 59.055 57.785 0.80264 -1
De 0 0 29 53BABE08 0
Po 0 45.085 78.486 44.831 78.74 0.80264 -1
De 0 0 30 0 0
Po 0 40.005 73.66 41.91 75.819 0.80264 -1
De 0 0 30 0 0
Po 0 41.91 75.819 44.831 78.74 0.80264 -1
De 0 0 30 0 0
Po 0 54.61 77 54.61 78.48 0.80264 -1
De 0 0 31 0 0
Po 0 54.61 78.48 55.33 79.2 0.80264 -1
De 0 0 31 53BBC2BA 0
Po 0 44.45 69.215 45.72 70.485 0.80264 -1
De 0 0 31 0 0
Po 0 45.72 70.485 48.26 70.485 0.80264 -1
De 0 0 31 0 0
Po 0 48.26 70.485 54.61 74.295 0.80264 -1
De 0 0 31 0 0
Po 0 54.61 74.295 54.61 77 0.80264 -1
De 0 0 31 0 0
Po 0 54.61 77 54.61 76.835 0.80264 -1
De 0 0 31 53BBC2B8 0
Po 0 44.45 69.215 44.45 61.595 0.80264 -1
De 0 0 31 0 0
Po 0 44.704 34.925 49.403 34.925 0.80264 -1
De 0 0 32 0 0
$EndTRACK
$ZONE
$EndZONE
$CZONE_OUTLINE
ZInfo 4E92494E 26 "GND"
ZLayer 0
ZAux 4 E
ZClearance 0.89916 T
ZMinThickness 0.254
ZOptions 0 16 F 0.508 0.508
ZSmoothing 0 0
ZCorner 108.585 86.868 0
ZCorner 108.331 25.908 0
ZCorner 35.941 25.4 0
ZCorner 35.941 86.614 1
$POLYSCORNERS
46.093747 85.084142 0 0
45.914142 85.263747 0 0
45.9 85.249605 0 0
45.885857 85.263747 0 0
45.706252 85.084142 0 0
45.720395 85.07 0 0
45.706252 85.055857 0 0
45.885857 84.876252 0 0
45.9 84.890395 0 0
45.914142 84.876252 0 0
46.093747 85.055857 0 0
46.079605 85.07 0 0
46.093747 85.084142 1 0
55.72252 57.62752 0 0
54.431927 57.62752 0 0
53.840583 57.62752 0 0
53.840583 56.560188 0 0
53.086 55.805605 0 0
52.906395 55.98521 0 0
52.331417 56.560188 0 0
52.393071 56.7958 0 0
52.89348 56.971927 0 0
53.423199 56.943148 0 0
53.778929 56.7958 0 0
53.840583 56.560188 0 0
53.840583 57.62752 0 0
52.301649 57.62752 0 0
51.566037 57.382316 0 0
51.143217 56.958757 0 0
50.509561 56.69564 0 0
50.115927 56.695296 0 0
50.115927 54.49252 0 0
50.087148 53.962801 0 0
49.9398 53.607071 0 0
49.704188 53.545417 0 0
49.524583 53.725022 0 0
48.949605 54.3 0 0
49.704188 55.054583 0 0
49.9398 54.992929 0 0
50.115927 54.49252 0 0
50.115927 56.695296 0 0
49.823449 56.695041 0 0
49.524583 56.81853 0 0
49.189335 56.957052 0 0
48.703757 57.441783 0 0
48.605828 57.677621 0 0
48.559188 57.665417 0 0
48.379583 57.845022 0 0
48.379583 57.485812 0 0
48.317929 57.2502 0 0
47.81752 57.074073 0 0
47.287801 57.102852 0 0
46.932071 57.2502 0 0
46.870417 57.485812 0 0
47.625 58.240395 0 0
48.379583 57.485812 0 0
48.379583 57.845022 0 0
47.804605 58.42 0 0
47.818747 58.434142 0 0
47.639142 58.613747 0 0
47.625 58.599605 0 0
47.610857 58.613747 0 0
47.445395 58.448285 0 0
47.431252 58.434142 0 0
47.445395 58.42 0 0
46.690812 57.665417 0 0
46.4552 57.727071 0 0
46.279073 58.22748 0 0
46.307852 58.757199 0 0
46.4552 59.112929 0 0
46.690809 59.174582 0 0
46.575555 59.289837 0 0
46.584558 59.29884 0 0
46.150884 59.29884 0 0
45.773727 59.455064 0 0
45.485063 59.743727 0 0
45.363174 60.037992 0 0
44.807247 59.807151 0 0
44.095873 59.80653 0 0
43.438412 60.078188 0 0
42.934956 60.580766 0 0
42.662151 61.237753 0 0
42.66153 61.949127 0 0
42.933188 62.606588 0 0
43.02252 62.696076 0 0
43.02252 69.215 0 0
43.13118 69.761273 0 0
43.440619 70.224381 0 0
43.740058 70.52382 0 0
43.718857 70.532603 0 0
43.649392 70.774787 0 0
44.45 71.575395 0 0
44.464142 71.561252 0 0
44.643747 71.740857 0 0
44.629605 71.755 0 0
45.430213 72.555608 0 0
45.672397 72.486143 0 0
45.859144 71.962698 0 0
45.85663 71.91248 0 0
47.864611 71.91248 0 0
53.18252 75.103225 0 0
53.18252 76.835 0 0
53.18252 77 0 0
53.18252 78.48 0 0
53.29118 79.026273 0 0
53.465562 79.287255 0 0
53.465495 79.364948 0 0
52.960722 79.364508 0 0
52.256566 79.65546 0 0
52.053849 79.857823 0 0
52.048699 79.852673 0 0
51.81531 79.756 0 0
51.562691 79.756 0 0
51.08575 79.756 0 0
50.927 79.91475 0 0
50.927 81.153 0 0
50.947 81.153 0 0
50.947 81.407 0 0
50.927 81.407 0 0
50.927 81.427 0 0
50.673 81.427 0 0
50.673 81.407 0 0
50.653 81.407 0 0
50.653 81.153 0 0
50.673 81.153 0 0
50.673 79.91475 0 0
50.51425 79.756 0 0
50.037309 79.756 0 0
49.78469 79.756 0 0
49.68748 79.796265 0 0
49.68748 75.565 0 0
49.671404 75.484181 0 0
49.67815 75.402053 0 0
49.617508 75.213229 0 0
49.57882 75.018727 0 0
49.53304 74.950212 0 0
49.507843 74.871754 0 0
49.379557 74.720509 0 0
49.269381 74.555619 0 0
49.200866 74.509839 0 0
49.147563 74.446996 0 0
48.971168 74.356359 0 0
48.806273 74.24618 0 0
48.725451 74.230103 0 0
48.652159 74.192444 0 0
44.86207 73.109561 0 0
45.181143 72.977397 0 0
45.250608 72.735213 0 0
44.45 71.934605 0 0
44.435857 71.948747 0 0
44.256252 71.769142 0 0
44.270395 71.755 0 0
43.469787 70.954392 0 0
43.227603 71.023857 0 0
43.128754 71.300926 0 0
41.43248 69.32194 0 0
41.43248 64.601645 0 0
41.520044 64.514234 0 0
41.792849 63.857247 0 0
41.79347 63.145873 0 0
41.521812 62.488412 0 0
41.43248 62.398923 0 0
41.43248 60.518398 0 0
45.158229 58.3894 0 0
45.301525 58.264856 0 0
45.459381 58.159381 0 0
45.509934 58.083721 0 0
45.578616 58.024029 0 0
45.663344 57.854128 0 0
45.76882 57.696273 0 0
45.786571 57.607027 0 0
45.827182 57.525595 0 0
45.840442 57.336199 0 0
45.87748 57.15 0 0
45.87748 56.03748 0 0
46.355 56.03748 0 0
46.41945 56.02466 0 0
47.132616 56.02466 0 0
47.509773 55.868436 0 0
47.798437 55.579773 0 0
47.895693 55.344975 0 0
47.900163 55.349445 0 0
48.015417 55.23419 0 0
48.077071 55.4698 0 0
48.57748 55.645927 0 0
49.107199 55.617148 0 0
49.462929 55.4698 0 0
49.524583 55.234188 0 0
48.77 54.479605 0 0
48.755857 54.493747 0 0
48.576252 54.314142 0 0
48.590395 54.3 0 0
48.576252 54.285857 0 0
48.755857 54.106252 0 0
48.77 54.120395 0 0
49.524583 53.365812 0 0
49.462929 53.1302 0 0
48.96252 52.954073 0 0
48.432801 52.982852 0 0
48.077071 53.1302 0 0
48.015417 53.365809 0 0
47.900163 53.250555 0 0
47.895692 53.255025 0 0
47.798436 53.020227 0 0
47.509773 52.731563 0 0
47.132616 52.57534 0 0
46.724384 52.57534 0 0
46.355 52.57534 0 0
46.355 48.614909 0 0
46.355 47.91075 0 0
46.19625 47.752 0 0
44.831 47.752 0 0
44.831 48.96485 0 0
44.98975 49.1236 0 0
45.593691 49.1236 0 0
45.84631 49.1236 0 0
46.079699 49.026927 0 0
46.258327 48.848298 0 0
46.355 48.614909 0 0
46.355 52.57534 0 0
45.327384 52.57534 0 0
44.950227 52.731564 0 0
44.661563 53.020227 0 0
44.594339 53.18252 0 0
44.577 53.18252 0 0
44.577 48.96485 0 0
44.577 47.752 0 0
44.577 47.498 0 0
44.577 46.425924 0 0
44.577 46.28515 0 0
44.577 45.212 0 0
43.217783 45.212 0 0
43.096642 45.444026 0 0
43.099291 45.459791 0 0
43.353268 45.987036 0 0
43.52586 46.141241 0 0
43.328301 46.223073 0 0
43.149673 46.401702 0 0
43.053 46.635091 0 0
43.053 47.33925 0 0
43.21175 47.498 0 0
44.577 47.498 0 0
44.577 47.752 0 0
43.21175 47.752 0 0
43.053 47.91075 0 0
43.053 48.614909 0 0
43.149673 48.848298 0 0
43.328301 49.026927 0 0
43.56169 49.1236 0 0
43.814309 49.1236 0 0
44.41825 49.1236 0 0
44.577 48.96485 0 0
44.577 53.18252 0 0
44.45 53.18252 0 0
43.903727 53.29118 0 0
43.440619 53.600619 0 0
43.13118 54.063727 0 0
43.02252 54.61 0 0
43.02252 56.321601 0 0
39.296772 58.4506 0 0
39.153477 58.575141 0 0
38.995619 58.680619 0 0
38.945064 58.756278 0 0
38.876384 58.815971 0 0
38.791656 58.985869 0 0
38.68618 59.143727 0 0
38.668427 59.232974 0 0
38.627819 59.314405 0 0
38.614558 59.503795 0 0
38.57752 59.69 0 0
38.57752 62.398354 0 0
38.489956 62.485766 0 0
38.217151 63.142753 0 0
38.21653 63.854127 0 0
38.488188 64.511588 0 0
38.57752 64.601076 0 0
38.57752 69.85 0 0
38.621358 70.070393 0 0
38.648167 70.293515 0 0
38.675358 70.341867 0 0
38.68618 70.396273 0 0
38.811025 70.583117 0 0
38.921176 70.778992 0 0
39.857792 71.87171 0 0
39.650873 71.87153 0 0
38.993412 72.143188 0 0
38.489956 72.645766 0 0
38.217151 73.302753 0 0
38.21653 74.014127 0 0
38.488188 74.671588 0 0
38.990766 75.175044 0 0
39.647753 75.447849 0 0
39.678818 75.447876 0 0
40.839621 76.763452 0 0
40.87553 76.790834 0 0
40.900619 76.828381 0 0
41.846447 77.774209 0 0
41.704804 78.115324 0 0
41.703719 79.359218 0 0
42.178734 80.508842 0 0
43.057532 81.389175 0 0
44.17534 81.85333 0 0
44.17534 82.035616 0 0
44.17534 83.432616 0 0
44.331564 83.809773 0 0
44.620227 84.098437 0 0
44.855024 84.195693 0 0
44.850555 84.200163 0 0
44.965809 84.315417 0 0
44.7302 84.377071 0 0
44.554073 84.87748 0 0
44.582852 85.407199 0 0
44.7302 85.762929 0 0
44.789093 85.77834 0 0
43.48498 85.77834 0 0
43.670175 85.593468 0 0
44.147196 84.444676 0 0
44.148281 83.200782 0 0
43.673266 82.051158 0 0
42.794468 81.170825 0 0
41.645676 80.693804 0 0
41.473943 80.693654 0 0
40.722969 80.692998 0 0
40.795288 80.62068 0 0
40.682624 80.508016 0 0
41.063797 80.274989 0 0
41.473943 79.266953 0 0
41.467109 78.178693 0 0
41.063797 77.205011 0 0
40.682623 76.971982 0 0
40.503018 77.151587 0 0
38.914605 78.74 0 0
38.928747 78.754142 0 0
38.749142 78.933747 0 0
38.735 78.919605 0 0
38.720857 78.933747 0 0
38.541252 78.754142 0 0
38.555395 78.74 0 0
38.541252 78.725857 0 0
38.720857 78.546252 0 0
38.735 78.560395 0 0
40.503018 76.792377 0 0
40.269989 76.411203 0 0
39.261953 76.001057 0 0
38.173693 76.007891 0 0
37.200011 76.411203 0 0
36.966983 76.792375 0 0
36.85432 76.679712 0 0
36.77666 76.757372 0 0
36.77666 26.61666 0 0
43.754578 26.61666 0 0
39.630619 30.740619 0 0
39.32118 31.203727 0 0
39.21252 31.75 0 0
39.21252 38.481 0 0
39.32118 39.027273 0 0
39.630619 39.490381 0 0
41.154616 41.014377 0 0
41.154619 41.014381 0 0
41.432231 41.199875 0 0
41.617726 41.32382 0 0
41.617727 41.32382 0 0
42.164 41.43248 0 0
43.02583 41.43248 0 0
42.765681 41.82182 0 0
42.621832 42.545 0 0
42.765681 43.26818 0 0
43.17533 43.881262 0 0
43.470328 44.078374 0 0
43.353268 44.182964 0 0
43.099291 44.710209 0 0
43.096642 44.725974 0 0
43.217783 44.958 0 0
44.577 44.958 0 0
44.577 44.938 0 0
44.831 44.938 0 0
44.831 44.958 0 0
44.851 44.958 0 0
44.851 45.212 0 0
44.831 45.212 0 0
44.831 46.28515 0 0
44.831 46.425924 0 0
44.831 47.498 0 0
46.19625 47.498 0 0
46.355 47.33925 0 0
46.355 46.635091 0 0
46.258327 46.401702 0 0
46.079699 46.223073 0 0
45.882139 46.141241 0 0
46.054732 45.987036 0 0
46.306519 45.464336 0 0
46.4302 45.762929 0 0
46.665812 45.824583 0 0
47.394816 45.095578 0 0
47.574421 45.275183 0 0
46.845417 46.004188 0 0
46.907071 46.2398 0 0
47.40748 46.415927 0 0
47.937199 46.387148 0 0
48.292929 46.2398 0 0
48.343972 46.044734 0 0
51.65852 49.359282 0 0
51.65852 51.66527 0 0
51.517563 51.806227 0 0
51.36134 52.183384 0 0
51.36134 52.591616 0 0
51.36134 53.988616 0 0
51.517564 54.365773 0 0
51.806227 54.654437 0 0
52.041024 54.751693 0 0
52.036555 54.756163 0 0
52.151809 54.871417 0 0
51.9162 54.933071 0 0
51.740073 55.43348 0 0
51.768852 55.963199 0 0
51.9162 56.318929 0 0
52.151812 56.380583 0 0
52.906395 55.626 0 0
52.892252 55.611857 0 0
53.071857 55.432252 0 0
53.086 55.446395 0 0
53.100142 55.432252 0 0
53.279747 55.611857 0 0
53.265605 55.626 0 0
54.020188 56.380583 0 0
54.2558 56.318929 0 0
54.431927 55.81852 0 0
54.403148 55.288801 0 0
54.2558 54.933071 0 0
54.02019 54.871417 0 0
54.135445 54.756163 0 0
54.130974 54.751692 0 0
54.220039 54.714801 0 0
55.72252 56.217281 0 0
55.72252 57.62752 1 0
64.891262 30.02748 0 0
64.393412 30.233188 0 0
63.889956 30.735766 0 0
63.617151 31.392753 0 0
63.61653 32.104127 0 0
63.888188 32.761588 0 0
63.97752 32.851076 0 0
63.97752 34.903718 0 0
63.15869 35.722548 0 0
63.15869 32.794363 0 0
62.694094 31.669955 0 0
61.83457 30.80893 0 0
60.710974 30.342372 0 0
59.494363 30.34131 0 0
58.369955 30.805906 0 0
57.50893 31.66543 0 0
57.042372 32.789026 0 0
57.04131 34.005637 0 0
57.505906 35.130045 0 0
58.36543 35.99107 0 0
59.489026 36.457628 0 0
60.705637 36.45869 0 0
61.830045 35.994094 0 0
62.69107 35.13457 0 0
63.157628 34.010974 0 0
63.15869 32.794363 0 0
63.15869 35.722548 0 0
62.490619 36.390619 0 0
62.18118 36.853727 0 0
62.07252 37.4 0 0
62.07252 40.7 0 0
62.07252 40.9 0 0
62.07252 45.35 0 0
62.07252 47.527926 0 0
60.174709 49.425736 0 0
60.064381 49.260619 0 0
50.83048 40.026718 0 0
50.83048 38.566645 0 0
50.918044 38.479234 0 0
51.190849 37.822247 0 0
51.19147 37.110873 0 0
50.919812 36.453412 0 0
50.884835 36.418374 0 0
51.034937 36.268273 0 0
51.19116 35.891116 0 0
51.19116 35.482884 0 0
51.19116 33.958884 0 0
51.034936 33.581727 0 0
50.746273 33.293063 0 0
50.369116 33.13684 0 0
49.960884 33.13684 0 0
48.436884 33.13684 0 0
48.059727 33.293064 0 0
47.85527 33.49752 0 0
46.096152 33.49752 0 0
45.619588 33.179089 0 0
44.896408 33.03524 0 0
44.511592 33.03524 0 0
43.788412 33.179089 0 0
43.42748 33.420256 0 0
43.42748 32.891282 0 0
46.291282 30.02748 0 0
64.891262 30.02748 1 0
69.971262 30.02748 0 0
69.473412 30.233188 0 0
68.969956 30.735766 0 0
68.850033 31.024571 0 0
68.745608 31.128996 0 0
68.745608 30.769787 0 0
68.676143 30.527603 0 0
68.152698 30.340856 0 0
67.597632 30.368638 0 0
67.213857 30.527603 0 0
67.144392 30.769787 0 0
67.945 31.570395 0 0
68.745608 30.769787 0 0
68.745608 31.128996 0 0
68.124605 31.75 0 0
68.138747 31.764142 0 0
67.959142 31.943747 0 0
67.945 31.929605 0 0
67.144392 32.730213 0 0
67.213857 32.972397 0 0
67.737302 33.159144 0 0
67.826561 33.154676 0 0
66.83248 34.148758 0 0
66.83248 32.851645 0 0
66.920044 32.764234 0 0
67.039966 32.475428 0 0
67.765395 31.75 0 0
67.04011 31.024715 0 0
66.921812 30.738412 0 0
66.419234 30.234956 0 0
65.919576 30.02748 0 0
69.971262 30.02748 1 0
82.108747 74.309142 0 0
81.929142 74.488747 0 0
81.915 74.474605 0 0
81.900857 74.488747 0 0
81.721252 74.309142 0 0
81.735395 74.295 0 0
81.721252 74.280857 0 0
81.900857 74.101252 0 0
81.915 74.115395 0 0
81.929142 74.101252 0 0
82.108747 74.280857 0 0
82.094605 74.295 0 0
82.108747 74.309142 1 0
102.71252 65.640849 0 0
102.579561 65.58564 0 0
101.893449 65.585041 0 0
101.259335 65.847052 0 0
100.964911 66.140961 0 0
100.673217 65.848757 0 0
100.039561 65.58564 0 0
99.353449 65.585041 0 0
98.719335 65.847052 0 0
98.424911 66.140961 0 0
98.133217 65.848757 0 0
97.499561 65.58564 0 0
96.813449 65.585041 0 0
96.179335 65.847052 0 0
95.884911 66.140961 0 0
95.593217 65.848757 0 0
94.959561 65.58564 0 0
94.273449 65.585041 0 0
93.639335 65.847052 0 0
93.344911 66.140961 0 0
93.053217 65.848757 0 0
92.419561 65.58564 0 0
91.733449 65.585041 0 0
91.099335 65.847052 0 0
90.804911 66.140961 0 0
90.513217 65.848757 0 0
89.879561 65.58564 0 0
89.193449 65.585041 0 0
88.559335 65.847052 0 0
88.073757 66.331783 0 0
87.975828 66.567621 0 0
87.929188 66.555417 0 0
87.749583 66.735022 0 0
87.749583 66.375812 0 0
87.687929 66.1402 0 0
87.18752 65.964073 0 0
86.657801 65.992852 0 0
86.302071 66.1402 0 0
86.240417 66.375812 0 0
86.995 67.130395 0 0
87.749583 66.375812 0 0
87.749583 66.735022 0 0
87.174605 67.31 0 0
87.929188 68.064583 0 0
87.975676 68.052418 0 0
88.072052 68.285665 0 0
88.10752 68.321194 0 0
88.10752 68.58 0 0
88.134804 68.717167 0 0
88.134658 68.857023 0 0
88.188606 68.987653 0 0
88.21618 69.126273 0 0
88.293881 69.24256 0 0
88.347265 69.371823 0 0
89.37752 70.917205 0 0
89.37752 76.710876 0 0
89.193816 76.634596 0 0
88.608751 76.634085 0 0
88.068026 76.857508 0 0
87.749583 77.175395 0 0
87.749583 68.244188 0 0
86.995 67.489605 0 0
86.240417 68.244188 0 0
86.302071 68.4798 0 0
86.80248 68.655927 0 0
87.332199 68.627148 0 0
87.687929 68.4798 0 0
87.749583 68.244188 0 0
87.749583 77.175395 0 0
87.705927 77.218975 0 0
87.705927 71.94752 0 0
87.677148 71.417801 0 0
87.5298 71.062071 0 0
87.294188 71.000417 0 0
87.114583 71.180022 0 0
87.114583 70.820812 0 0
87.052929 70.5852 0 0
86.55252 70.409073 0 0
86.022801 70.437852 0 0
85.667071 70.5852 0 0
85.605417 70.820812 0 0
86.36 71.575395 0 0
87.114583 70.820812 0 0
87.114583 71.180022 0 0
86.539605 71.755 0 0
87.294188 72.509583 0 0
87.5298 72.447929 0 0
87.705927 71.94752 0 0
87.705927 77.218975 0 0
87.653962 77.27085 0 0
87.429596 77.811184 0 0
87.429085 78.396249 0 0
87.47252 78.501369 0 0
87.47252 79.375 0 0
87.47252 79.556766 0 0
87.241812 78.998412 0 0
87.114583 78.87096 0 0
87.114583 72.689188 0 0
86.36 71.934605 0 0
85.605417 72.689188 0 0
85.667071 72.9248 0 0
86.16748 73.100927 0 0
86.697199 73.072148 0 0
87.052929 72.9248 0 0
87.114583 72.689188 0 0
87.114583 78.87096 0 0
86.739234 78.494956 0 0
86.082247 78.222151 0 0
85.370873 78.22153 0 0
84.713412 78.493188 0 0
84.209956 78.995766 0 0
84.090033 79.284571 0 0
83.985608 79.388996 0 0
83.985608 79.029787 0 0
83.916143 78.787603 0 0
83.392698 78.600856 0 0
82.837632 78.628638 0 0
82.453857 78.787603 0 0
82.384392 79.029787 0 0
83.185 79.830395 0 0
83.985608 79.029787 0 0
83.985608 79.388996 0 0
83.364605 80.01 0 0
84.089889 80.735284 0 0
84.208188 81.021588 0 0
84.29752 81.111076 0 0
84.29752 81.75752 0 0
83.985608 81.75752 0 0
83.985608 80.990213 0 0
83.185 80.189605 0 0
83.005395 80.36921 0 0
83.005395 80.01 0 0
82.204787 79.209392 0 0
81.962603 79.278857 0 0
81.918547 79.402344 0 0
81.867397 79.278857 0 0
81.625213 79.209392 0 0
81.445608 79.388997 0 0
81.445608 79.029787 0 0
81.376143 78.787603 0 0
80.852698 78.600856 0 0
80.297632 78.628638 0 0
79.913857 78.787603 0 0
79.844392 79.029787 0 0
80.645 79.830395 0 0
81.445608 79.029787 0 0
81.445608 79.388997 0 0
80.824605 80.01 0 0
81.625213 80.810608 0 0
81.867397 80.741143 0 0
81.911452 80.617655 0 0
81.962603 80.741143 0 0
82.204787 80.810608 0 0
83.005395 80.01 0 0
83.005395 80.36921 0 0
82.384392 80.990213 0 0
82.453857 81.232397 0 0
82.977302 81.419144 0 0
83.532368 81.391362 0 0
83.916143 81.232397 0 0
83.985608 80.990213 0 0
83.985608 81.75752 0 0
81.445608 81.75752 0 0
81.445608 80.990213 0 0
80.645 80.189605 0 0
79.844392 80.990213 0 0
79.913857 81.232397 0 0
80.437302 81.419144 0 0
80.992368 81.391362 0 0
81.376143 81.232397 0 0
81.445608 80.990213 0 0
81.445608 81.75752 0 0
79.53248 81.75752 0 0
79.53248 81.111645 0 0
79.620044 81.024234 0 0
79.739966 80.735428 0 0
80.465395 80.01 0 0
79.74011 79.284715 0 0
79.621812 78.998412 0 0
79.292442 78.668467 0 0
79.211245 78.26248 0 0
80.49427 78.26248 0 0
80.635227 78.403437 0 0
81.012384 78.55966 0 0
81.420616 78.55966 0 0
82.817616 78.55966 0 0
83.194773 78.403436 0 0
83.483437 78.114773 0 0
83.63966 77.737616 0 0
83.63966 77.329384 0 0
83.63966 75.932384 0 0
83.483436 75.555227 0 0
83.194773 75.266563 0 0
82.959975 75.169306 0 0
82.964445 75.164837 0 0
82.84919 75.049582 0 0
83.0848 74.987929 0 0
83.260927 74.48752 0 0
83.232148 73.957801 0 0
83.0848 73.602071 0 0
82.921258 73.559276 0 0
83.335424 73.42122 0 0
83.475439 73.47936 0 0
84.161551 73.479959 0 0
84.795665 73.217948 0 0
85.281243 72.733217 0 0
85.379171 72.497378 0 0
85.425812 72.509583 0 0
86.180395 71.755 0 0
85.425812 71.000417 0 0
85.379323 71.012581 0 0
85.282948 70.779335 0 0
84.798217 70.293757 0 0
84.164561 70.03064 0 0
83.8665 70.030379 0 0
84.796893 69.034817 0 0
85.430665 68.772948 0 0
85.916243 68.288217 0 0
86.014171 68.052378 0 0
86.060812 68.064583 0 0
86.815395 67.31 0 0
86.060812 66.555417 0 0
86.014323 66.567581 0 0
85.917948 66.334335 0 0
85.433217 65.848757 0 0
85.209583 65.755896 0 0
85.209583 60.624188 0 0
84.455 59.869605 0 0
83.700417 60.624188 0 0
83.762071 60.8598 0 0
84.26248 61.035927 0 0
84.792199 61.007148 0 0
85.147929 60.8598 0 0
85.209583 60.624188 0 0
85.209583 65.755896 0 0
84.799561 65.58564 0 0
84.113449 65.585041 0 0
83.479335 65.847052 0 0
83.34248 65.983668 0 0
83.34248 63.897188 0 0
83.385404 63.793816 0 0
83.385915 63.208751 0 0
83.162492 62.668026 0 0
82.74915 62.253962 0 0
82.208816 62.029596 0 0
81.623751 62.029085 0 0
81.083026 62.252508 0 0
80.668962 62.66585 0 0
80.444596 63.206184 0 0
80.444085 63.791249 0 0
80.48752 63.896369 0 0
80.48752 65.983294 0 0
80.353217 65.848757 0 0
79.719561 65.58564 0 0
79.033449 65.585041 0 0
78.399335 65.847052 0 0
78.104911 66.140961 0 0
77.813217 65.848757 0 0
77.179561 65.58564 0 0
76.493449 65.585041 0 0
75.859335 65.847052 0 0
75.564911 66.140961 0 0
75.273217 65.848757 0 0
74.639561 65.58564 0 0
73.953449 65.585041 0 0
73.319335 65.847052 0 0
73.024911 66.140961 0 0
72.733217 65.848757 0 0
72.099561 65.58564 0 0
71.413449 65.585041 0 0
70.779335 65.847052 0 0
70.484911 66.140961 0 0
70.193217 65.848757 0 0
69.559561 65.58564 0 0
68.873449 65.585041 0 0
68.239335 65.847052 0 0
68.203805 65.88252 0 0
68.151282 65.88252 0 0
67.980122 65.71136 0 0
67.980122 61.033523 0 0
68.153744 61.068059 0 0
68.236783 61.151243 0 0
68.870439 61.41436 0 0
69.556551 61.414959 0 0
70.190665 61.152948 0 0
70.485088 60.859038 0 0
70.776783 61.151243 0 0
71.410439 61.41436 0 0
72.096551 61.414959 0 0
72.730665 61.152948 0 0
73.025088 60.859038 0 0
73.316783 61.151243 0 0
73.950439 61.41436 0 0
74.636551 61.414959 0 0
75.270665 61.152948 0 0
75.565088 60.859038 0 0
75.856783 61.151243 0 0
76.490439 61.41436 0 0
77.176551 61.414959 0 0
77.810665 61.152948 0 0
78.105088 60.859038 0 0
78.396783 61.151243 0 0
79.030439 61.41436 0 0
79.716551 61.414959 0 0
80.350665 61.152948 0 0
80.645088 60.859038 0 0
80.936783 61.151243 0 0
81.570439 61.41436 0 0
82.256551 61.414959 0 0
82.890665 61.152948 0 0
83.376243 60.668217 0 0
83.474171 60.432378 0 0
83.520812 60.444583 0 0
84.275395 59.69 0 0
83.520812 58.935417 0 0
83.474323 58.947581 0 0
83.377948 58.714335 0 0
83.34248 58.678805 0 0
83.34248 57.544865 0 0
83.387003 57.50042 0 0
83.652058 56.862098 0 0
83.652661 56.170934 0 0
83.388721 55.53215 0 0
82.90042 55.042997 0 0
82.262098 54.777942 0 0
81.570934 54.777339 0 0
80.93215 55.041279 0 0
80.885828 55.08752 0 0
80.80248 55.08752 0 0
80.80248 53.571647 0 0
81.682683 50.931037 0 0
82.106243 50.508217 0 0
82.204171 50.272378 0 0
82.250812 50.284583 0 0
83.005395 49.53 0 0
82.250812 48.775417 0 0
82.204323 48.787581 0 0
82.107948 48.554335 0 0
81.814038 48.259911 0 0
82.106243 47.968217 0 0
82.204171 47.732378 0 0
82.250812 47.744583 0 0
83.005395 46.99 0 0
82.250812 46.235417 0 0
82.204323 46.247581 0 0
82.107948 46.014335 0 0
81.623217 45.528757 0 0
80.989561 45.26564 0 0
80.303449 45.265041 0 0
79.669335 45.527052 0 0
79.183757 46.011783 0 0
79.047811 46.339175 0 0
77.948177 47.072265 0 0
77.883766 47.13654 0 0
77.804712 47.181605 0 0
77.68831 47.331587 0 0
77.553924 47.465693 0 0
77.519012 47.549727 0 0
77.463223 47.621612 0 0
76.12748 50.293098 0 0
76.12748 50.2 0 0
76.12748 43.191282 0 0
76.33185 42.986911 0 0
76.33153 43.354127 0 0
76.603188 44.011588 0 0
77.105766 44.515044 0 0
77.762753 44.787849 0 0
78.474127 44.78847 0 0
79.131588 44.516812 0 0
79.221076 44.42748 0 0
79.4 44.42748 0 0
79.946273 44.31882 0 0
80.409381 44.009381 0 0
83.609381 40.809381 0 0
85.291281 39.12748 0 0
88 39.12748 0 0
88.546273 39.01882 0 0
89.009381 38.709381 0 0
90.247665 37.471096 0 0
90.094073 37.90748 0 0
90.122852 38.437199 0 0
90.2702 38.792929 0 0
90.505812 38.854583 0 0
91.260395 38.1 0 0
91.246252 38.085857 0 0
91.425857 37.906252 0 0
91.44 37.920395 0 0
92.194583 37.165812 0 0
92.132929 36.9302 0 0
91.63252 36.754073 0 0
91.102801 36.782852 0 0
90.817899 36.900861 0 0
92.391281 35.32748 0 0
94.308718 35.32748 0 0
95.09252 36.111282 0 0
95.09252 37.088078 0 0
95.058757 37.121783 0 0
94.79564 37.755439 0 0
94.795041 38.441551 0 0
95.057052 39.075665 0 0
95.09252 39.111194 0 0
95.09252 44.708078 0 0
95.058757 44.741783 0 0
94.79564 45.375439 0 0
94.795596 45.425641 0 0
94.375619 45.845619 0 0
94.06618 46.308727 0 0
93.95752 46.855 0 0
93.95752 48.265282 0 0
93.552698 48.120856 0 0
92.997632 48.148638 0 0
92.785927 48.236329 0 0
92.785927 45.91252 0 0
92.785927 38.29252 0 0
92.757148 37.762801 0 0
92.6098 37.407071 0 0
92.374188 37.345417 0 0
91.619605 38.1 0 0
92.374188 38.854583 0 0
92.6098 38.792929 0 0
92.785927 38.29252 0 0
92.785927 45.91252 0 0
92.757148 45.382801 0 0
92.6098 45.027071 0 0
92.374188 44.965417 0 0
92.194583 45.145022 0 0
92.194583 44.785812 0 0
92.194583 39.034188 0 0
91.44 38.279605 0 0
90.685417 39.034188 0 0
90.747071 39.2698 0 0
91.24748 39.445927 0 0
91.777199 39.417148 0 0
92.132929 39.2698 0 0
92.194583 39.034188 0 0
92.194583 44.785812 0 0
92.132929 44.5502 0 0
91.63252 44.374073 0 0
91.102801 44.402852 0 0
90.747071 44.5502 0 0
90.685417 44.785812 0 0
91.44 45.540395 0 0
92.194583 44.785812 0 0
92.194583 45.145022 0 0
91.619605 45.72 0 0
92.374188 46.474583 0 0
92.6098 46.412929 0 0
92.785927 45.91252 0 0
92.785927 48.236329 0 0
92.613857 48.307603 0 0
92.544392 48.549787 0 0
93.345 49.350395 0 0
93.359142 49.336252 0 0
93.538747 49.515857 0 0
93.524605 49.53 0 0
93.538747 49.544142 0 0
93.359142 49.723747 0 0
93.345 49.709605 0 0
92.619715 50.434889 0 0
92.333412 50.553188 0 0
92.07499 50.811159 0 0
92.06384 50.79999 0 0
92.320044 50.544234 0 0
92.439966 50.255428 0 0
93.165395 49.53 0 0
92.44011 48.804715 0 0
92.321812 48.518412 0 0
92.23248 48.428923 0 0
92.23248 48.305005 0 0
92.23248 48.305 0 0
92.232481 48.305 0 0
92.12382 47.758727 0 0
91.814381 47.295619 0 0
91.567312 47.04855 0 0
91.777199 47.037148 0 0
92.132929 46.8898 0 0
92.194583 46.654188 0 0
91.44 45.899605 0 0
91.425857 45.913747 0 0
91.246252 45.734142 0 0
91.260395 45.72 0 0
90.505812 44.965417 0 0
90.2702 45.027071 0 0
90.094073 45.52748 0 0
90.09682 45.578058 0 0
89.82748 45.308718 0 0
89.82748 45.297188 0 0
89.870404 45.193816 0 0
89.870915 44.608751 0 0
89.674844 44.134223 0 0
89.795044 44.014234 0 0
90.067849 43.357247 0 0
90.06847 42.645873 0 0
89.796812 41.988412 0 0
89.294234 41.484956 0 0
88.637247 41.212151 0 0
87.925873 41.21153 0 0
87.268412 41.483188 0 0
87.178923 41.57252 0 0
86.8 41.57252 0 0
86.253727 41.68118 0 0
85.790619 41.990619 0 0
84.080619 43.700619 0 0
83.77118 44.163727 0 0
83.66252 44.71 0 0
83.66252 45.3 0 0
83.66252 45.744383 0 0
83.37752 45.644073 0 0
82.847801 45.672852 0 0
82.492071 45.8202 0 0
82.430417 46.055812 0 0
83.185 46.810395 0 0
83.199142 46.796252 0 0
83.378747 46.975857 0 0
83.364605 46.99 0 0
83.378747 47.004142 0 0
83.199142 47.183747 0 0
83.185 47.169605 0 0
82.430417 47.924188 0 0
82.492071 48.1598 0 0
82.753628 48.251859 0 0
82.492071 48.3602 0 0
82.430417 48.595812 0 0
83.185 49.350395 0 0
83.199142 49.336252 0 0
83.378747 49.515857 0 0
83.364605 49.53 0 0
83.378747 49.544142 0 0
83.199142 49.723747 0 0
83.185 49.709605 0 0
82.430417 50.464188 0 0
82.492071 50.6998 0 0
82.99248 50.875927 0 0
83.522199 50.847148 0 0
83.66252 50.789025 0 0
83.66252 54.61 0 0
83.697438 54.785548 0 0
83.70718 54.964274 0 0
83.751282 55.05624 0 0
83.77118 55.156273 0 0
83.870621 55.305097 0 0
83.948016 55.466488 0 0
85.56752 57.625826 0 0
85.56752 58.678078 0 0
85.533757 58.711783 0 0
85.435828 58.947621 0 0
85.389188 58.935417 0 0
85.209583 59.115022 0 0
85.209583 58.755812 0 0
85.147929 58.5202 0 0
84.64752 58.344073 0 0
84.117801 58.372852 0 0
83.762071 58.5202 0 0
83.700417 58.755812 0 0
84.455 59.510395 0 0
85.209583 58.755812 0 0
85.209583 59.115022 0 0
84.634605 59.69 0 0
85.389188 60.444583 0 0
85.435676 60.432418 0 0
85.532052 60.665665 0 0
85.56752 60.701194 0 0
85.56752 62.23 0 0
85.56752 63.102811 0 0
85.524596 63.206184 0 0
85.524085 63.791249 0 0
85.747508 64.331974 0 0
86.16085 64.746038 0 0
86.701184 64.970404 0 0
87.286249 64.970915 0 0
87.826974 64.747492 0 0
88.241038 64.33415 0 0
88.465404 63.793816 0 0
88.465915 63.208751 0 0
88.42248 63.10363 0 0
88.42248 62.23 0 0
88.42248 61.016705 0 0
88.556783 61.151243 0 0
89.190439 61.41436 0 0
89.876551 61.414959 0 0
90.510665 61.152948 0 0
90.805088 60.859038 0 0
91.096783 61.151243 0 0
91.730439 61.41436 0 0
92.416551 61.414959 0 0
93.050665 61.152948 0 0
93.345088 60.859038 0 0
93.636783 61.151243 0 0
94.270439 61.41436 0 0
94.956551 61.414959 0 0
95.590665 61.152948 0 0
95.885088 60.859038 0 0
96.176783 61.151243 0 0
96.810439 61.41436 0 0
97.496551 61.414959 0 0
98.130665 61.152948 0 0
98.425088 60.859038 0 0
98.716783 61.151243 0 0
99.350439 61.41436 0 0
100.036551 61.414959 0 0
100.670665 61.152948 0 0
100.760279 61.063489 0 0
100.955227 61.258437 0 0
101.332384 61.41466 0 0
101.740616 61.41466 0 0
102.71252 61.41466 0 0
102.71252 65.640849 1 0
104.303926 83.97748 0 0
103.842372 85.089026 0 0
103.84177 85.77834 0 0
47.010906 85.77834 0 0
47.0698 85.762929 0 0
47.245927 85.26252 0 0
47.217148 84.732801 0 0
47.0698 84.377071 0 0
46.83419 84.315417 0 0
46.949445 84.200163 0 0
46.944974 84.195692 0 0
47.179773 84.098436 0 0
47.183811 84.094397 0 0
47.250619 84.194381 0 0
47.713727 84.50382 0 0
48.26 84.61248 0 0
85.725 84.61248 0 0
86.271273 84.50382 0 0
86.734381 84.194381 0 0
87.04382 83.731273 0 0
87.15248 83.185 0 0
87.15248 81.111645 0 0
87.240044 81.024234 0 0
87.47252 80.464369 0 0
87.47252 82.55 0 0
87.58118 83.096273 0 0
87.890619 83.559381 0 0
88.353727 83.86882 0 0
88.9 83.97748 0 0
93.345 83.97748 0 0
104.303926 83.97748 1 0
$endPOLYSCORNERS
$endCZONE_OUTLINE
$EndBOARD
