EESchema Schematic File Version 2
LIBS:power
LIBS:device
LIBS:transistors
LIBS:conn
LIBS:linear
LIBS:regul
LIBS:74xx
LIBS:cmos4000
LIBS:adc-dac
LIBS:memory
LIBS:xilinx
LIBS:special
LIBS:microcontrollers
LIBS:dsp
LIBS:microchip
LIBS:analog_switches
LIBS:motorola
LIBS:texas
LIBS:intel
LIBS:audio
LIBS:interface
LIBS:digital-audio
LIBS:philips
LIBS:display
LIBS:cypress
LIBS:siliconi
LIBS:opto
LIBS:atmel
LIBS:contrib
LIBS:valves
LIBS:pistuinoS1.0-cache
EELAYER 24 0
EELAYER END
$Descr A4 11693 8268
encoding utf-8
Sheet 1 1
Title "Serialino"
Date "10 oct 2011"
Rev "1.0"
Comp "TrustFm (www.trustfm.net)"
Comment1 "Karidis Anastasios"
Comment2 "for www.hw2sw.com"
Comment3 "HW2SW.COM"
Comment4 ""
$EndDescr
Wire Wire Line
	4300 1350 2400 1350
Wire Wire Line
	1600 1350 1450 1350
Connection ~ 2350 3150
Wire Wire Line
	2650 3150 2150 3150
Wire Wire Line
	1350 3150 1000 3150
Connection ~ 8250 3450
Wire Wire Line
	8100 3500 8100 3450
Wire Wire Line
	8100 3450 8500 3450
Wire Wire Line
	8500 3650 8250 3650
Wire Wire Line
	8500 3250 8250 3250
Wire Wire Line
	8500 2950 8300 2950
Wire Wire Line
	8500 2750 8300 2750
Wire Wire Line
	8500 2550 8300 2550
Wire Wire Line
	8500 2450 8300 2450
Wire Wire Line
	8500 1950 8300 1950
Wire Wire Line
	8500 1750 8300 1750
Wire Wire Line
	8500 1550 8300 1550
Wire Wire Line
	8500 1250 8300 1250
Wire Wire Line
	8500 1150 8300 1150
Wire Wire Line
	8500 950  8300 950 
Wire Wire Line
	8500 750  8300 750 
Wire Wire Line
	9400 4150 9400 4050
Wire Wire Line
	8450 3950 8250 3950
Wire Wire Line
	9250 3950 9400 3950
Wire Wire Line
	8450 3850 8250 3850
Wire Wire Line
	1350 6000 1600 6000
Wire Wire Line
	1450 5900 1350 5900
Wire Wire Line
	6200 1650 6250 1650
Wire Wire Line
	6200 1450 6250 1450
Wire Wire Line
	6200 1850 6250 1850
Wire Wire Line
	6200 2300 6250 2300
Wire Wire Line
	6200 2500 6250 2500
Wire Wire Line
	6200 2700 6250 2700
Wire Wire Line
	6200 3050 6250 3050
Wire Wire Line
	6200 3250 6250 3250
Wire Wire Line
	6200 3450 6250 3450
Wire Wire Line
	7650 3250 7650 3050
Wire Wire Line
	7650 3050 7500 3050
Wire Wire Line
	6200 3650 6250 3650
Connection ~ 1500 1350
Connection ~ 6700 2350
Wire Wire Line
	6900 2350 6500 2350
Wire Wire Line
	7300 2350 7400 2350
Wire Wire Line
	4150 3650 4150 3550
Wire Wire Line
	4150 3550 4300 3550
Wire Wire Line
	7000 2800 7700 2800
Wire Wire Line
	7700 2800 7700 1050
Wire Wire Line
	7700 1050 4150 1050
Wire Wire Line
	7600 2050 7600 2000
Connection ~ 7400 2000
Wire Wire Line
	7600 2000 7400 2000
Wire Wire Line
	6200 2050 6500 2050
Wire Wire Line
	6500 2050 6500 2350
Wire Wire Line
	3800 2400 3800 2600
Connection ~ 4150 1350
Wire Wire Line
	4300 1650 4150 1650
Wire Wire Line
	3150 2500 3150 2600
Connection ~ 2550 1350
Wire Wire Line
	3150 1350 3150 1500
Wire Wire Line
	1500 1350 1500 1550
Wire Wire Line
	2550 1950 2550 2200
Wire Wire Line
	1500 1950 1500 2200
Wire Wire Line
	2000 1650 2000 2200
Wire Wire Line
	2550 1350 2550 1550
Wire Wire Line
	3150 1900 3150 2000
Connection ~ 3150 1350
Wire Wire Line
	3800 1350 3800 2000
Connection ~ 3800 1350
Wire Wire Line
	6500 1950 6500 1750
Wire Wire Line
	6500 1950 6200 1950
Wire Wire Line
	6500 1750 6900 1750
Connection ~ 6700 1750
Wire Wire Line
	7300 1750 7400 1750
Wire Wire Line
	7400 1750 7400 2350
Wire Wire Line
	6500 2800 6200 2800
Wire Wire Line
	4150 1650 4150 1050
Wire Wire Line
	4300 1950 4150 1950
Connection ~ 4150 1650
Wire Wire Line
	4300 3650 4100 3650
Wire Wire Line
	4100 3650 4100 3750
Connection ~ 4150 3650
Wire Wire Line
	850  1150 850  1050
Wire Wire Line
	850  1050 600  1050
Wire Wire Line
	600  1050 600  1200
Wire Wire Line
	6450 2800 6450 3050
Connection ~ 6450 2800
Wire Wire Line
	6450 3050 6500 3050
Wire Wire Line
	6200 3550 6250 3550
Wire Wire Line
	6200 3350 6250 3350
Wire Wire Line
	6200 3150 6250 3150
Wire Wire Line
	6200 2950 6250 2950
Wire Wire Line
	6200 2600 6250 2600
Wire Wire Line
	6200 2400 6250 2400
Wire Wire Line
	6200 2200 6250 2200
Wire Wire Line
	6200 1350 6250 1350
Wire Wire Line
	6200 1550 6250 1550
Wire Wire Line
	6200 1750 6250 1750
Wire Wire Line
	2350 6600 2350 6750
Wire Wire Line
	1350 6100 1600 6100
Wire Wire Line
	9250 3850 9400 3850
Wire Wire Line
	9400 4050 9250 4050
Wire Wire Line
	8450 4050 8250 4050
Wire Wire Line
	8500 650  8300 650 
Wire Wire Line
	8500 850  8300 850 
Wire Wire Line
	8500 1050 8300 1050
Wire Wire Line
	8500 1350 8300 1350
Wire Wire Line
	8500 1650 8300 1650
Wire Wire Line
	8500 1850 8300 1850
Wire Wire Line
	8500 2050 8300 2050
Wire Wire Line
	8500 2250 8300 2250
Wire Wire Line
	8500 2650 8300 2650
Wire Wire Line
	8500 2850 8300 2850
Wire Wire Line
	8500 3150 8250 3150
Wire Wire Line
	8500 3350 8250 3350
Wire Wire Line
	8500 3550 8250 3550
Wire Wire Line
	8250 3550 8250 3450
Wire Wire Line
	8500 2150 8050 2150
Wire Wire Line
	8050 2150 8050 2200
Wire Wire Line
	1750 3450 1750 3650
Wire Wire Line
	2350 3550 1750 3550
Connection ~ 1750 3550
Wire Wire Line
	1000 1350 1050 1350
$Comp
L DIODE D1
U 1 1 4E925B2C
P 1250 1350
F 0 "D1" H 1250 1450 40  0000 C CNN
F 1 "DIODE" H 1250 1250 40  0000 C CNN
F 2 "" H 1250 1350 60  0001 C CNN
F 3 "" H 1250 1350 60  0001 C CNN
	1    1250 1350
	1    0    0    -1  
$EndComp
Text Label 2650 3150 0    60   ~ 0
V33
Text Label 8250 3250 0    60   ~ 0
V33
$Comp
L C C10
U 1 1 4E9203B2
P 2350 3350
F 0 "C10" H 2400 3450 50  0000 L CNN
F 1 "0.1u" H 2400 3250 50  0000 L CNN
F 2 "" H 2350 3350 60  0001 C CNN
F 3 "" H 2350 3350 60  0001 C CNN
	1    2350 3350
	1    0    0    -1  
$EndComp
$Comp
L GND #PWR6
U 1 1 4E92037F
P 1750 3650
F 0 "#PWR6" H 1750 3650 30  0001 C CNN
F 1 "GND" H 1750 3580 30  0001 C CNN
F 2 "" H 1750 3650 60  0001 C CNN
F 3 "" H 1750 3650 60  0001 C CNN
	1    1750 3650
	1    0    0    -1  
$EndComp
Text Label 1000 3150 0    60   ~ 0
VCC
$Comp
L 78L05 U3
U 1 1 4E92033B
P 1750 3200
F 0 "U3" H 1850 2950 60  0000 C CNN
F 1 "78L33" H 1750 3400 60  0000 C CNN
F 2 "" H 1750 3200 60  0001 C CNN
F 3 "" H 1750 3200 60  0001 C CNN
	1    1750 3200
	1    0    0    -1  
$EndComp
Text Label 8300 2250 0    60   ~ 0
AREF
$Comp
L GND #PWR14
U 1 1 4E91105E
P 8050 2200
F 0 "#PWR14" H 8050 2200 30  0001 C CNN
F 1 "GND" H 8050 2130 30  0001 C CNN
F 2 "" H 8050 2200 60  0001 C CNN
F 3 "" H 8050 2200 60  0001 C CNN
	1    8050 2200
	1    0    0    -1  
$EndComp
Text Label 8300 2050 0    60   ~ 0
pd13
Text Label 8300 1950 0    60   ~ 0
pd12
Text Label 8300 1850 0    60   ~ 0
pd11
Text Label 8300 1750 0    60   ~ 0
pd10
Text Label 8300 1650 0    60   ~ 0
pd9
Text Label 8300 1550 0    60   ~ 0
pd8
Text Label 8300 1350 0    60   ~ 0
pd7
Text Label 8300 1250 0    60   ~ 0
pd6
Text Label 8300 1150 0    60   ~ 0
pd5
Text Label 8300 1050 0    60   ~ 0
pd4
Text Label 8300 950  0    60   ~ 0
pd3
Text Label 8300 850  0    60   ~ 0
pd2
Text Label 8300 750  0    60   ~ 0
pd1
Text Label 8300 650  0    60   ~ 0
pd0
Text Label 8300 2950 0    60   ~ 0
pc5
Text Label 8300 2850 0    60   ~ 0
pc4
Text Label 8300 2750 0    60   ~ 0
pc3
Text Label 8300 2650 0    60   ~ 0
pc2
Text Label 8300 2550 0    60   ~ 0
pc1
Text Label 8300 2450 0    60   ~ 0
pc0
Text Label 8250 3650 0    60   ~ 0
VIN
$Comp
L GND #PWR15
U 1 1 4E910F3A
P 8100 3500
F 0 "#PWR15" H 8100 3500 30  0001 C CNN
F 1 "GND" H 8100 3430 30  0001 C CNN
F 2 "" H 8100 3500 60  0001 C CNN
F 3 "" H 8100 3500 60  0001 C CNN
	1    8100 3500
	1    0    0    -1  
$EndComp
Text Label 8250 3350 0    60   ~ 0
VCC
Text Label 8250 3150 0    60   ~ 0
RESET
$Comp
L GND #PWR16
U 1 1 4E910D86
P 9400 4150
F 0 "#PWR16" H 9400 4150 30  0001 C CNN
F 1 "GND" H 9400 4080 30  0001 C CNN
F 2 "" H 9400 4150 60  0001 C CNN
F 3 "" H 9400 4150 60  0001 C CNN
	1    9400 4150
	1    0    0    -1  
$EndComp
Text Label 8250 4050 0    60   ~ 0
RESET
Text Label 8250 3950 0    60   ~ 0
pd13
Text Label 9400 3950 0    60   ~ 0
pd11
Text Label 9400 3850 0    60   ~ 0
VCC
Text Label 8250 3850 0    60   ~ 0
pd12
$Comp
L CONN_8 DIGITAL2
U 1 1 4E910B1B
P 8850 1900
F 0 "DIGITAL2" V 8800 1900 60  0000 C CNN
F 1 "CONN_8" V 8900 1900 60  0000 C CNN
F 2 "" H 8850 1900 60  0001 C CNN
F 3 "" H 8850 1900 60  0001 C CNN
	1    8850 1900
	1    0    0    -1  
$EndComp
$Comp
L CONN_8 DIGITAL1
U 1 1 4E910B12
P 8850 1000
F 0 "DIGITAL1" V 8800 1000 60  0000 C CNN
F 1 "CONN_8" V 8900 1000 60  0000 C CNN
F 2 "" H 8850 1000 60  0001 C CNN
F 3 "" H 8850 1000 60  0001 C CNN
	1    8850 1000
	1    0    0    -1  
$EndComp
$Comp
L CONN_6 POWER1
U 1 1 4E910B01
P 8850 3400
F 0 "POWER1" V 8800 3400 60  0000 C CNN
F 1 "CONN_6" V 8900 3400 60  0000 C CNN
F 2 "" H 8850 3400 60  0001 C CNN
F 3 "" H 8850 3400 60  0001 C CNN
	1    8850 3400
	1    0    0    -1  
$EndComp
$Comp
L CONN_3X2 ICSP1
U 1 1 4E910AF5
P 8850 4000
F 0 "ICSP1" H 8850 4250 50  0000 C CNN
F 1 "CONN_3X2" V 8850 4050 40  0000 C CNN
F 2 "" H 8850 4000 60  0001 C CNN
F 3 "" H 8850 4000 60  0001 C CNN
	1    8850 4000
	1    0    0    -1  
$EndComp
$Comp
L CONN_6 ANALOG1
U 1 1 4E910AE2
P 8850 2700
F 0 "ANALOG1" V 8800 2700 60  0000 C CNN
F 1 "CONN_6" V 8900 2700 60  0000 C CNN
F 2 "" H 8850 2700 60  0001 C CNN
F 3 "" H 8850 2700 60  0001 C CNN
	1    8850 2700
	1    0    0    -1  
$EndComp
Text Label 1600 6100 2    60   ~ 0
pd1
Text Label 1600 6000 2    60   ~ 0
pd0
$Comp
L GND #PWR2
U 1 1 4E9105A0
P 1350 5500
F 0 "#PWR2" H 1350 5500 30  0001 C CNN
F 1 "GND" H 1350 5430 30  0001 C CNN
F 2 "" H 1350 5500 60  0001 C CNN
F 3 "" H 1350 5500 60  0001 C CNN
	1    1350 5500
	-1   0    0    1   
$EndComp
Text Label 2350 6750 0    60   ~ 0
RESET
$Comp
L C C9
U 1 1 4E910561
P 2350 6400
F 0 "C9" H 2400 6500 50  0000 L CNN
F 1 "0.1u" H 2400 6300 50  0000 L CNN
F 2 "" H 2350 6400 60  0001 C CNN
F 3 "" H 2350 6400 60  0001 C CNN
	1    2350 6400
	1    0    0    -1  
$EndComp
$Comp
L BREAKER JP1
U 1 1 4E910538
P 1850 6200
F 0 "JP1" H 1850 6150 50  0000 C CNN
F 1 "AUTORESET" H 1850 6050 50  0000 C CNN
F 2 "" H 1850 6200 60  0001 C CNN
F 3 "" H 1850 6200 60  0001 C CNN
	1    1850 6200
	1    0    0    -1  
$EndComp
Text Label 1450 5900 0    60   ~ 0
VCC
Text Label 1500 1350 0    60   ~ 0
VIN
Text Label 4150 1950 0    60   ~ 0
AREF
Text Label 6250 1850 0    60   ~ 0
pd13
Text Label 6250 1750 0    60   ~ 0
pd12
Text Label 6250 1650 0    60   ~ 0
pd11
Text Label 6250 1550 0    60   ~ 0
pd10
Text Label 6250 1450 0    60   ~ 0
pd9
Text Label 6250 1350 0    60   ~ 0
pd8
Text Label 6200 2800 0    60   ~ 0
RESET
Text Label 4150 1350 0    60   ~ 0
VCC
Text Label 6250 2700 0    60   ~ 0
pc5
Text Label 6250 2600 0    60   ~ 0
pc4
Text Label 6250 2500 0    60   ~ 0
pc3
Text Label 6250 2400 0    60   ~ 0
pc2
Text Label 6250 2300 0    60   ~ 0
pc1
Text Label 6250 2200 0    60   ~ 0
pc0
Text Label 6250 2950 0    60   ~ 0
pd0
Text Label 6250 3050 0    60   ~ 0
pd1
Text Label 6250 3150 0    60   ~ 0
pd2
Text Label 6250 3250 0    60   ~ 0
pd3
Text Label 6250 3350 0    60   ~ 0
pd4
Text Label 6250 3450 0    60   ~ 0
pd5
Text Label 6250 3550 0    60   ~ 0
pd6
$Comp
L GND #PWR13
U 1 1 4E90F3C1
P 7650 3250
F 0 "#PWR13" H 7650 3250 30  0001 C CNN
F 1 "GND" H 7650 3180 30  0001 C CNN
F 2 "" H 7650 3250 60  0001 C CNN
F 3 "" H 7650 3250 60  0001 C CNN
	1    7650 3250
	1    0    0    -1  
$EndComp
$Comp
L SPST SW1
U 1 1 4E90F3A4
P 7000 3050
F 0 "SW1" H 7000 3150 70  0000 C CNN
F 1 "SPST" H 7000 2950 70  0000 C CNN
F 2 "" H 7000 3050 60  0001 C CNN
F 3 "" H 7000 3050 60  0001 C CNN
	1    7000 3050
	1    0    0    -1  
$EndComp
Text Label 6250 3650 0    60   ~ 0
pd7
$Comp
L GND #PWR1
U 1 1 4E5136AA
P 600 1200
F 0 "#PWR1" H 600 1200 30  0001 C CNN
F 1 "GND" H 600 1130 30  0001 C CNN
F 2 "" H 600 1200 60  0001 C CNN
F 3 "" H 600 1200 60  0001 C CNN
	1    600  1200
	1    0    0    -1  
$EndComp
$Comp
L BNC P1
U 1 1 4E513623
P 850 1350
F 0 "P1" H 860 1470 60  0000 C CNN
F 1 "9V" V 960 1290 40  0000 C CNN
F 2 "" H 850 1350 60  0001 C CNN
F 3 "" H 850 1350 60  0001 C CNN
	1    850  1350
	-1   0    0    1   
$EndComp
$Comp
L R R2
U 1 1 4E512ABD
P 6750 2800
F 0 "R2" V 6830 2800 50  0000 C CNN
F 1 "10K" V 6750 2800 50  0000 C CNN
F 2 "" H 6750 2800 60  0001 C CNN
F 3 "" H 6750 2800 60  0001 C CNN
	1    6750 2800
	0    1    1    0   
$EndComp
$Comp
L GND #PWR12
U 1 1 4E51294E
P 7600 2050
F 0 "#PWR12" H 7600 2050 30  0001 C CNN
F 1 "GND" H 7600 1980 30  0001 C CNN
F 2 "" H 7600 2050 60  0001 C CNN
F 3 "" H 7600 2050 60  0001 C CNN
	1    7600 2050
	1    0    0    -1  
$EndComp
$Comp
L C C5
U 1 1 4E512919
P 7100 2350
F 0 "C5" H 7150 2450 50  0000 L CNN
F 1 "22p" H 7150 2250 50  0000 L CNN
F 2 "" H 7100 2350 60  0001 C CNN
F 3 "" H 7100 2350 60  0001 C CNN
	1    7100 2350
	0    1    1    0   
$EndComp
$Comp
L C C4
U 1 1 4E51290E
P 7100 1750
F 0 "C4" H 7150 1850 50  0000 L CNN
F 1 "22p" H 7150 1650 50  0000 L CNN
F 2 "" H 7100 1750 60  0001 C CNN
F 3 "" H 7100 1750 60  0001 C CNN
	1    7100 1750
	0    1    1    0   
$EndComp
$Comp
L CRYSTAL X1
U 1 1 4E51283B
P 6700 2050
F 0 "X1" H 6700 2200 60  0000 C CNN
F 1 "16Mhz" H 6700 1900 60  0000 C CNN
F 2 "" H 6700 2050 60  0001 C CNN
F 3 "" H 6700 2050 60  0001 C CNN
	1    6700 2050
	0    1    1    0   
$EndComp
$Comp
L GND #PWR10
U 1 1 4E5126E1
P 3800 2600
F 0 "#PWR10" H 3800 2600 30  0001 C CNN
F 1 "GND" H 3800 2530 30  0001 C CNN
F 2 "" H 3800 2600 60  0001 C CNN
F 3 "" H 3800 2600 60  0001 C CNN
	1    3800 2600
	1    0    0    -1  
$EndComp
$Comp
L C C3
U 1 1 4E5126D2
P 3800 2200
F 0 "C3" H 3850 2300 50  0000 L CNN
F 1 "0.1u" H 3850 2100 50  0000 L CNN
F 2 "" H 3800 2200 60  0001 C CNN
F 3 "" H 3800 2200 60  0001 C CNN
	1    3800 2200
	1    0    0    -1  
$EndComp
$Comp
L GND #PWR11
U 1 1 4E5121AC
P 4100 3750
F 0 "#PWR11" H 4100 3750 30  0001 C CNN
F 1 "GND" H 4100 3680 30  0001 C CNN
F 2 "" H 4100 3750 60  0001 C CNN
F 3 "" H 4100 3750 60  0001 C CNN
	1    4100 3750
	1    0    0    -1  
$EndComp
$Comp
L ATMEGA168-P IC1
U 1 1 4E511010
P 5300 2500
F 0 "IC1" H 4500 3800 50  0000 L BNN
F 1 "ATMEGA168-P" H 5450 1150 50  0000 L BNN
F 2 "DIL28" H 4600 1200 50  0001 C CNN
F 3 "" H 5300 2500 60  0001 C CNN
	1    5300 2500
	1    0    0    -1  
$EndComp
$Comp
L GND #PWR9
U 1 1 4E510F34
P 3150 2600
F 0 "#PWR9" H 3150 2600 30  0001 C CNN
F 1 "GND" H 3150 2530 30  0001 C CNN
F 2 "" H 3150 2600 60  0001 C CNN
F 3 "" H 3150 2600 60  0001 C CNN
	1    3150 2600
	1    0    0    -1  
$EndComp
$Comp
L LED D2
U 1 1 4E510EFC
P 3150 1700
F 0 "D2" H 3150 1800 50  0000 C CNN
F 1 "LED" H 3150 1600 50  0000 C CNN
F 2 "" H 3150 1700 60  0001 C CNN
F 3 "" H 3150 1700 60  0001 C CNN
	1    3150 1700
	0    1    1    0   
$EndComp
$Comp
L R R1
U 1 1 4E510ED7
P 3150 2250
F 0 "R1" V 3230 2250 50  0000 C CNN
F 1 "330" V 3150 2250 50  0000 C CNN
F 2 "" H 3150 2250 60  0001 C CNN
F 3 "" H 3150 2250 60  0001 C CNN
	1    3150 2250
	1    0    0    -1  
$EndComp
$Comp
L GND #PWR8
U 1 1 4E510DBD
P 2550 2200
F 0 "#PWR8" H 2550 2200 30  0001 C CNN
F 1 "GND" H 2550 2130 30  0001 C CNN
F 2 "" H 2550 2200 60  0001 C CNN
F 3 "" H 2550 2200 60  0001 C CNN
	1    2550 2200
	1    0    0    -1  
$EndComp
$Comp
L GND #PWR7
U 1 1 4E510DB6
P 2000 2200
F 0 "#PWR7" H 2000 2200 30  0001 C CNN
F 1 "GND" H 2000 2130 30  0001 C CNN
F 2 "" H 2000 2200 60  0001 C CNN
F 3 "" H 2000 2200 60  0001 C CNN
	1    2000 2200
	1    0    0    -1  
$EndComp
$Comp
L GND #PWR5
U 1 1 4E510DAB
P 1500 2200
F 0 "#PWR5" H 1500 2200 30  0001 C CNN
F 1 "GND" H 1500 2130 30  0001 C CNN
F 2 "" H 1500 2200 60  0001 C CNN
F 3 "" H 1500 2200 60  0001 C CNN
	1    1500 2200
	1    0    0    -1  
$EndComp
$Comp
L CP1 C2
U 1 1 4E510D43
P 2550 1750
F 0 "C2" H 2600 1850 50  0000 L CNN
F 1 "10u" H 2600 1650 50  0000 L CNN
F 2 "" H 2550 1750 60  0001 C CNN
F 3 "" H 2550 1750 60  0001 C CNN
	1    2550 1750
	1    0    0    -1  
$EndComp
$Comp
L CP1 C1
U 1 1 4E510D3D
P 1500 1750
F 0 "C1" H 1550 1850 50  0000 L CNN
F 1 "100u" H 1550 1650 50  0000 L CNN
F 2 "" H 1500 1750 60  0001 C CNN
F 3 "" H 1500 1750 60  0001 C CNN
	1    1500 1750
	1    0    0    -1  
$EndComp
$Comp
L 7805 U1
U 1 1 4E510CC6
P 2000 1400
F 0 "U1" H 2150 1204 60  0000 C CNN
F 1 "7805" H 2000 1600 60  0000 C CNN
F 2 "" H 2000 1400 60  0001 C CNN
F 3 "" H 2000 1400 60  0001 C CNN
	1    2000 1400
	1    0    0    -1  
$EndComp
$Comp
L CONN_6 FTDI1
U 1 1 53BAB74E
P 1000 5950
F 0 "FTDI1" V 950 5950 60  0000 C CNN
F 1 "J1" V 1050 5950 60  0000 C CNN
F 2 "" H 1000 5950 60  0000 C CNN
F 3 "" H 1000 5950 60  0000 C CNN
	1    1000 5950
	-1   0    0    -1  
$EndComp
Wire Wire Line
	1350 5500 1350 5800
Connection ~ 1350 5700
$Comp
L CONN_2 P2
U 1 1 53BAE243
P 1100 4150
F 0 "P2" V 1050 4150 40  0000 C CNN
F 1 "CONN_2" V 1150 4150 40  0000 C CNN
F 2 "" H 1100 4150 60  0000 C CNN
F 3 "" H 1100 4150 60  0000 C CNN
	1    1100 4150
	-1   0    0    1   
$EndComp
$Comp
L CONN_2 P3
U 1 1 53BAE257
P 1100 4750
F 0 "P3" V 1050 4750 40  0000 C CNN
F 1 "CONN_2" V 1150 4750 40  0000 C CNN
F 2 "" H 1100 4750 60  0000 C CNN
F 3 "" H 1100 4750 60  0000 C CNN
	1    1100 4750
	-1   0    0    1   
$EndComp
$Comp
L GND #PWR3
U 1 1 53BAE26B
P 1450 4050
F 0 "#PWR3" H 1450 4050 30  0001 C CNN
F 1 "GND" H 1450 3980 30  0001 C CNN
F 2 "" H 1450 4050 60  0001 C CNN
F 3 "" H 1450 4050 60  0001 C CNN
	1    1450 4050
	0    -1   -1   0   
$EndComp
Text Label 1450 4850 0    60   ~ 0
VIN
$Comp
L GND #PWR4
U 1 1 53BAE27A
P 1450 4650
F 0 "#PWR4" H 1450 4650 30  0001 C CNN
F 1 "GND" H 1450 4580 30  0001 C CNN
F 2 "" H 1450 4650 60  0001 C CNN
F 3 "" H 1450 4650 60  0001 C CNN
	1    1450 4650
	0    -1   -1   0   
$EndComp
Text Label 1450 4250 0    60   ~ 0
VCC
$EndSCHEMATC
