(export (version D)
  (design
    (source /media/fpistonHD2/aditional_projects/pcb_desing/GPRS-fp_shield/NOVVO_GPRSshield/NOVVO_GPRSshield_v1-1.sch)
    (date "Mon 11 May 2015 09:20:46 CEST")
    (tool "Eeschema (2015-04-28 BZR 5629)-product")
    (sheet (number 1) (name /) (tstamps /)
      (title_block
        (title "GPRSshield v1.4.sch")
        (company)
        (rev)
        (date "29 APR 2015")
        (source NOVVO_GPRSshield_v1-1.sch)
        (comment (number 1) (value ""))
        (comment (number 2) (value ""))
        (comment (number 3) (value ""))
        (comment (number 4) (value "")))))
  (components
    (comp (ref ANT1)
      (value ~)
      (footprint w_conn_rf:sma_90_r300.124.403)
      (libsource (lib NOVVO_GPRSshield_v1-1-cache) (part HEADER_4))
      (sheetpath (names /) (tstamps /))
      (tstamp 55429AD7))
    (comp (ref C7)
      (value 2.2u)
      (footprint Capacitors_SMD:C_0805)
      (libsource (lib device) (part C))
      (sheetpath (names /) (tstamps /))
      (tstamp 5540CB48))
    (comp (ref C8)
      (value 2.2u)
      (footprint Capacitors_SMD:C_0805)
      (libsource (lib device) (part C))
      (sheetpath (names /) (tstamps /))
      (tstamp 55429AEF))
    (comp (ref C9)
      (value 1uF)
      (footprint Capacitors_SMD:C_0805)
      (libsource (lib device) (part C))
      (sheetpath (names /) (tstamps /))
      (tstamp 55429AEE))
    (comp (ref D1)
      (value MMSZ4689-V)
      (footprint Diodes_SMD:Diode-MiniMELF_Standard)
      (libsource (lib device) (part ZENERsmall))
      (sheetpath (names /) (tstamps /))
      (tstamp 55429AED))
    (comp (ref J1)
      (value ~)
      (footprint Socket_Strips:Socket_Strip_Straight_2x05)
      (libsource (lib NOVVO_GPRSshield_v1-1-cache) (part HEADER_5x2))
      (sheetpath (names /) (tstamps /))
      (tstamp 55429AEC))
    (comp (ref J2)
      (value "6p male dowm")
      (footprint Socket_Strips:Socket_Strip_Straight_2x06)
      (libsource (lib NOVVO_GPRSshield_v1-1-cache) (part HEADER_6x2))
      (sheetpath (names /) (tstamps /))
      (tstamp 55429AEB))
    (comp (ref J4)
      (value CK_2X6)
      (footprint Socket_Strips:Socket_Strip_Straight_2x06)
      (libsource (lib NOVVO_GPRSshield_v1-1-cache) (part HEADER_6x2))
      (sheetpath (names /) (tstamps /))
      (tstamp 55429AEA))
    (comp (ref J5)
      (value "6p male dowm")
      (footprint Socket_Strips:Socket_Strip_Straight_2x06)
      (libsource (lib NOVVO_GPRSshield_v1-1-cache) (part HEADER_6x2))
      (sheetpath (names /) (tstamps /))
      (tstamp 55429AE9))
    (comp (ref J7)
      (value CK_2X3_DD)
      (footprint Socket_Strips:Socket_Strip_Straight_2x03)
      (libsource (lib NOVVO_GPRSshield_v1-1-cache) (part HEADER_3x2))
      (sheetpath (names /) (tstamps /))
      (tstamp 55429AE7))
    (comp (ref J8)
      (value "8p male dowm")
      (footprint Socket_Strips:Socket_Strip_Straight_2x08)
      (libsource (lib NOVVO_GPRSshield_v1-1-cache) (part HEADER_8x2))
      (sheetpath (names /) (tstamps /))
      (tstamp 55429AE6))
    (comp (ref J10)
      (value ~)
      (footprint Socket_Strips:Socket_Strip_Straight_1x04)
      (libsource (lib NOVVO_GPRSshield_v1-1-cache) (part HEADER_4))
      (sheetpath (names /) (tstamps /))
      (tstamp 55429AE4))
    (comp (ref J11)
      (value "8p female up")
      (footprint Socket_Strips:Socket_Strip_Straight_2x08)
      (libsource (lib NOVVO_GPRSshield_v1-1-cache) (part HEADER_8x2))
      (sheetpath (names /) (tstamps /))
      (tstamp 55429AE3))
    (comp (ref J13)
      (value ~)
      (footprint Socket_Strips:Socket_Strip_Straight_1x06)
      (libsource (lib NOVVO_GPRSshield_v1-1-cache) (part HEADER_6))
      (sheetpath (names /) (tstamps /))
      (tstamp 55429AE2))
    (comp (ref P2)
      (value ~)
      (footprint Connect:GS2)
      (libsource (lib conn) (part GS2))
      (sheetpath (names /) (tstamps /))
      (tstamp 55429AE1))
    (comp (ref R7)
      (value 510R)
      (footprint Resistors_SMD:R_0805)
      (libsource (lib device) (part R))
      (sheetpath (names /) (tstamps /))
      (tstamp 55429ADE))
    (comp (ref R9)
      (value DNP)
      (footprint Resistors_SMD:R_0805)
      (libsource (lib device) (part R))
      (sheetpath (names /) (tstamps /))
      (tstamp 55429AD9))
    (comp (ref VBAT1)
      (value DNP)
      (footprint Socket_Strips:Socket_Strip_Straight_1x02)
      (libsource (lib NOVVO_GPRSshield_v1-1-cache) (part HEADER_2))
      (sheetpath (names /) (tstamps /))
      (tstamp 55429AD8))
    (comp (ref U2)
      (value SIM900)
      (footprint propiosFP:sim900FP)
      (libsource (lib rfcom) (part SIM900))
      (sheetpath (names /) (tstamps /))
      (tstamp 5540F4A4))
    (comp (ref C15)
      (value C)
      (footprint Capacitors_SMD:C_0805)
      (libsource (lib device) (part C))
      (sheetpath (names /) (tstamps /))
      (tstamp 55438C30))
    (comp (ref C16)
      (value C16)
      (footprint Capacitors_SMD:C_0805)
      (libsource (lib device) (part C))
      (sheetpath (names /) (tstamps /))
      (tstamp 55438CF1))
    (comp (ref C17)
      (value C)
      (footprint Capacitors_SMD:C_0805)
      (libsource (lib device) (part C))
      (sheetpath (names /) (tstamps /))
      (tstamp 55438DA2))
    (comp (ref C18)
      (value C)
      (footprint Capacitors_SMD:C_0805)
      (libsource (lib device) (part C))
      (sheetpath (names /) (tstamps /))
      (tstamp 55438E7B))
    (comp (ref R11)
      (value R)
      (footprint Resistors_SMD:R_0805)
      (libsource (lib device) (part R))
      (sheetpath (names /) (tstamps /))
      (tstamp 55439F94))
    (comp (ref C19)
      (value C)
      (footprint Capacitors_SMD:C_0805)
      (libsource (lib device) (part C))
      (sheetpath (names /) (tstamps /))
      (tstamp 5543A90D))
    (comp (ref C21)
      (value C)
      (footprint Capacitors_SMD:C_0805)
      (libsource (lib device) (part C))
      (sheetpath (names /) (tstamps /))
      (tstamp 5543AA89))
    (comp (ref C22)
      (value C)
      (footprint Capacitors_SMD:C_0805)
      (libsource (lib device) (part C))
      (sheetpath (names /) (tstamps /))
      (tstamp 5543AB52))
    (comp (ref C23)
      (value C)
      (footprint Capacitors_SMD:C_0805)
      (libsource (lib device) (part C))
      (sheetpath (names /) (tstamps /))
      (tstamp 5543AC19))
    (comp (ref R13)
      (value R)
      (footprint Resistors_SMD:R_0805)
      (libsource (lib device) (part R))
      (sheetpath (names /) (tstamps /))
      (tstamp 5543D511))
    (comp (ref R15)
      (value R)
      (footprint Resistors_SMD:R_0805)
      (libsource (lib device) (part R))
      (sheetpath (names /) (tstamps /))
      (tstamp 5543D5DA))
    (comp (ref R14)
      (value R)
      (footprint Resistors_SMD:R_0805)
      (libsource (lib device) (part R))
      (sheetpath (names /) (tstamps /))
      (tstamp 5543D6A1))
    (comp (ref R16)
      (value R)
      (footprint Resistors_SMD:R_0805)
      (libsource (lib device) (part R))
      (sheetpath (names /) (tstamps /))
      (tstamp 5543D770))
    (comp (ref Q3)
      (value Q_NPN_EBC)
      (footprint SMD_Packages:SOT-23)
      (libsource (lib device) (part Q_NPN_BEC))
      (sheetpath (names /) (tstamps /))
      (tstamp 5543DE53))
    (comp (ref Q4)
      (value Q_NPN_EBC)
      (footprint SMD_Packages:SOT-23)
      (libsource (lib device) (part Q_NPN_BEC))
      (sheetpath (names /) (tstamps /))
      (tstamp 5543F184))
    (comp (ref R20)
      (value R)
      (footprint Resistors_SMD:R_0805)
      (libsource (lib device) (part R))
      (sheetpath (names /) (tstamps /))
      (tstamp 5543FBD2))
    (comp (ref R21)
      (value R)
      (footprint Resistors_SMD:R_0805)
      (libsource (lib device) (part R))
      (sheetpath (names /) (tstamps /))
      (tstamp 5543FD9B))
    (comp (ref D3)
      (value LED)
      (footprint LEDs:LED-0805)
      (libsource (lib device) (part LED))
      (sheetpath (names /) (tstamps /))
      (tstamp 55440159))
    (comp (ref D2)
      (value LED)
      (footprint LEDs:LED-0805)
      (libsource (lib device) (part LED))
      (sheetpath (names /) (tstamps /))
      (tstamp 554409B5))
    (comp (ref C13)
      (value C)
      (footprint Capacitors_SMD:C_0805)
      (libsource (lib device) (part C))
      (sheetpath (names /) (tstamps /))
      (tstamp 55447B4E))
    (comp (ref C14)
      (value C)
      (footprint Capacitors_SMD:C_0805)
      (libsource (lib device) (part C))
      (sheetpath (names /) (tstamps /))
      (tstamp 55448731))
    (comp (ref R6)
      (value R)
      (footprint Resistors_SMD:R_0805)
      (libsource (lib device) (part R))
      (sheetpath (names /) (tstamps /))
      (tstamp 554487F8))
    (comp (ref R10)
      (value R)
      (footprint Resistors_SMD:R_0805)
      (libsource (lib device) (part R))
      (sheetpath (names /) (tstamps /))
      (tstamp 5544895F))
    (comp (ref AT1)
      (value CONN_01X02)
      (footprint w_conn_rf:coaxial_u.fl-r-smt-1)
      (libsource (lib NOVVO_GPRSshield_v1-1-cache) (part HEADER_2))
      (sheetpath (names /) (tstamps /))
      (tstamp 55414CF7))
    (comp (ref C6)
      (value C)
      (footprint Capacitors_SMD:C_0805)
      (libsource (lib device) (part C))
      (sheetpath (names /) (tstamps /))
      (tstamp 5541CD94))
    (comp (ref K1)
      (value SW_PUSH)
      (footprint propiosFP:BTN_5.0_RST)
      (libsource (lib device) (part SW_PUSH))
      (sheetpath (names /) (tstamps /))
      (tstamp 5542CE96))
    (comp (ref Q1)
      (value Q_NPN_EBC)
      (footprint SMD_Packages:SOT-23)
      (libsource (lib device) (part Q_NPN_BEC))
      (sheetpath (names /) (tstamps /))
      (tstamp 5542E2C7))
    (comp (ref R2)
      (value R)
      (footprint Resistors_SMD:R_0805)
      (libsource (lib device) (part R))
      (sheetpath (names /) (tstamps /))
      (tstamp 55430CBE))
    (comp (ref R3)
      (value R)
      (footprint Resistors_SMD:R_0805)
      (libsource (lib device) (part R))
      (sheetpath (names /) (tstamps /))
      (tstamp 55430F03))
    (comp (ref J14)
      (value Battery)
      (footprint propiosFP:CR1220_fp)
      (libsource (lib device) (part Battery))
      (sheetpath (names /) (tstamps /))
      (tstamp 5543571F))
    (comp (ref SIMHOLDER3)
      (value DIL6)
      (footprint propiosFP:SIMHOLDER3)
      (libsource (lib conn) (part DIL6))
      (sheetpath (names /) (tstamps /))
      (tstamp 554385D2))
    (comp (ref R18)
      (value R)
      (footprint Resistors_SMD:R_0805)
      (libsource (lib device) (part R))
      (sheetpath (names /) (tstamps /))
      (tstamp 55439378))
    (comp (ref R17)
      (value R)
      (footprint Resistors_SMD:R_0805)
      (libsource (lib device) (part R))
      (sheetpath (names /) (tstamps /))
      (tstamp 554394D7))
    (comp (ref R19)
      (value R)
      (footprint Resistors_SMD:R_0805)
      (libsource (lib device) (part R))
      (sheetpath (names /) (tstamps /))
      (tstamp 55439FB6))
    (comp (ref C20)
      (value C)
      (footprint Capacitors_SMD:C_0805)
      (libsource (lib device) (part C))
      (sheetpath (names /) (tstamps /))
      (tstamp 5543A776))
    (comp (ref C2)
      (value C)
      (footprint Capacitors_SMD:C_0805)
      (libsource (lib device) (part C))
      (sheetpath (names /) (tstamps /))
      (tstamp 554550EF))
    (comp (ref C3)
      (value C)
      (footprint Capacitors_SMD:C_0805)
      (libsource (lib device) (part C))
      (sheetpath (names /) (tstamps /))
      (tstamp 55455236))
    (comp (ref U1)
      (value TPS54340DDA)
      (footprint Housings_SOIC:SOIC-8-1EP_3.9x4.9mm_Pitch1.27mm)
      (libsource (lib dc-dc) (part TPS54340DDA))
      (sheetpath (names /) (tstamps /))
      (tstamp 554552E9))
    (comp (ref R1)
      (value R)
      (footprint Resistors_SMD:R_0805)
      (libsource (lib device) (part R))
      (sheetpath (names /) (tstamps /))
      (tstamp 55455524))
    (comp (ref R5)
      (value R)
      (footprint Resistors_SMD:R_0805)
      (libsource (lib device) (part R))
      (sheetpath (names /) (tstamps /))
      (tstamp 554555E9))
    (comp (ref C4)
      (value C)
      (footprint Capacitors_SMD:C_0805)
      (libsource (lib device) (part C))
      (sheetpath (names /) (tstamps /))
      (tstamp 5545569A))
    (comp (ref C5)
      (value C)
      (footprint Capacitors_SMD:C_0805)
      (libsource (lib device) (part C))
      (sheetpath (names /) (tstamps /))
      (tstamp 554557F3))
    (comp (ref C10)
      (value C)
      (footprint Capacitors_SMD:C_0805)
      (libsource (lib device) (part C))
      (sheetpath (names /) (tstamps /))
      (tstamp 55455D3B))
    (comp (ref L1)
      (value L_Small)
      (footprint Choke_SMD:Choke_SMD_Wuerth-WE-PD2-Typ-MS)
      (libsource (lib device) (part L_Small))
      (sheetpath (names /) (tstamps /))
      (tstamp 55455EDB))
    (comp (ref R88)
      (value R)
      (footprint Resistors_SMD:R_0805)
      (libsource (lib device) (part R))
      (sheetpath (names /) (tstamps /))
      (tstamp 5545638D))
    (comp (ref R4)
      (value R)
      (footprint Resistors_SMD:R_0805)
      (libsource (lib device) (part R))
      (sheetpath (names /) (tstamps /))
      (tstamp 5545644A))
    (comp (ref C11)
      (value 47uF)
      (footprint Capacitors_Tantalum_SMD:TantalC_SizeD_EIA-7343_Reflow)
      (libsource (lib device) (part CP_Small))
      (sheetpath (names /) (tstamps /))
      (tstamp 55456513))
    (comp (ref P1)
      (value CONN_01X02)
      (footprint Connect:bornier2)
      (libsource (lib NOVVO_GPRSshield_v1-1-cache) (part HEADER_2))
      (sheetpath (names /) (tstamps /))
      (tstamp 55419534))
    (comp (ref C1)
      (value CP_Small)
      (footprint Capacitors_SMD:c_elec_6.3x4.5)
      (libsource (lib device) (part CP_Small))
      (sheetpath (names /) (tstamps /))
      (tstamp 5541AFA4))
    (comp (ref C12)
      (value 470uF)
      (footprint Capacitors_Tantalum_SMD:TantalC_SizeD_EIA-7343_Reflow)
      (libsource (lib device) (part CP_Small))
      (sheetpath (names /) (tstamps /))
      (tstamp 5541DF90))
    (comp (ref GS1)
      (value GS2)
      (footprint Connect:GS2)
      (libsource (lib conn) (part GS2))
      (sheetpath (names /) (tstamps /))
      (tstamp 554206EE))
    (comp (ref MIC1)
      (value Jack_3.5mm_3pin)
      (footprint propiosFP:jack_3.5-SMD)
      (libsource (lib NOVVO_GPRSshield_v1-1-cache) (part Jack_3.5mm_3pin))
      (sheetpath (names /) (tstamps /))
      (tstamp 5542A8D3))
    (comp (ref SPK1)
      (value Jack_3.5mm_3pin)
      (footprint propiosFP:jack_3.5-SMD)
      (libsource (lib NOVVO_GPRSshield_v1-1-cache) (part Jack_3.5mm_3pin))
      (sheetpath (names /) (tstamps /))
      (tstamp 5542B408))
    (comp (ref Q5)
      (value BSS138)
      (footprint SMD_Packages:SOT-23)
      (libsource (lib transistors) (part BSS138))
      (sheetpath (names /) (tstamps /))
      (tstamp 5547C44D))
    (comp (ref Q6)
      (value BSS138)
      (footprint SMD_Packages:SOT-23)
      (libsource (lib transistors) (part BSS138))
      (sheetpath (names /) (tstamps /))
      (tstamp 5547C90D))
    (comp (ref D6)
      (value SCHOTTKY)
      (footprint Diodes_SMD:Diode-SMA_Standard)
      (libsource (lib w_device) (part SCHOTTKY))
      (sheetpath (names /) (tstamps /))
      (tstamp 554871CC))
    (comp (ref JP1)
      (value JUMPER3)
      (footprint Pin_Headers:Pin_Header_Straight_1x03)
      (libsource (lib device) (part JUMPER3))
      (sheetpath (names /) (tstamps /))
      (tstamp 554894DA))
    (comp (ref D4)
      (value D)
      (footprint Diodes_SMD:Diode-SMA_Standard)
      (libsource (lib device) (part D))
      (sheetpath (names /) (tstamps /))
      (tstamp 5548E209))
    (comp (ref R33)
      (value R)
      (footprint Resistors_SMD:R_0805)
      (libsource (lib device) (part R))
      (sheetpath (names /) (tstamps /))
      (tstamp 55496476))
    (comp (ref R34)
      (value R)
      (footprint Resistors_SMD:R_0805)
      (libsource (lib device) (part R))
      (sheetpath (names /) (tstamps /))
      (tstamp 55496569))
    (comp (ref R32)
      (value R)
      (footprint Resistors_SMD:R_0805)
      (libsource (lib device) (part R))
      (sheetpath (names /) (tstamps /))
      (tstamp 5549662A))
    (comp (ref R31)
      (value R)
      (footprint Resistors_SMD:R_0805)
      (libsource (lib device) (part R))
      (sheetpath (names /) (tstamps /))
      (tstamp 5549670F))
    (comp (ref GS3)
      (value GS2)
      (footprint Connect:GS2)
      (libsource (lib conn) (part GS2))
      (sheetpath (names /) (tstamps /))
      (tstamp 554C5961))
    (comp (ref P3)
      (value CONN_01X01)
      (libsource (lib conn) (part CONN_01X01))
      (sheetpath (names /) (tstamps /))
      (tstamp 55506705)))
  (libparts
    (libpart (lib w_device) (part SCHOTTKY)
      (description "Diode Schottky")
      (fields
        (field (name Reference) D)
        (field (name Value) SCHOTTKY))
      (pins
        (pin (num 1) (name A) (type passive))
        (pin (num 2) (name K) (type passive))))
    (libpart (lib NOVVO_GPRSshield_v1-1-cache) (part HEADER_2)
      (fields
        (field (name Reference) J)
        (field (name Value) HEADER_2))
      (pins
        (pin (num 1) (name ~) (type passive))
        (pin (num 2) (name ~) (type passive))))
    (libpart (lib NOVVO_GPRSshield_v1-1-cache) (part HEADER_3x2)
      (fields
        (field (name Reference) J)
        (field (name Value) HEADER_3x2))
      (pins
        (pin (num 1) (name ~) (type passive))
        (pin (num 2) (name ~) (type passive))
        (pin (num 3) (name ~) (type passive))
        (pin (num 4) (name ~) (type passive))
        (pin (num 5) (name ~) (type passive))
        (pin (num 6) (name ~) (type passive))))
    (libpart (lib NOVVO_GPRSshield_v1-1-cache) (part HEADER_4)
      (fields
        (field (name Reference) J)
        (field (name Value) HEADER_4))
      (pins
        (pin (num 1) (name ~) (type passive))
        (pin (num 2) (name ~) (type passive))
        (pin (num 3) (name ~) (type passive))
        (pin (num 4) (name ~) (type passive))))
    (libpart (lib NOVVO_GPRSshield_v1-1-cache) (part HEADER_5x2)
      (fields
        (field (name Reference) J)
        (field (name Value) HEADER_5x2))
      (pins
        (pin (num 1) (name ~) (type passive))
        (pin (num 2) (name ~) (type passive))
        (pin (num 3) (name ~) (type passive))
        (pin (num 4) (name ~) (type passive))
        (pin (num 5) (name ~) (type passive))
        (pin (num 6) (name ~) (type passive))
        (pin (num 7) (name ~) (type passive))
        (pin (num 8) (name ~) (type passive))
        (pin (num 9) (name ~) (type passive))
        (pin (num 10) (name ~) (type passive))))
    (libpart (lib NOVVO_GPRSshield_v1-1-cache) (part HEADER_6)
      (fields
        (field (name Reference) J)
        (field (name Value) HEADER_6))
      (pins
        (pin (num 1) (name ~) (type passive))
        (pin (num 2) (name ~) (type passive))
        (pin (num 3) (name ~) (type passive))
        (pin (num 4) (name ~) (type passive))
        (pin (num 5) (name ~) (type passive))
        (pin (num 6) (name ~) (type passive))))
    (libpart (lib NOVVO_GPRSshield_v1-1-cache) (part HEADER_6x2)
      (fields
        (field (name Reference) J)
        (field (name Value) HEADER_6x2))
      (pins
        (pin (num 1) (name ~) (type passive))
        (pin (num 2) (name ~) (type passive))
        (pin (num 3) (name ~) (type passive))
        (pin (num 4) (name ~) (type passive))
        (pin (num 5) (name ~) (type passive))
        (pin (num 6) (name ~) (type passive))
        (pin (num 7) (name ~) (type passive))
        (pin (num 8) (name ~) (type passive))
        (pin (num 9) (name ~) (type passive))
        (pin (num 10) (name ~) (type passive))
        (pin (num 11) (name ~) (type passive))
        (pin (num 12) (name ~) (type passive))))
    (libpart (lib NOVVO_GPRSshield_v1-1-cache) (part HEADER_8x2)
      (fields
        (field (name Reference) J)
        (field (name Value) HEADER_8x2))
      (pins
        (pin (num 1) (name ~) (type passive))
        (pin (num 2) (name ~) (type passive))
        (pin (num 3) (name ~) (type passive))
        (pin (num 4) (name ~) (type passive))
        (pin (num 5) (name ~) (type passive))
        (pin (num 6) (name ~) (type passive))
        (pin (num 7) (name ~) (type passive))
        (pin (num 8) (name ~) (type passive))
        (pin (num 9) (name ~) (type passive))
        (pin (num 10) (name ~) (type passive))
        (pin (num 11) (name ~) (type passive))
        (pin (num 12) (name ~) (type passive))
        (pin (num 13) (name ~) (type passive))
        (pin (num 14) (name ~) (type passive))
        (pin (num 15) (name ~) (type passive))
        (pin (num 16) (name ~) (type passive))))
    (libpart (lib NOVVO_GPRSshield_v1-1-cache) (part Jack_3.5mm_3pin)
      (fields
        (field (name Reference) J)
        (field (name Value) Jack_3.5mm_3pin))
      (pins
        (pin (num 1) (name S) (type passive))
        (pin (num 2) (name T) (type passive))
        (pin (num 3) (name R) (type passive))))
    (libpart (lib conn) (part DIL6)
      (fields
        (field (name Reference) P)
        (field (name Value) DIL6))
      (pins
        (pin (num 1) (name P1) (type passive))
        (pin (num 2) (name P2) (type passive))
        (pin (num 3) (name P3) (type passive))
        (pin (num 4) (name P4) (type passive))
        (pin (num 5) (name P5) (type passive))
        (pin (num 6) (name P6) (type passive))))
    (libpart (lib conn) (part GS2)
      (fields
        (field (name Reference) GS)
        (field (name Value) GS2)
        (field (name Footprint) GS2))
      (pins
        (pin (num 1) (name G1) (type passive))
        (pin (num 2) (name G2) (type passive))))
    (libpart (lib dc-dc) (part TPS54360DDA)
      (aliases
        (alias TPS54340DDA))
      (description "TPS54360DDA, 60V 3.5 A, Step Down DC-DC Converter with Eco-mode, HSOIC8")
      (docs http://www.ti.com/lit/ds/symlink/tps54360.pdf)
      (footprints
        (fp *SO*))
      (fields
        (field (name Reference) U)
        (field (name Value) TPS54360DDA)
        (field (name Footprint) HSOIC8))
      (pins
        (pin (num 1) (name BOOT) (type input))
        (pin (num 2) (name VIN) (type input))
        (pin (num 3) (name EN) (type input))
        (pin (num 4) (name RT/CLK) (type input))
        (pin (num 5) (name FB) (type input))
        (pin (num 6) (name COMP) (type passive))
        (pin (num 7) (name GND) (type power_in))
        (pin (num 8) (name SW) (type output))
        (pin (num 9) (name PAD) (type passive))))
    (libpart (lib device) (part Battery)
      (fields
        (field (name Reference) BT)
        (field (name Value) Battery))
      (pins
        (pin (num 1) (name ~) (type passive))
        (pin (num 2) (name ~) (type passive))))
    (libpart (lib device) (part C)
      (description "Unpolarized capacitor")
      (footprints
        (fp C?)
        (fp C_????_*)
        (fp C_????)
        (fp SMD*_c)
        (fp Capacitor*))
      (fields
        (field (name Reference) C)
        (field (name Value) C))
      (pins
        (pin (num 1) (name ~) (type passive))
        (pin (num 2) (name ~) (type passive))))
    (libpart (lib device) (part CP_Small)
      (description "Polarised capacitor")
      (footprints
        (fp CP*)
        (fp Elko*)
        (fp TantalC*)
        (fp C*elec)
        (fp c_elec*)
        (fp SMD*_Pol))
      (fields
        (field (name Reference) C)
        (field (name Value) CP_Small))
      (pins
        (pin (num 1) (name ~) (type passive))
        (pin (num 2) (name ~) (type passive))))
    (libpart (lib device) (part D)
      (description Diode)
      (footprints
        (fp Diode_*)
        (fp D-Pak_TO252AA)
        (fp *SingleDiode)
        (fp *_Diode_*)
        (fp *SingleDiode*))
      (fields
        (field (name Reference) D)
        (field (name Value) D))
      (pins
        (pin (num 1) (name K) (type passive))
        (pin (num 2) (name A) (type passive))))
    (libpart (lib device) (part JUMPER3)
      (fields
        (field (name Reference) JP)
        (field (name Value) JUMPER3))
      (pins
        (pin (num 1) (name 1) (type passive))
        (pin (num 2) (name 2) (type passive))
        (pin (num 3) (name 3) (type passive))))
    (libpart (lib device) (part LED)
      (footprints
        (fp LED-3MM)
        (fp LED-5MM)
        (fp LED-10MM)
        (fp LED-0603)
        (fp LED-0805)
        (fp LED-1206)
        (fp LEDV))
      (fields
        (field (name Reference) D)
        (field (name Value) LED))
      (pins
        (pin (num 1) (name K) (type passive))
        (pin (num 2) (name A) (type passive))))
    (libpart (lib device) (part L_Small)
      (description Inductor)
      (footprints
        (fp CP*)
        (fp SM*))
      (fields
        (field (name Reference) L)
        (field (name Value) L_Small))
      (pins
        (pin (num 1) (name ~) (type passive))
        (pin (num 2) (name ~) (type passive))))
    (libpart (lib device) (part Q_NPN_BEC)
      (description "Transistor NPN (general)")
      (fields
        (field (name Reference) Q)
        (field (name Value) Q_NPN_BEC))
      (pins
        (pin (num 1) (name B) (type input))
        (pin (num 2) (name E) (type openEm))
        (pin (num 3) (name C) (type openCol))))
    (libpart (lib device) (part R)
      (description Resistor)
      (footprints
        (fp R_*)
        (fp Resistor_*))
      (fields
        (field (name Reference) R)
        (field (name Value) R))
      (pins
        (pin (num 1) (name ~) (type passive))
        (pin (num 2) (name ~) (type passive))))
    (libpart (lib device) (part SW_PUSH)
      (description "Push Button")
      (fields
        (field (name Reference) SW)
        (field (name Value) SW_PUSH))
      (pins
        (pin (num 1) (name 1) (type passive))
        (pin (num 2) (name 2) (type passive))))
    (libpart (lib device) (part ZENERsmall)
      (footprints
        (fp D?)
        (fp SO*)
        (fp SM*))
      (fields
        (field (name Reference) D)
        (field (name Value) ZENERsmall))
      (pins
        (pin (num 1) (name K) (type passive))
        (pin (num 2) (name A) (type passive))))
    (libpart (lib transistors) (part BSS138)
      (description "BSS138, 50V Vds, 0.22A Id, N-Channel MOSFET, SOT-23")
      (docs http://www.fairchildsemi.com/ds/BS/BSS138.pdf)
      (footprints
        (fp SOT-23*))
      (fields
        (field (name Reference) Q)
        (field (name Value) BSS138)
        (field (name Footprint) SOT-23))
      (pins
        (pin (num 1) (name G) (type passive))
        (pin (num 2) (name S) (type passive))
        (pin (num 3) (name D) (type passive))))
    (libpart (lib rfcom) (part SIM900)
      (description "SIM900, GSM Quad-Band Communication Module, GPRS, Audio Engine, AT Command Set")
      (docs "http://www.simcom.us/act_admin/supportfile/SIM900_HD_V1.01(091226).pdf")
      (fields
        (field (name Reference) IC)
        (field (name Value) SIM900))
      (pins
        (pin (num 1) (name PWRKEY) (type passive))
        (pin (num 2) (name PWRKEY_OUT) (type passive))
        (pin (num 3) (name DTR) (type output))
        (pin (num 4) (name RI) (type output))
        (pin (num 5) (name DCD) (type output))
        (pin (num 6) (name DSR) (type output))
        (pin (num 7) (name CTS) (type output))
        (pin (num 8) (name RTS) (type input))
        (pin (num 9) (name TXD) (type output))
        (pin (num 10) (name RXD) (type input))
        (pin (num 11) (name DS_CLK) (type output))
        (pin (num 12) (name DS_DTA) (type BiDi))
        (pin (num 13) (name DS_D/C) (type output))
        (pin (num 14) (name DS_CS) (type output))
        (pin (num 15) (name VDD_EXT) (type power_in))
        (pin (num 16) (name ~RESET~) (type input))
        (pin (num 17) (name GND) (type power_in))
        (pin (num 18) (name GND) (type power_in))
        (pin (num 19) (name MIC_P) (type passive))
        (pin (num 20) (name MIC_N) (type passive))
        (pin (num 21) (name SPK_P) (type passive))
        (pin (num 22) (name SPK_N) (type passive))
        (pin (num 23) (name LINE_R) (type passive))
        (pin (num 24) (name LINE_L) (type passive))
        (pin (num 25) (name ADC) (type passive))
        (pin (num 26) (name VRTC) (type passive))
        (pin (num 27) (name DBG_TXD) (type output))
        (pin (num 28) (name DBG_RXD) (type input))
        (pin (num 29) (name GND) (type power_in))
        (pin (num 30) (name SIM_VDD) (type power_out))
        (pin (num 31) (name SIM_DATA) (type BiDi))
        (pin (num 32) (name SIM_CLK) (type output))
        (pin (num 33) (name SIM_RST) (type output))
        (pin (num 34) (name SIM_PRESENCE) (type output))
        (pin (num 35) (name PWM1) (type output))
        (pin (num 36) (name PWM2) (type output))
        (pin (num 37) (name SDA) (type BiDi))
        (pin (num 38) (name SCL) (type output))
        (pin (num 39) (name GND) (type power_in))
        (pin (num 40) (name GPIO1/KBR4) (type BiDi))
        (pin (num 41) (name GPIO2/KBR3) (type BiDi))
        (pin (num 42) (name GPIO3/KBR2) (type BiDi))
        (pin (num 43) (name GPIO4/KBR1) (type BiDi))
        (pin (num 44) (name GPIO5/KBR0) (type BiDi))
        (pin (num 45) (name GND) (type power_in))
        (pin (num 46) (name GND) (type power_in))
        (pin (num 47) (name GPIO6/KBC4) (type BiDi))
        (pin (num 48) (name GPIO7/KBC3) (type BiDi))
        (pin (num 49) (name GPIO8/KBC2) (type BiDi))
        (pin (num 50) (name GPIO9/KBC1) (type BiDi))
        (pin (num 51) (name GPIO10/KBC0) (type BiDi))
        (pin (num 52) (name NETLIGHT) (type passive))
        (pin (num 53) (name GND) (type power_in))
        (pin (num 54) (name GND) (type power_in))
        (pin (num 55) (name VBAT) (type power_in))
        (pin (num 56) (name VBAT) (type power_in))
        (pin (num 57) (name VBAT) (type power_in))
        (pin (num 58) (name GND) (type power_in))
        (pin (num 59) (name GND) (type power_in))
        (pin (num 60) (name RF_ANT) (type passive))
        (pin (num 61) (name GND) (type power_in))
        (pin (num 62) (name GND) (type power_in))
        (pin (num 63) (name GND) (type power_in))
        (pin (num 64) (name GND) (type power_in))
        (pin (num 65) (name GND) (type power_in))
        (pin (num 66) (name STATUS) (type passive))
        (pin (num 67) (name GPIO11) (type BiDi))
        (pin (num 68) (name GPIO12) (type BiDi))))
    (libpart (lib conn) (part CONN_01X01)
      (footprints
        (fp Pin_Header_Straight_1X01)
        (fp Pin_Header_Angled_1X01)
        (fp Socket_Strip_Straight_1X01)
        (fp Socket_Strip_Angled_1X01))
      (fields
        (field (name Reference) P)
        (field (name Value) CONN_01X01))
      (pins
        (pin (num 1) (name P1) (type passive)))))
  (libraries
    (library (logical dc-dc)
      (uri /usr/local/share/kicad/library/dc-dc.lib))
    (library (logical device)
      (uri /usr/local/share/kicad/library/device.lib))
    (library (logical transistors)
      (uri /usr/local/share/kicad/library/transistors.lib))
    (library (logical w_device)
      (uri /media/fpistonHD2/org/code/program_config/kicad/smisioto_libraries/kicad_libs/library/w_device.lib))
    (library (logical NOVVO_GPRSshield_v1-1-cache)
      (uri /media/fpistonHD2/aditional_projects/pcb_desing/GPRS-fp_shield/NOVVO_GPRSshield/NOVVO_GPRSshield_v1-1-cache.lib))
    (library (logical conn)
      (uri /usr/local/share/kicad/library/conn.lib))
    (library (logical rfcom)
      (uri /usr/local/share/kicad/library/rfcom.lib)))
  (nets
    (net (code 1) (name "Net-(R17-Pad2)")
      (node (ref R17) (pin 2))
      (node (ref SIMHOLDER3) (pin 2)))
    (net (code 2) (name "Net-(D3-Pad1)")
      (node (ref D3) (pin 1))
      (node (ref R20) (pin 2)))
    (net (code 3) (name "Net-(Q3-Pad1)")
      (node (ref R13) (pin 2))
      (node (ref R15) (pin 1))
      (node (ref Q3) (pin 1)))
    (net (code 4) (name "Net-(R18-Pad1)")
      (node (ref R18) (pin 1))
      (node (ref SIMHOLDER3) (pin 3)))
    (net (code 5) (name "Net-(ANT1-Pad2)")
      (node (ref ANT1) (pin 3))
      (node (ref P2) (pin 2))
      (node (ref ANT1) (pin 2))
      (node (ref ANT1) (pin 4)))
    (net (code 6) (name /GPIO6)
      (node (ref U2) (pin 47))
      (node (ref J4) (pin 6)))
    (net (code 7) (name /HRXD)
      (node (ref Q5) (pin 3))
      (node (ref J7) (pin 3))
      (node (ref R33) (pin 2)))
    (net (code 8) (name "Net-(Q4-Pad3)")
      (node (ref R21) (pin 1))
      (node (ref Q4) (pin 3)))
    (net (code 9) (name /LRTS)
      (node (ref U2) (pin 8))
      (node (ref J1) (pin 9)))
    (net (code 10) (name "Net-(Q3-Pad3)")
      (node (ref R20) (pin 1))
      (node (ref Q3) (pin 3)))
    (net (code 11) (name "Net-(Q4-Pad1)")
      (node (ref Q4) (pin 1))
      (node (ref R14) (pin 2))
      (node (ref R16) (pin 1)))
    (net (code 12) (name /LTXD)
      (node (ref Q6) (pin 2))
      (node (ref R32) (pin 2))
      (node (ref J1) (pin 6))
      (node (ref U2) (pin 9)))
    (net (code 13) (name /LRXD)
      (node (ref J1) (pin 8))
      (node (ref Q5) (pin 2))
      (node (ref U2) (pin 10))
      (node (ref R31) (pin 1)))
    (net (code 14) (name /CTS)
      (node (ref U2) (pin 7))
      (node (ref J1) (pin 7)))
    (net (code 15) (name "Net-(AT1-Pad1)")
      (node (ref C14) (pin 1))
      (node (ref R6) (pin 1))
      (node (ref R10) (pin 2))
      (node (ref AT1) (pin 1)))
    (net (code 16) (name "Net-(D2-Pad1)")
      (node (ref R21) (pin 2))
      (node (ref D2) (pin 1)))
    (net (code 17) (name /STATUS)
      (node (ref R14) (pin 1))
      (node (ref U2) (pin 66)))
    (net (code 18) (name "Net-(C8-Pad1)")
      (node (ref J13) (pin 5))
      (node (ref C8) (pin 1)))
    (net (code 19) (name "Net-(C16-Pad1)")
      (node (ref C16) (pin 1))
      (node (ref MIC1) (pin 2))
      (node (ref MIC1) (pin 3))
      (node (ref R11) (pin 2)))
    (net (code 20) (name /PWM2)
      (node (ref J13) (pin 2))
      (node (ref U2) (pin 36)))
    (net (code 21) (name /SDA)
      (node (ref J2) (pin 9))
      (node (ref J2) (pin 10)))
    (net (code 22) (name GND)
      (node (ref P3) (pin 1))
      (node (ref C17) (pin 2))
      (node (ref U2) (pin 62))
      (node (ref U2) (pin 20))
      (node (ref U2) (pin 46))
      (node (ref U2) (pin 65))
      (node (ref U2) (pin 45))
      (node (ref U2) (pin 64))
      (node (ref U2) (pin 54))
      (node (ref U2) (pin 63))
      (node (ref U2) (pin 53))
      (node (ref U2) (pin 61))
      (node (ref R1) (pin 2))
      (node (ref U1) (pin 7))
      (node (ref C3) (pin 2))
      (node (ref C2) (pin 2))
      (node (ref C20) (pin 1))
      (node (ref C18) (pin 2))
      (node (ref C22) (pin 1))
      (node (ref C23) (pin 1))
      (node (ref R15) (pin 2))
      (node (ref R16) (pin 2))
      (node (ref Q3) (pin 2))
      (node (ref Q4) (pin 2))
      (node (ref U2) (pin 17))
      (node (ref U2) (pin 18))
      (node (ref U2) (pin 58))
      (node (ref U2) (pin 29))
      (node (ref U2) (pin 39))
      (node (ref U2) (pin 59))
      (node (ref C15) (pin 2))
      (node (ref C16) (pin 2))
      (node (ref R2) (pin 1))
      (node (ref P2) (pin 1))
      (node (ref R9) (pin 2))
      (node (ref VBAT1) (pin 2))
      (node (ref J13) (pin 4))
      (node (ref J1) (pin 2))
      (node (ref C9) (pin 2))
      (node (ref D1) (pin 2))
      (node (ref J5) (pin 7))
      (node (ref J11) (pin 3))
      (node (ref J11) (pin 4))
      (node (ref J5) (pin 8))
      (node (ref J5) (pin 9))
      (node (ref J5) (pin 10))
      (node (ref Q1) (pin 2))
      (node (ref J14) (pin 2))
      (node (ref SIMHOLDER3) (pin 6))
      (node (ref C13) (pin 2))
      (node (ref C14) (pin 2))
      (node (ref R10) (pin 1))
      (node (ref AT1) (pin 2))
      (node (ref C6) (pin 2))
      (node (ref C4) (pin 2))
      (node (ref C5) (pin 2))
      (node (ref R4) (pin 2))
      (node (ref C11) (pin 2))
      (node (ref P1) (pin 2))
      (node (ref C1) (pin 2))
      (node (ref C12) (pin 2))
      (node (ref MIC1) (pin 1))
      (node (ref SPK1) (pin 1))
      (node (ref D6) (pin 1)))
    (net (code 23) (name /SCL)
      (node (ref J2) (pin 12))
      (node (ref J2) (pin 11)))
    (net (code 24) (name /VBOARD)
      (node (ref J5) (pin 5))
      (node (ref D2) (pin 2))
      (node (ref J5) (pin 6))
      (node (ref R7) (pin 1))
      (node (ref JP1) (pin 3))
      (node (ref D3) (pin 2)))
    (net (code 25) (name /MTXD)
      (node (ref J8) (pin 15))
      (node (ref J8) (pin 16))
      (node (ref J7) (pin 2)))
    (net (code 26) (name /MRXD)
      (node (ref J8) (pin 14))
      (node (ref J8) (pin 13))
      (node (ref J7) (pin 1)))
    (net (code 27) (name /STXD)
      (node (ref J8) (pin 1))
      (node (ref J7) (pin 6))
      (node (ref J8) (pin 2)))
    (net (code 28) (name /SRXD)
      (node (ref J11) (pin 15))
      (node (ref J11) (pin 16))
      (node (ref J7) (pin 5)))
    (net (code 29) (name /D9)
      (node (ref J11) (pin 14))
      (node (ref J11) (pin 13))
      (node (ref GS1) (pin 2)))
    (net (code 30) (name /Vext12)
      (node (ref GS3) (pin 2))
      (node (ref J5) (pin 12))
      (node (ref J5) (pin 11)))
    (net (code 31) (name /LDTR)
      (node (ref J1) (pin 10))
      (node (ref U2) (pin 3)))
    (net (code 32) (name /DSR)
      (node (ref U2) (pin 6))
      (node (ref J1) (pin 5)))
    (net (code 33) (name "Net-(J5-Pad3)")
      (node (ref J5) (pin 4))
      (node (ref J5) (pin 3)))
    (net (code 34) (name "Net-(J5-Pad1)")
      (node (ref J5) (pin 2))
      (node (ref J5) (pin 1)))
    (net (code 35) (name "Net-(J8-Pad11)")
      (node (ref J8) (pin 12))
      (node (ref J8) (pin 11)))
    (net (code 36) (name "Net-(J8-Pad10)")
      (node (ref J8) (pin 10))
      (node (ref J8) (pin 9)))
    (net (code 37) (name "Net-(J8-Pad7)")
      (node (ref J8) (pin 8))
      (node (ref J8) (pin 7)))
    (net (code 38) (name "Net-(J8-Pad5)")
      (node (ref J8) (pin 6))
      (node (ref J8) (pin 5)))
    (net (code 39) (name "Net-(J8-Pad3)")
      (node (ref J8) (pin 3))
      (node (ref J8) (pin 4)))
    (net (code 40) (name "Net-(J11-Pad1)")
      (node (ref J11) (pin 1))
      (node (ref J11) (pin 2)))
    (net (code 41) (name "Net-(J11-Pad5)")
      (node (ref J11) (pin 6))
      (node (ref J11) (pin 5)))
    (net (code 42) (name "Net-(J11-Pad7)")
      (node (ref J11) (pin 7))
      (node (ref J11) (pin 8)))
    (net (code 43) (name "Net-(J11-Pad10)")
      (node (ref J11) (pin 10))
      (node (ref J11) (pin 9)))
    (net (code 44) (name "Net-(J11-Pad11)")
      (node (ref J11) (pin 12))
      (node (ref J11) (pin 11)))
    (net (code 45) (name "Net-(C5-Pad1)")
      (node (ref R5) (pin 2))
      (node (ref C5) (pin 1)))
    (net (code 46) (name "Net-(J2-Pad7)")
      (node (ref J2) (pin 7))
      (node (ref J2) (pin 8)))
    (net (code 47) (name "Net-(J2-Pad5)")
      (node (ref J2) (pin 6))
      (node (ref J2) (pin 5)))
    (net (code 48) (name "Net-(J2-Pad3)")
      (node (ref J2) (pin 3))
      (node (ref J2) (pin 4)))
    (net (code 49) (name "Net-(J2-Pad1)")
      (node (ref J2) (pin 1))
      (node (ref J2) (pin 2)))
    (net (code 50) (name "Net-(U2-Pad38)")
      (node (ref U2) (pin 38)))
    (net (code 51) (name /HTXD)
      (node (ref R34) (pin 2))
      (node (ref Q6) (pin 3))
      (node (ref J7) (pin 4)))
    (net (code 52) (name "Net-(U2-Pad37)")
      (node (ref U2) (pin 37)))
    (net (code 53) (name "Net-(ANT1-Pad1)")
      (node (ref ANT1) (pin 1)))
    (net (code 54) (name "Net-(D4-Pad1)")
      (node (ref GS3) (pin 1))
      (node (ref JP1) (pin 1))
      (node (ref D4) (pin 1)))
    (net (code 55) (name /VIN)
      (node (ref C3) (pin 1))
      (node (ref JP1) (pin 2))
      (node (ref C2) (pin 1))
      (node (ref U1) (pin 2))
      (node (ref C1) (pin 1)))
    (net (code 56) (name "Net-(D4-Pad2)")
      (node (ref P1) (pin 1))
      (node (ref D4) (pin 2)))
    (net (code 57) (name "Net-(K1-Pad2)")
      (node (ref K1) (pin 2))
      (node (ref U2) (pin 2)))
    (net (code 58) (name /SIM_VDD)
      (node (ref U2) (pin 30))
      (node (ref C20) (pin 2))
      (node (ref SIMHOLDER3) (pin 1)))
    (net (code 59) (name /SIM_DATA)
      (node (ref U2) (pin 31))
      (node (ref R19) (pin 1)))
    (net (code 60) (name /SIM_CLK)
      (node (ref U2) (pin 32))
      (node (ref R18) (pin 2)))
    (net (code 61) (name /SIM_RST)
      (node (ref U2) (pin 33))
      (node (ref R17) (pin 1)))
    (net (code 62) (name /LINEIN_L)
      (node (ref U2) (pin 24))
      (node (ref C8) (pin 2)))
    (net (code 63) (name /VDD_EXT)
      (node (ref U2) (pin 15))
      (node (ref R32) (pin 1))
      (node (ref J1) (pin 4))
      (node (ref R31) (pin 2))
      (node (ref Q6) (pin 1))
      (node (ref Q5) (pin 1)))
    (net (code 64) (name /VRTC)
      (node (ref U2) (pin 26))
      (node (ref C6) (pin 1))
      (node (ref J14) (pin 1)))
    (net (code 65) (name /SPK_P)
      (node (ref C18) (pin 1))
      (node (ref C21) (pin 2))
      (node (ref C19) (pin 2))
      (node (ref C17) (pin 1))
      (node (ref U2) (pin 21))
      (node (ref SPK1) (pin 2)))
    (net (code 66) (name /SPK_N)
      (node (ref U2) (pin 22))
      (node (ref C21) (pin 1))
      (node (ref C22) (pin 2))
      (node (ref C19) (pin 1))
      (node (ref C23) (pin 2))
      (node (ref SPK1) (pin 3)))
    (net (code 67) (name /GPIO11)
      (node (ref U2) (pin 67))
      (node (ref J4) (pin 11)))
    (net (code 68) (name /DCD)
      (node (ref U2) (pin 5))
      (node (ref J1) (pin 3)))
    (net (code 69) (name /RI)
      (node (ref U2) (pin 4))
      (node (ref J1) (pin 1)))
    (net (code 70) (name /DISP_CLK)
      (node (ref J10) (pin 1))
      (node (ref U2) (pin 11)))
    (net (code 71) (name /DISP_DATA)
      (node (ref U2) (pin 12))
      (node (ref J10) (pin 2)))
    (net (code 72) (name /DISP_D/C)
      (node (ref J10) (pin 3))
      (node (ref U2) (pin 13)))
    (net (code 73) (name /DISP_CS)
      (node (ref J10) (pin 4))
      (node (ref U2) (pin 14)))
    (net (code 74) (name /LDBG_TX)
      (node (ref U2) (pin 27)))
    (net (code 75) (name /LDBG_RX)
      (node (ref U2) (pin 28)))
    (net (code 76) (name /ADC)
      (node (ref J13) (pin 3))
      (node (ref U2) (pin 25)))
    (net (code 77) (name /PWM1)
      (node (ref U2) (pin 35))
      (node (ref J13) (pin 1)))
    (net (code 78) (name /MIC_P)
      (node (ref C15) (pin 1))
      (node (ref U2) (pin 19))
      (node (ref R11) (pin 1)))
    (net (code 79) (name /GPIO12)
      (node (ref U2) (pin 68))
      (node (ref J4) (pin 12)))
    (net (code 80) (name /GPIO1)
      (node (ref U2) (pin 40))
      (node (ref J4) (pin 1)))
    (net (code 81) (name /GPIO2)
      (node (ref J4) (pin 2))
      (node (ref U2) (pin 41)))
    (net (code 82) (name /GPIO3)
      (node (ref U2) (pin 42))
      (node (ref J4) (pin 3)))
    (net (code 83) (name /GPIO4)
      (node (ref J4) (pin 4))
      (node (ref U2) (pin 43)))
    (net (code 84) (name /GPIO5)
      (node (ref U2) (pin 44))
      (node (ref J4) (pin 5)))
    (net (code 85) (name /GPIO7)
      (node (ref J4) (pin 7))
      (node (ref U2) (pin 48)))
    (net (code 86) (name /GPIO8)
      (node (ref J4) (pin 8))
      (node (ref U2) (pin 49)))
    (net (code 87) (name /GPIO9)
      (node (ref J4) (pin 9))
      (node (ref U2) (pin 50)))
    (net (code 88) (name /GPIO10)
      (node (ref J4) (pin 10))
      (node (ref U2) (pin 51)))
    (net (code 89) (name /LINEIN_R)
      (node (ref C7) (pin 1))
      (node (ref U2) (pin 23)))
    (net (code 90) (name "Net-(C4-Pad1)")
      (node (ref R5) (pin 1))
      (node (ref U1) (pin 6))
      (node (ref C4) (pin 1)))
    (net (code 91) (name "Net-(R1-Pad1)")
      (node (ref R1) (pin 1))
      (node (ref U1) (pin 4)))
    (net (code 92) (name "Net-(C7-Pad2)")
      (node (ref J13) (pin 6))
      (node (ref C7) (pin 2)))
    (net (code 93) (name "Net-(C10-Pad2)")
      (node (ref U1) (pin 1))
      (node (ref C10) (pin 2)))
    (net (code 94) (name "Net-(C10-Pad1)")
      (node (ref D6) (pin 2))
      (node (ref U1) (pin 8))
      (node (ref L1) (pin 1))
      (node (ref C10) (pin 1)))
    (net (code 95) (name "Net-(R4-Pad1)")
      (node (ref U1) (pin 5))
      (node (ref R88) (pin 2))
      (node (ref R4) (pin 1)))
    (net (code 96) (name /NETLIGHT)
      (node (ref U2) (pin 52))
      (node (ref R13) (pin 1)))
    (net (code 97) (name "Net-(GS1-Pad1)")
      (node (ref GS1) (pin 1))
      (node (ref R3) (pin 2)))
    (net (code 98) (name /RF_ANT)
      (node (ref R6) (pin 2))
      (node (ref U2) (pin 60))
      (node (ref C13) (pin 1)))
    (net (code 99) (name "Net-(R19-Pad2)")
      (node (ref R19) (pin 2))
      (node (ref SIMHOLDER3) (pin 4)))
    (net (code 100) (name /PWRKEY)
      (node (ref K1) (pin 1))
      (node (ref U2) (pin 1))
      (node (ref Q1) (pin 3)))
    (net (code 101) (name "Net-(C9-Pad1)")
      (node (ref R34) (pin 1))
      (node (ref C9) (pin 1))
      (node (ref D1) (pin 1))
      (node (ref R7) (pin 2))
      (node (ref R33) (pin 1))
      (node (ref R9) (pin 1)))
    (net (code 102) (name "Net-(Q1-Pad1)")
      (node (ref Q1) (pin 1))
      (node (ref R2) (pin 2))
      (node (ref R3) (pin 1)))
    (net (code 103) (name "Net-(SIMHOLDER3-Pad5)")
      (node (ref SIMHOLDER3) (pin 5)))
    (net (code 104) (name "Net-(U1-Pad3)")
      (node (ref U1) (pin 3)))
    (net (code 105) (name "Net-(U1-Pad9)")
      (node (ref U1) (pin 9)))
    (net (code 106) (name "Net-(U2-Pad34)")
      (node (ref U2) (pin 34)))
    (net (code 107) (name "Net-(U2-Pad16)")
      (node (ref U2) (pin 16)))
    (net (code 108) (name /VBAT)
      (node (ref C11) (pin 1))
      (node (ref C12) (pin 1))
      (node (ref R88) (pin 1))
      (node (ref L1) (pin 2))
      (node (ref VBAT1) (pin 1))
      (node (ref U2) (pin 55))
      (node (ref U2) (pin 56))
      (node (ref U2) (pin 57)))))