EESchema Schematic File Version 2
LIBS:NOVVO_GPRSshield_v1-1-rescue
LIBS:74xgxx
LIBS:74xx
LIBS:ac-dc
LIBS:actel
LIBS:adc-dac
LIBS:analog_switches
LIBS:atmel
LIBS:audio
LIBS:brooktre
LIBS:cmos4000
LIBS:cmos_ieee
LIBS:conn
LIBS:contrib
LIBS:cypress
LIBS:dc-dc
LIBS:device
LIBS:digital-audio
LIBS:display
LIBS:dsp
LIBS:elec-unifil
LIBS:ftdi
LIBS:gennum
LIBS:graphic
LIBS:hc11
LIBS:intel
LIBS:interface
LIBS:ir
LIBS:linear
LIBS:logo
LIBS:memory
LIBS:microchip
LIBS:microchip_pic10mcu
LIBS:microchip_pic12mcu
LIBS:microchip_pic16mcu
LIBS:microchip_pic18mcu
LIBS:microchip_pic32mcu
LIBS:microcontrollers
LIBS:motorola
LIBS:msp430
LIBS:nordicsemi
LIBS:nxp_armmcu
LIBS:opto
LIBS:philips
LIBS:power
LIBS:powerint
LIBS:pspice
LIBS:references
LIBS:regul
LIBS:relays
LIBS:rfcom
LIBS:sensors
LIBS:silabs
LIBS:siliconi
LIBS:special
LIBS:stm8
LIBS:stm32
LIBS:supertex
LIBS:texas
LIBS:transf
LIBS:transistors
LIBS:ttl_ieee
LIBS:valves
LIBS:video
LIBS:xilinx
LIBS:w_device
LIBS:NOVVO_GPRSshield_v1-1-cache
EELAYER 25 0
EELAYER END
$Descr A3 16535 11693
encoding utf-8
Sheet 1 1
Title "GPRSshield v1.4.sch"
Date "29 APR 2015"
Rev ""
Comp ""
Comment1 ""
Comment2 ""
Comment3 ""
Comment4 ""
$EndDescr
Text Notes 5700 6250 0    40   ~ 0
close to connector
Text Notes 5150 5900 0    40   ~ 0
debug
Text Notes 893  850  0    70   ~ 0
power supply
Text Notes 2350 2850 0    40   ~ 0
The power trace should be short and wide, recommended above 80mil
Text Notes 2350 2950 0    40   ~ 0
The ground layer (top and bottom) must be connected with many vias, 
Text Notes 2350 3050 0    40   ~ 0
especially under the module's shield case.
Text Notes 907  3250 0    70   ~ 0
Uart voltage level shift
Text Notes 3050 4600 0    40   ~ 0
R7=510R,0603 package,max power is 1/10.
Text Notes 2850 4700 0    40   ~ 0
R7 disappear power =(Vin-Vz)2/R7, less than 1/10, is OK
Text Notes 896  6250 0    70   ~ 0
RTC battery
Text Notes 886  4950 0    70   ~ 0
SIM card holder
Text Notes 5700 1217 0    70   ~ 0
GPRS moudle
Text Notes 9375 1075 0    70   ~ 0
connector
$Comp
L HEADER_4 ANT1
U 1 1 55429AD7
P 11250 5800
F 0 "ANT1" H 11151 6000 70  0000 L BNN
F 1 "~" H 11250 5800 60  0001 C CNN
F 2 "w_conn_rf:sma_90_r300.124.403" H 11250 5800 60  0001 C CNN
F 3 "" H 11250 5800 60  0001 C CNN
	1    11250 5800
	-1   0    0    -1  
$EndComp
$Comp
L C C7
U 1 1 5540CB48
P 11750 4750
F 0 "C7" H 11600 4750 40  0000 L BNN
F 1 "2.2u" H 11750 4750 40  0000 L BNN
F 2 "Capacitors_SMD:C_0805" H 11750 4750 60  0001 C CNN
F 3 "" H 11750 4750 60  0001 C CNN
	1    11750 4750
	0    1    1    0   
$EndComp
$Comp
L C C8
U 1 1 55429AEF
P 11750 4950
F 0 "C8" H 11600 4950 40  0000 L BNN
F 1 "2.2u" H 11750 4950 40  0000 L BNN
F 2 "Capacitors_SMD:C_0805" H 11750 4950 60  0001 C CNN
F 3 "" H 11750 4950 60  0001 C CNN
	1    11750 4950
	0    -1   -1   0   
$EndComp
$Comp
L C C9
U 1 1 55429AEE
P 3700 4000
F 0 "C9" H 3550 4000 50  0000 L BNN
F 1 "1uF" H 3700 4000 50  0000 L BNN
F 2 "Capacitors_SMD:C_0805" H 3700 4000 60  0001 C CNN
F 3 "" H 3700 4000 60  0001 C CNN
	1    3700 4000
	1    0    0    -1  
$EndComp
$Comp
L ZENERsmall D1
U 1 1 55429AED
P 3900 4000
F 0 "D1" H 3750 4100 70  0000 L BNN
F 1 "MMSZ4689-V" H 3700 4300 70  0000 L BNN
F 2 "Diodes_SMD:Diode-MiniMELF_Standard" H 3900 4000 60  0001 C CNN
F 3 "" H 3900 4000 60  0001 C CNN
	1    3900 4000
	0    1    1    0   
$EndComp
$Comp
L HEADER_5x2 J1
U 1 1 55429AEC
P 11400 1850
F 0 "J1" H 11251 2100 40  0000 L BNN
F 1 "~" V 11449 1650 70  0000 L BNN
F 2 "Socket_Strips:Socket_Strip_Straight_2x05" H 11400 1850 60  0001 C CNN
F 3 "" H 11400 1850 60  0001 C CNN
	1    11400 1850
	1    0    0    -1  
$EndComp
$Comp
L HEADER_6x2 J2
U 1 1 55429AEB
P 10050 1900
F 0 "J2" H 9770 2220 40  0000 L BNN
F 1 "6p male dowm" H 9760 1540 40  0000 L BNN
F 2 "Socket_Strips:Socket_Strip_Straight_2x06" H 10050 1900 60  0001 C CNN
F 3 "" H 10050 1900 60  0001 C CNN
	1    10050 1900
	-1   0    0    1   
$EndComp
$Comp
L HEADER_6x2 J4
U 1 1 55429AEA
P 11450 2650
F 0 "J4" H 11251 2950 40  0000 L BNN
F 1 "CK_2X6" H 11250 2250 40  0000 L BNN
F 2 "Socket_Strips:Socket_Strip_Straight_2x06" H 11450 2650 60  0001 C CNN
F 3 "" H 11450 2650 60  0001 C CNN
	1    11450 2650
	1    0    0    -1  
$EndComp
$Comp
L HEADER_6x2 J5
U 1 1 55429AE9
P 10050 2900
F 0 "J5" H 9770 3220 40  0000 L BNN
F 1 "6p male dowm" H 9760 2540 40  0000 L BNN
F 2 "Socket_Strips:Socket_Strip_Straight_2x06" H 10050 2900 60  0001 C CNN
F 3 "" H 10050 2900 60  0001 C CNN
	1    10050 2900
	-1   0    0    1   
$EndComp
$Comp
L HEADER_3x2 J7
U 1 1 55429AE7
P 11450 3550
F 0 "J7" H 11250 3770 40  0000 L BNN
F 1 "CK_2X3_DD" H 11250 3280 40  0000 L BNN
F 2 "Socket_Strips:Socket_Strip_Straight_2x03" H 11450 3550 60  0001 C CNN
F 3 "" H 11450 3550 60  0001 C CNN
	1    11450 3550
	1    0    0    -1  
$EndComp
$Comp
L HEADER_8x2 J8
U 1 1 55429AE6
P 10050 3900
F 0 "J8" H 9950 4330 40  0000 L BNN
F 1 "8p male dowm" H 9951 3430 40  0000 L BNN
F 2 "Socket_Strips:Socket_Strip_Straight_2x08" H 10050 3900 60  0001 C CNN
F 3 "" H 10050 3900 60  0001 C CNN
	1    10050 3900
	-1   0    0    1   
$EndComp
$Comp
L HEADER_4 J10
U 1 1 55429AE4
P 11350 4400
F 0 "J10" H 11200 4600 40  0000 L BNN
F 1 "~" V 11350 4250 50  0000 L BNN
F 2 "Socket_Strips:Socket_Strip_Straight_1x04" H 11350 4400 60  0001 C CNN
F 3 "" H 11350 4400 60  0001 C CNN
	1    11350 4400
	-1   0    0    -1  
$EndComp
$Comp
L HEADER_8x2 J11
U 1 1 55429AE3
P 10050 5050
F 0 "J11" H 9950 5480 40  0000 L BNN
F 1 "8p female up" H 9951 4580 40  0000 L BNN
F 2 "Socket_Strips:Socket_Strip_Straight_2x08" H 10050 5050 60  0001 C CNN
F 3 "" H 10050 5050 60  0001 C CNN
	1    10050 5050
	-1   0    0    1   
$EndComp
$Comp
L HEADER_6 J13
U 1 1 55429AE2
P 11250 5100
F 0 "J13" H 10970 5420 40  0000 L BNN
F 1 "~" H 10960 4740 50  0000 L BNN
F 2 "Socket_Strips:Socket_Strip_Straight_1x06" H 11250 5100 60  0001 C CNN
F 3 "" H 11250 5100 60  0001 C CNN
	1    11250 5100
	-1   0    0    1   
$EndComp
$Comp
L GS2 P2
U 1 1 55429AE1
P 11550 6150
F 0 "P2" H 11450 6260 50  0000 L BNN
F 1 "~" H 11550 6150 60  0001 C CNN
F 2 "Connect:GS2" H 11550 6150 60  0001 C CNN
F 3 "" H 11550 6150 60  0001 C CNN
	1    11550 6150
	-1   0    0    1   
$EndComp
$Comp
L R R7
U 1 1 55429ADE
P 3900 3650
F 0 "R7" H 3750 3650 50  0000 L BNN
F 1 "510R" H 3900 3650 50  0000 L BNN
F 2 "Resistors_SMD:R_0805" H 3900 3650 60  0001 C CNN
F 3 "" H 3900 3650 60  0001 C CNN
	1    3900 3650
	1    0    0    -1  
$EndComp
$Comp
L R R9
U 1 1 55429AD9
P 3500 4000
F 0 "R9" H 3350 4000 50  0000 L BNN
F 1 "DNP" H 3500 4000 50  0000 L BNN
F 2 "Resistors_SMD:R_0805" H 3500 4000 60  0001 C CNN
F 3 "" H 3500 4000 60  0001 C CNN
	1    3500 4000
	1    0    0    -1  
$EndComp
$Comp
L HEADER_2 VBAT1
U 1 1 55429AD8
P 9700 5900
F 0 "VBAT1" V 9530 5999 40  0000 L BNN
F 1 "DNP" H 9700 6050 70  0000 L BNN
F 2 "Socket_Strips:Socket_Strip_Straight_1x02" H 9700 5900 60  0001 C CNN
F 3 "" H 9700 5900 60  0001 C CNN
	1    9700 5900
	-1   0    0    -1  
$EndComp
Text Label 6300 4400 2    40   ~ 0
ADC
Text Label 11650 5150 2    40   ~ 0
ADC
Text Label 6300 2300 2    40   ~ 0
CTS
Text Label 11000 1950 0    40   ~ 0
CTS
Text Label 9700 4800 0    40   ~ 0
D9
Text Label 6300 2700 2    40   ~ 0
DCD
Text Label 11000 1750 0    40   ~ 0
DCD
Text Label 6300 3300 2    40   ~ 0
DISP_CLK
Text Label 11700 4250 2    40   ~ 0
DISP_CLK
Text Label 6300 3600 2    40   ~ 0
DISP_CS
Text Label 11700 4550 2    40   ~ 0
DISP_CS
Text Label 6300 3500 2    40   ~ 0
DISP_D/C
Text Label 11700 4450 2    40   ~ 0
DISP_D/C
Text Label 6300 3400 2    40   ~ 0
DISP_DATA
Text Label 11700 4350 2    40   ~ 0
DISP_DATA
Text Label 6300 2500 2    40   ~ 0
DSR
Text Label 11000 1850 0    40   ~ 0
DSR
Text Label 8600 4000 0    40   ~ 0
GPIO1
Text Label 11000 2400 0    40   ~ 0
GPIO1
Text Label 8600 4100 0    40   ~ 0
GPIO2
Text Label 11900 2400 2    40   ~ 0
GPIO2
Text Label 8600 4200 0    40   ~ 0
GPIO3
Text Label 11000 2500 0    40   ~ 0
GPIO3
Text Label 8600 4300 0    40   ~ 0
GPIO4
Text Label 11900 2500 2    40   ~ 0
GPIO4
Text Label 8600 4400 0    40   ~ 0
GPIO5
Text Label 11000 2600 0    40   ~ 0
GPIO5
Text Label 8600 4500 0    40   ~ 0
GPIO6
Text Label 11900 2600 2    40   ~ 0
GPIO6
Text Label 8600 4600 0    40   ~ 0
GPIO7
Text Label 11000 2700 0    40   ~ 0
GPIO7
Text Label 8600 4700 0    40   ~ 0
GPIO8
Text Label 11900 2700 2    40   ~ 0
GPIO8
Text Label 8600 4800 0    40   ~ 0
GPIO9
Text Label 11000 2800 0    40   ~ 0
GPIO9
Text Label 8600 4900 0    40   ~ 0
GPIO10
Text Label 11900 2800 2    40   ~ 0
GPIO10
Text Label 6300 4900 2    40   ~ 0
GPIO11
Text Label 11000 2900 0    40   ~ 0
GPIO11
Text Label 6300 5000 2    40   ~ 0
GPIO12
Text Label 11900 2900 2    40   ~ 0
GPIO12
Text Label 2800 3850 0    40   ~ 0
HRXD
Text Label 11050 3550 0    40   ~ 0
HRXD
Text Label 2800 4350 0    40   ~ 0
HTXD
Text Label 11900 3550 2    40   ~ 0
HTXD
Text Label 6300 4200 2    40   ~ 0
LDBG_RX
Text Label 6300 4100 2    40   ~ 0
LDBG_TX
Text Label 6300 2600 2    40   ~ 0
LDTR
Text Label 11800 2050 2    40   ~ 0
LDTR
Text Label 8600 3100 0    40   ~ 0
LINEIN_L
Text Label 12100 4950 2    40   ~ 0
LINEIN_L
Text Label 8600 3000 0    40   ~ 0
LINEIN_R
Text Label 12100 4850 2    40   ~ 0
LINEIN_R
Text Label 6300 2400 2    40   ~ 0
LRTS
Text Label 11000 2050 0    40   ~ 0
LRTS
Text Label 6300 2200 2    40   ~ 0
LRXD
Text Label 2000 3850 0    40   ~ 0
LRXD
Text Label 11800 1950 2    40   ~ 0
LRXD
Text Label 6300 2100 2    40   ~ 0
LTXD
Text Label 2000 4350 0    40   ~ 0
LTXD
Text Label 11800 1850 2    40   ~ 0
LTXD
Text Label 9700 3650 0    40   ~ 0
MRXD
Text Label 11050 3450 0    40   ~ 0
MRXD
Text Label 9700 3550 0    40   ~ 0
MTXD
Text Label 11900 3450 2    40   ~ 0
MTXD
Text Label 6300 4500 2    40   ~ 0
PWM1
Text Label 11650 5350 2    40   ~ 0
PWM1
Text Label 6300 4600 2    40   ~ 0
PWM2
Text Label 11650 5250 2    40   ~ 0
PWM2
Text Label 6300 3100 2    40   ~ 0
PWRKEY
Text Label 6300 2800 2    40   ~ 0
RI
Text Label 11000 1650 0    40   ~ 0
RI
Text Label 9750 1650 0    40   ~ 0
SCL
Text Label 9750 1750 0    40   ~ 0
SDA
Text Label 8600 3500 0    40   ~ 0
SIM_CLK
Text Label 1800 5600 2    40   ~ 0
SIM_CLK
Text Label 8600 3400 0    40   ~ 0
SIM_DATA
Text Label 3750 5600 0    40   ~ 0
SIM_DATA
Text Label 8600 3600 0    40   ~ 0
SIM_RST
Text Label 1800 5500 2    40   ~ 0
SIM_RST
Text Label 8600 3300 0    40   ~ 0
SIM_VDD
Text Label 1800 5400 2    40   ~ 0
SIM_VDD
Text Label 11050 3650 0    40   ~ 0
SRXD
Text Label 9700 4700 0    40   ~ 0
SRXD
Text Label 11900 3650 2    40   ~ 0
STXD
Text Label 9700 4250 0    40   ~ 0
STXD
Text Label 7950 1350 0    40   ~ 0
VBAT
Text Label 9900 5850 0    40   ~ 0
VBAT
Text Label 9650 2950 0    40   ~ 0
VBOARD
Text Label 7150 1350 1    40   ~ 0
VDD_EXT
Text Label 2000 3550 0    40   ~ 0
VDD_EXT
Text Label 2000 4050 0    40   ~ 0
VDD_EXT
Text Label 11800 1750 2    40   ~ 0
VDD_EXT
Text Label 3900 3400 0    70   ~ 0
VBOARD
Text Label 7350 1350 1    40   ~ 0
VRTC
Text Label 3450 6750 0    40   ~ 0
VRTC
$Comp
L SIM900 U2
U 1 1 5540F4A4
P 7450 3500
F 0 "U2" H 6650 5450 50  0000 L CNN
F 1 "SIM900" H 6650 5350 50  0000 L CNN
F 2 "propiosFP:sim900FP" H 5400 4650 60  0001 C CNN
F 3 "" H 5400 4650 60  0000 C CNN
	1    7450 3500
	1    0    0    -1  
$EndComp
$Comp
L C C15
U 1 1 55438C30
P 6200 6400
F 0 "C15" H 6225 6500 50  0000 L CNN
F 1 "C" H 6225 6300 50  0000 L CNN
F 2 "Capacitors_SMD:C_0805" H 6238 6250 30  0001 C CNN
F 3 "" H 6200 6400 60  0000 C CNN
	1    6200 6400
	0    1    1    0   
$EndComp
$Comp
L C C16
U 1 1 55438CF1
P 6200 6700
F 0 "C16" H 6225 6800 50  0000 L CNN
F 1 "C16" H 6225 6600 50  0000 L CNN
F 2 "Capacitors_SMD:C_0805" H 6238 6550 30  0001 C CNN
F 3 "" H 6200 6700 60  0000 C CNN
	1    6200 6700
	0    1    1    0   
$EndComp
$Comp
L C C17
U 1 1 55438DA2
P 6800 6400
F 0 "C17" H 6825 6500 50  0000 L CNN
F 1 "C" H 6825 6300 50  0000 L CNN
F 2 "Capacitors_SMD:C_0805" H 6838 6250 30  0001 C CNN
F 3 "" H 6800 6400 60  0000 C CNN
	1    6800 6400
	0    1    1    0   
$EndComp
$Comp
L C C18
U 1 1 55438E7B
P 6800 6700
F 0 "C18" H 6825 6800 50  0000 L CNN
F 1 "C" H 6825 6600 50  0000 L CNN
F 2 "Capacitors_SMD:C_0805" H 6838 6550 30  0001 C CNN
F 3 "" H 6800 6700 60  0000 C CNN
	1    6800 6700
	0    1    1    0   
$EndComp
$Comp
L R R11
U 1 1 55439F94
P 6400 6550
F 0 "R11" V 6480 6550 50  0000 C CNN
F 1 "R" V 6400 6550 50  0000 C CNN
F 2 "Resistors_SMD:R_0805" V 6330 6550 30  0001 C CNN
F 3 "" H 6400 6550 30  0000 C CNN
	1    6400 6550
	1    0    0    -1  
$EndComp
$Comp
L C C19
U 1 1 5543A90D
P 7150 6400
F 0 "C19" H 7175 6500 50  0000 L CNN
F 1 "C" H 7175 6300 50  0000 L CNN
F 2 "Capacitors_SMD:C_0805" H 7188 6250 30  0001 C CNN
F 3 "" H 7150 6400 60  0000 C CNN
	1    7150 6400
	0    1    1    0   
$EndComp
$Comp
L C C21
U 1 1 5543AA89
P 7150 6700
F 0 "C21" H 7175 6800 50  0000 L CNN
F 1 "C" H 7175 6600 50  0000 L CNN
F 2 "Capacitors_SMD:C_0805" H 7188 6550 30  0001 C CNN
F 3 "" H 7150 6700 60  0000 C CNN
	1    7150 6700
	0    1    1    0   
$EndComp
$Comp
L C C22
U 1 1 5543AB52
P 7500 6400
F 0 "C22" H 7525 6500 50  0000 L CNN
F 1 "C" H 7525 6300 50  0000 L CNN
F 2 "Capacitors_SMD:C_0805" H 7538 6250 30  0001 C CNN
F 3 "" H 7500 6400 60  0000 C CNN
	1    7500 6400
	0    1    1    0   
$EndComp
$Comp
L C C23
U 1 1 5543AC19
P 7500 6700
F 0 "C23" H 7525 6800 50  0000 L CNN
F 1 "C" H 7525 6600 50  0000 L CNN
F 2 "Capacitors_SMD:C_0805" H 7538 6550 30  0001 C CNN
F 3 "" H 7500 6700 60  0000 C CNN
	1    7500 6700
	0    1    1    0   
$EndComp
$Comp
L R R13
U 1 1 5543D511
P 8100 6600
F 0 "R13" V 8180 6600 50  0000 C CNN
F 1 "R" V 8100 6600 50  0000 C CNN
F 2 "Resistors_SMD:R_0805" V 8030 6600 30  0001 C CNN
F 3 "" H 8100 6600 30  0000 C CNN
	1    8100 6600
	1    0    0    -1  
$EndComp
$Comp
L R R15
U 1 1 5543D5DA
P 7900 6900
F 0 "R15" V 7980 6900 50  0000 C CNN
F 1 "R" V 7900 6900 50  0000 C CNN
F 2 "Resistors_SMD:R_0805" V 7830 6900 30  0001 C CNN
F 3 "" H 7900 6900 30  0000 C CNN
	1    7900 6900
	1    0    0    -1  
$EndComp
$Comp
L R R14
U 1 1 5543D6A1
P 8850 6600
F 0 "R14" V 8930 6600 50  0000 C CNN
F 1 "R" V 8850 6600 50  0000 C CNN
F 2 "Resistors_SMD:R_0805" V 8780 6600 30  0001 C CNN
F 3 "" H 8850 6600 30  0000 C CNN
	1    8850 6600
	1    0    0    -1  
$EndComp
$Comp
L R R16
U 1 1 5543D770
P 8650 6900
F 0 "R16" V 8730 6900 50  0000 C CNN
F 1 "R" V 8650 6900 50  0000 C CNN
F 2 "Resistors_SMD:R_0805" V 8580 6900 30  0001 C CNN
F 3 "" H 8650 6900 30  0000 C CNN
	1    8650 6900
	1    0    0    -1  
$EndComp
$Comp
L Q_NPN_BEC Q3
U 1 1 5543DE53
P 8100 7000
F 0 "Q3" H 8400 7050 50  0000 R CNN
F 1 "Q_NPN_EBC" H 8700 6950 50  0000 R CNN
F 2 "SMD_Packages:SOT-23" H 8300 7100 29  0001 C CNN
F 3 "" H 8100 7000 60  0000 C CNN
	1    8100 7000
	0    1    1    0   
$EndComp
$Comp
L Q_NPN_BEC Q4
U 1 1 5543F184
P 8850 7000
F 0 "Q4" H 9150 7050 50  0000 R CNN
F 1 "Q_NPN_EBC" H 9450 6950 50  0000 R CNN
F 2 "SMD_Packages:SOT-23" H 9050 7100 29  0001 C CNN
F 3 "" H 8850 7000 60  0000 C CNN
	1    8850 7000
	0    1    1    0   
$EndComp
$Comp
L R R20
U 1 1 5543FBD2
P 8300 7350
F 0 "R20" V 8380 7350 50  0000 C CNN
F 1 "R" V 8300 7350 50  0000 C CNN
F 2 "Resistors_SMD:R_0805" V 8230 7350 30  0001 C CNN
F 3 "" H 8300 7350 30  0000 C CNN
	1    8300 7350
	1    0    0    -1  
$EndComp
$Comp
L R R21
U 1 1 5543FD9B
P 9050 7350
F 0 "R21" V 9130 7350 50  0000 C CNN
F 1 "R" V 9050 7350 50  0000 C CNN
F 2 "Resistors_SMD:R_0805" V 8980 7350 30  0001 C CNN
F 3 "" H 9050 7350 30  0000 C CNN
	1    9050 7350
	1    0    0    -1  
$EndComp
$Comp
L LED D3
U 1 1 55440159
P 8300 7800
F 0 "D3" H 8300 7900 50  0000 C CNN
F 1 "LED" H 8300 7700 50  0000 C CNN
F 2 "LEDs:LED-0805" H 8300 7800 60  0001 C CNN
F 3 "" H 8300 7800 60  0000 C CNN
	1    8300 7800
	0    1    1    0   
$EndComp
$Comp
L LED D2
U 1 1 554409B5
P 9050 7750
F 0 "D2" H 9050 7850 50  0000 C CNN
F 1 "LED" H 9050 7650 50  0000 C CNN
F 2 "LEDs:LED-0805" H 9050 7750 60  0001 C CNN
F 3 "" H 9050 7750 60  0000 C CNN
	1    9050 7750
	0    1    1    0   
$EndComp
$Comp
L C C13
U 1 1 55447B4E
P 5000 5700
F 0 "C13" H 5025 5800 50  0000 L CNN
F 1 "C" H 5025 5600 50  0000 L CNN
F 2 "Capacitors_SMD:C_0805" H 5038 5550 30  0001 C CNN
F 3 "" H 5000 5700 60  0000 C CNN
	1    5000 5700
	1    0    0    -1  
$EndComp
$Comp
L C C14
U 1 1 55448731
P 5450 5700
F 0 "C14" H 5475 5800 50  0000 L CNN
F 1 "C" H 5475 5600 50  0000 L CNN
F 2 "Capacitors_SMD:C_0805" H 5488 5550 30  0001 C CNN
F 3 "" H 5450 5700 60  0000 C CNN
	1    5450 5700
	1    0    0    -1  
$EndComp
$Comp
L R R6
U 1 1 554487F8
P 5250 5550
F 0 "R6" V 5330 5550 50  0000 C CNN
F 1 "R" V 5250 5550 50  0000 C CNN
F 2 "Resistors_SMD:R_0805" V 5180 5550 30  0001 C CNN
F 3 "" H 5250 5550 30  0000 C CNN
	1    5250 5550
	0    1    1    0   
$EndComp
$Comp
L R R10
U 1 1 5544895F
P 5650 5550
F 0 "R10" V 5730 5550 50  0000 C CNN
F 1 "R" V 5650 5550 50  0000 C CNN
F 2 "Resistors_SMD:R_0805" V 5580 5550 30  0001 C CNN
F 3 "" H 5650 5550 30  0000 C CNN
	1    5650 5550
	0    1    1    0   
$EndComp
$Comp
L HEADER_2 AT1
U 1 1 55414CF7
P 5500 5300
F 0 "AT1" H 5500 5450 50  0000 C CNN
F 1 "CONN_01X02" V 5600 5300 50  0000 C CNN
F 2 "w_conn_rf:coaxial_u.fl-r-smt-1" H 5500 5300 60  0001 C CNN
F 3 "" H 5500 5300 60  0000 C CNN
	1    5500 5300
	0    -1   -1   0   
$EndComp
$Comp
L C C6
U 1 1 5541CD94
P 7500 1350
F 0 "C6" H 7525 1450 50  0000 L CNN
F 1 "C" H 7525 1250 50  0000 L CNN
F 2 "Capacitors_SMD:C_0805" H 7538 1200 30  0001 C CNN
F 3 "" H 7500 1350 60  0000 C CNN
	1    7500 1350
	0    -1   -1   0   
$EndComp
Text Label 8600 2500 0    39   ~ 0
MIC_P
Text Label 8600 2750 0    39   ~ 0
SPK_P
Text Label 8600 2850 0    39   ~ 0
SPK_N
Text Label 6800 6050 1    60   ~ 0
MIC_P
Text Label 7000 6050 1    60   ~ 0
SPK_P
Text Label 7100 6050 1    60   ~ 0
SPK_N
Text Label 6300 3800 2    39   ~ 0
STATUS
Text Label 6300 3900 2    39   ~ 0
NETLIGHT
Text Label 8250 6050 1    60   ~ 0
STATUS
Text Label 8100 6050 1    60   ~ 0
NETLIGHT
$Comp
L SW_PUSH K1
U 1 1 5542CE96
P 5750 2850
F 0 "K1" H 5900 2960 50  0000 C CNN
F 1 "SW_PUSH" H 5750 2770 50  0000 C CNN
F 2 "propiosFP:BTN_5.0_RST" H 5750 2850 60  0001 C CNN
F 3 "" H 5750 2850 60  0000 C CNN
	1    5750 2850
	1    0    0    -1  
$EndComp
$Comp
L Q_NPN_BEC Q1
U 1 1 5542E2C7
P 5350 3300
F 0 "Q1" H 5650 3350 50  0000 R CNN
F 1 "Q_NPN_EBC" H 5950 3250 50  0000 R CNN
F 2 "SMD_Packages:SOT-23" H 5550 3400 29  0001 C CNN
F 3 "" H 5350 3300 60  0000 C CNN
	1    5350 3300
	1    0    0    -1  
$EndComp
$Comp
L R R2
U 1 1 55430CBE
P 5300 3500
F 0 "R2" V 5380 3500 50  0000 C CNN
F 1 "R" V 5300 3500 50  0000 C CNN
F 2 "Resistors_SMD:R_0805" V 5230 3500 30  0001 C CNN
F 3 "" H 5300 3500 30  0000 C CNN
	1    5300 3500
	0    1    1    0   
$EndComp
$Comp
L R R3
U 1 1 55430F03
P 5150 3800
F 0 "R3" V 5230 3800 50  0000 C CNN
F 1 "R" V 5150 3800 50  0000 C CNN
F 2 "Resistors_SMD:R_0805" V 5080 3800 30  0001 C CNN
F 3 "" H 5150 3800 30  0000 C CNN
	1    5150 3800
	1    0    0    -1  
$EndComp
Text Label 5150 4450 3    60   ~ 0
D9
Text Label 8650 2100 0    39   ~ 0
RF_ANT
Text Label 5000 5350 1    60   ~ 0
RF_ANT
$Comp
L Battery J14
U 1 1 5543571F
P 2950 6750
F 0 "J14" H 3050 6800 50  0000 L CNN
F 1 "Battery" H 3050 6700 50  0000 L CNN
F 2 "propiosFP:CR1220_fp" V 2950 6790 60  0001 C CNN
F 3 "" V 2950 6790 60  0000 C CNN
	1    2950 6750
	0    1    1    0   
$EndComp
$Comp
L DIL6 SIMHOLDER3
U 1 1 554385D2
P 2750 5500
F 0 "SIMHOLDER3" H 2750 5700 60  0000 C CNN
F 1 "DIL6" V 2750 5500 50  0000 C CNN
F 2 "propiosFP:SIMHOLDER3" H 2750 5500 60  0001 C CNN
F 3 "" H 2750 5500 60  0000 C CNN
	1    2750 5500
	1    0    0    -1  
$EndComp
$Comp
L R R18
U 1 1 55439378
P 2100 5600
F 0 "R18" V 2180 5600 50  0000 C CNN
F 1 "R" V 2100 5600 50  0000 C CNN
F 2 "Resistors_SMD:R_0805" V 2030 5600 30  0001 C CNN
F 3 "" H 2100 5600 30  0000 C CNN
	1    2100 5600
	0    1    1    0   
$EndComp
$Comp
L R R17
U 1 1 554394D7
P 2100 5500
F 0 "R17" V 2180 5500 50  0000 C CNN
F 1 "R" V 2100 5500 50  0000 C CNN
F 2 "Resistors_SMD:R_0805" V 2030 5500 30  0001 C CNN
F 3 "" H 2100 5500 30  0000 C CNN
	1    2100 5500
	0    -1   -1   0   
$EndComp
$Comp
L R R19
U 1 1 55439FB6
P 3400 5600
F 0 "R19" V 3480 5600 50  0000 C CNN
F 1 "R" V 3400 5600 50  0000 C CNN
F 2 "Resistors_SMD:R_0805" V 3330 5600 30  0001 C CNN
F 3 "" H 3400 5600 30  0000 C CNN
	1    3400 5600
	0    1    1    0   
$EndComp
$Comp
L C C20
U 1 1 5543A776
P 2300 5250
F 0 "C20" H 2325 5350 50  0000 L CNN
F 1 "C" H 2325 5150 50  0000 L CNN
F 2 "Capacitors_SMD:C_0805" H 2338 5100 30  0001 C CNN
F 3 "" H 2300 5250 60  0000 C CNN
	1    2300 5250
	1    0    0    -1  
$EndComp
$Comp
L GND-RESCUE-NOVVO_GPRSshield_v1-1 #PWR25
U 1 1 5544451B
P 11350 5050
F 0 "#PWR25" H 11350 4800 50  0001 C CNN
F 1 "GND" H 11350 4900 50  0000 C CNN
F 2 "" H 11350 5050 60  0000 C CNN
F 3 "" H 11350 5050 60  0000 C CNN
	1    11350 5050
	0    -1   -1   0   
$EndComp
Text Label 1400 1050 0    40   ~ 0
VIN
$Comp
L C C2
U 1 1 554550EF
P 1600 1300
F 0 "C2" H 1625 1400 50  0000 L CNN
F 1 "C" H 1625 1200 50  0000 L CNN
F 2 "Capacitors_SMD:C_0805" H 1638 1150 30  0001 C CNN
F 3 "" H 1600 1300 60  0000 C CNN
	1    1600 1300
	1    0    0    -1  
$EndComp
$Comp
L C C3
U 1 1 55455236
P 1850 1300
F 0 "C3" H 1875 1400 50  0000 L CNN
F 1 "C" H 1875 1200 50  0000 L CNN
F 2 "Capacitors_SMD:C_0805" H 1888 1150 30  0001 C CNN
F 3 "" H 1850 1300 60  0000 C CNN
	1    1850 1300
	1    0    0    -1  
$EndComp
$Comp
L TPS54340DDA U1
U 1 1 554552E9
P 2650 1350
F 0 "U1" H 2350 1800 50  0000 L CNN
F 1 "TPS54340DDA" H 2350 1700 50  0000 L CNN
F 2 "Housings_SOIC:SOIC-8-1EP_3.9x4.9mm_Pitch1.27mm" H 2950 900 50  0001 C CIN
F 3 "" H 2650 1350 50  0000 C CNN
	1    2650 1350
	1    0    0    -1  
$EndComp
$Comp
L R R1
U 1 1 55455524
P 2100 1500
F 0 "R1" V 2180 1500 50  0000 C CNN
F 1 "R" V 2100 1500 50  0000 C CNN
F 2 "Resistors_SMD:R_0805" V 2030 1500 30  0001 C CNN
F 3 "" H 2100 1500 30  0000 C CNN
	1    2100 1500
	1    0    0    -1  
$EndComp
$Comp
L R R5
U 1 1 554555E9
P 3300 2100
F 0 "R5" V 3380 2100 50  0000 C CNN
F 1 "R" V 3300 2100 50  0000 C CNN
F 2 "Resistors_SMD:R_0805" V 3230 2100 30  0001 C CNN
F 3 "" H 3300 2100 30  0000 C CNN
	1    3300 2100
	1    0    0    -1  
$EndComp
$Comp
L C C4
U 1 1 5545569A
P 2900 1950
F 0 "C4" H 2925 2050 50  0000 L CNN
F 1 "C" H 2925 1850 50  0000 L CNN
F 2 "Capacitors_SMD:C_0805" H 2938 1800 30  0001 C CNN
F 3 "" H 2900 1950 60  0000 C CNN
	1    2900 1950
	0    1    1    0   
$EndComp
$Comp
L C C5
U 1 1 554557F3
P 2900 2250
F 0 "C5" H 2925 2350 50  0000 L CNN
F 1 "C" H 2925 2150 50  0000 L CNN
F 2 "Capacitors_SMD:C_0805" H 2938 2100 30  0001 C CNN
F 3 "" H 2900 2250 60  0000 C CNN
	1    2900 2250
	0    1    1    0   
$EndComp
$Comp
L C C10
U 1 1 55455D3B
P 3300 1150
F 0 "C10" H 3325 1250 50  0000 L CNN
F 1 "C" H 3325 1050 50  0000 L CNN
F 2 "Capacitors_SMD:C_0805" H 3338 1000 30  0001 C CNN
F 3 "" H 3300 1150 60  0000 C CNN
	1    3300 1150
	0    1    1    0   
$EndComp
$Comp
L L_Small L1
U 1 1 55455EDB
P 3650 1350
F 0 "L1" H 3680 1390 50  0000 L CNN
F 1 "L_Small" H 3680 1310 50  0000 L CNN
F 2 "Choke_SMD:Choke_SMD_Wuerth-WE-PD2-Typ-MS" H 3650 1350 60  0001 C CNN
F 3 "" H 3650 1350 60  0000 C CNN
	1    3650 1350
	0    -1   -1   0   
$EndComp
$Comp
L R R88
U 1 1 5545638D
P 3850 1500
F 0 "R88" V 3930 1500 50  0000 C CNN
F 1 "R" V 3850 1500 50  0000 C CNN
F 2 "Resistors_SMD:R_0805" V 3780 1500 30  0001 C CNN
F 3 "" H 3850 1500 30  0000 C CNN
	1    3850 1500
	1    0    0    -1  
$EndComp
$Comp
L R R4
U 1 1 5545644A
P 3850 1900
F 0 "R4" V 3930 1900 50  0000 C CNN
F 1 "R" V 3850 1900 50  0000 C CNN
F 2 "Resistors_SMD:R_0805" V 3780 1900 30  0001 C CNN
F 3 "" H 3850 1900 30  0000 C CNN
	1    3850 1900
	1    0    0    -1  
$EndComp
$Comp
L CP_Small C11
U 1 1 55456513
P 4050 1450
F 0 "C11" H 4060 1520 50  0000 L CNN
F 1 "47uF" H 4060 1370 50  0000 L CNN
F 2 "Capacitors_Tantalum_SMD:TantalC_SizeD_EIA-7343_Reflow" H 4050 1450 60  0001 C CNN
F 3 "" H 4050 1450 60  0000 C CNN
	1    4050 1450
	1    0    0    -1  
$EndComp
$Comp
L HEADER_2 P1
U 1 1 55419534
P 1050 2750
F 0 "P1" H 1050 2900 50  0000 C CNN
F 1 "CONN_01X02" V 1150 2750 50  0000 C CNN
F 2 "Connect:bornier2" H 1050 2750 60  0001 C CNN
F 3 "" H 1050 2750 60  0000 C CNN
	1    1050 2750
	-1   0    0    -1  
$EndComp
$Comp
L CP_Small C1
U 1 1 5541AFA4
P 1400 1300
F 0 "C1" H 1410 1370 50  0000 L CNN
F 1 "CP_Small" H 1410 1220 50  0000 L CNN
F 2 "Capacitors_SMD:c_elec_6.3x4.5" H 1400 1300 60  0001 C CNN
F 3 "" H 1400 1300 60  0000 C CNN
	1    1400 1300
	1    0    0    -1  
$EndComp
$Comp
L CP_Small C12
U 1 1 5541DF90
P 4250 1450
F 0 "C12" H 4260 1520 50  0000 L CNN
F 1 "470uF" H 4260 1370 50  0000 L CNN
F 2 "Capacitors_Tantalum_SMD:TantalC_SizeD_EIA-7343_Reflow" H 4250 1450 60  0001 C CNN
F 3 "" H 4250 1450 60  0000 C CNN
	1    4250 1450
	1    0    0    -1  
$EndComp
Text Label 4250 1250 2    40   ~ 0
VBAT
$Comp
L GS2 GS1
U 1 1 554206EE
P 5150 4250
F 0 "GS1" H 5250 4400 50  0000 C CNN
F 1 "GS2" H 5250 4101 40  0000 C CNN
F 2 "Connect:GS2" V 5224 4250 30  0000 C CNN
F 3 "" H 5150 4250 60  0000 C CNN
	1    5150 4250
	1    0    0    -1  
$EndComp
$Comp
L GND-RESCUE-NOVVO_GPRSshield_v1-1 #PWR3
U 1 1 5541F911
P 2550 2450
F 0 "#PWR3" H 2550 2200 50  0001 C CNN
F 1 "GND" H 2550 2300 50  0000 C CNN
F 2 "" H 2550 2450 60  0000 C CNN
F 3 "" H 2550 2450 60  0000 C CNN
	1    2550 2450
	1    0    0    -1  
$EndComp
$Comp
L GND-RESCUE-NOVVO_GPRSshield_v1-1 #PWR4
U 1 1 5541FE67
P 3500 4250
F 0 "#PWR4" H 3500 4000 50  0001 C CNN
F 1 "GND" H 3500 4100 50  0000 C CNN
F 2 "" H 3500 4250 60  0000 C CNN
F 3 "" H 3500 4250 60  0000 C CNN
	1    3500 4250
	1    0    0    -1  
$EndComp
$Comp
L GND-RESCUE-NOVVO_GPRSshield_v1-1 #PWR5
U 1 1 55420020
P 3500 5400
F 0 "#PWR5" H 3500 5150 50  0001 C CNN
F 1 "GND" H 3500 5250 50  0000 C CNN
F 2 "" H 3500 5400 60  0000 C CNN
F 3 "" H 3500 5400 60  0000 C CNN
	1    3500 5400
	0    -1   -1   0   
$EndComp
$Comp
L GND-RESCUE-NOVVO_GPRSshield_v1-1 #PWR2
U 1 1 5542022D
P 2500 6750
F 0 "#PWR2" H 2500 6500 50  0001 C CNN
F 1 "GND" H 2500 6600 50  0000 C CNN
F 2 "" H 2500 6750 60  0000 C CNN
F 3 "" H 2500 6750 60  0000 C CNN
	1    2500 6750
	0    1    1    0   
$EndComp
$Comp
L GND-RESCUE-NOVVO_GPRSshield_v1-1 #PWR12
U 1 1 55420686
P 7650 1350
F 0 "#PWR12" H 7650 1100 50  0001 C CNN
F 1 "GND" H 7650 1200 50  0000 C CNN
F 2 "" H 7650 1350 60  0000 C CNN
F 3 "" H 7650 1350 60  0000 C CNN
	1    7650 1350
	0    -1   -1   0   
$EndComp
$Comp
L GND-RESCUE-NOVVO_GPRSshield_v1-1 #PWR15
U 1 1 55421106
P 8100 5400
F 0 "#PWR15" H 8100 5150 50  0001 C CNN
F 1 "GND" H 8100 5250 50  0000 C CNN
F 2 "" H 8100 5400 60  0000 C CNN
F 3 "" H 8100 5400 60  0000 C CNN
	1    8100 5400
	0    -1   -1   0   
$EndComp
$Comp
L GND-RESCUE-NOVVO_GPRSshield_v1-1 #PWR7
U 1 1 5542150B
P 5650 5900
F 0 "#PWR7" H 5650 5650 50  0001 C CNN
F 1 "GND" H 5650 5750 50  0000 C CNN
F 2 "" H 5650 5900 60  0000 C CNN
F 3 "" H 5650 5900 60  0000 C CNN
	1    5650 5900
	1    0    0    -1  
$EndComp
$Comp
L GND-RESCUE-NOVVO_GPRSshield_v1-1 #PWR14
U 1 1 55421E11
P 7900 7250
F 0 "#PWR14" H 7900 7000 50  0001 C CNN
F 1 "GND" H 7900 7100 50  0000 C CNN
F 2 "" H 7900 7250 60  0000 C CNN
F 3 "" H 7900 7250 60  0000 C CNN
	1    7900 7250
	1    0    0    -1  
$EndComp
$Comp
L GND-RESCUE-NOVVO_GPRSshield_v1-1 #PWR19
U 1 1 55421F22
P 8650 7250
F 0 "#PWR19" H 8650 7000 50  0001 C CNN
F 1 "GND" H 8650 7100 50  0000 C CNN
F 2 "" H 8650 7250 60  0000 C CNN
F 3 "" H 8650 7250 60  0000 C CNN
	1    8650 7250
	1    0    0    -1  
$EndComp
$Comp
L GND-RESCUE-NOVVO_GPRSshield_v1-1 #PWR26
U 1 1 5542222B
P 11400 6350
F 0 "#PWR26" H 11400 6100 50  0001 C CNN
F 1 "GND" H 11400 6200 50  0000 C CNN
F 2 "" H 11400 6350 60  0000 C CNN
F 3 "" H 11400 6350 60  0000 C CNN
	1    11400 6350
	0    1    1    0   
$EndComp
$Comp
L GND-RESCUE-NOVVO_GPRSshield_v1-1 #PWR11
U 1 1 554292DC
P 6650 7100
F 0 "#PWR11" H 6650 6850 50  0001 C CNN
F 1 "GND" H 6650 6950 50  0000 C CNN
F 2 "" H 6650 7100 60  0000 C CNN
F 3 "" H 6650 7100 60  0000 C CNN
	1    6650 7100
	0    1    1    0   
$EndComp
$Comp
L GND-RESCUE-NOVVO_GPRSshield_v1-1 #PWR8
U 1 1 554293ED
P 5650 7100
F 0 "#PWR8" H 5650 6850 50  0001 C CNN
F 1 "GND" H 5650 6950 50  0000 C CNN
F 2 "" H 5650 7100 60  0000 C CNN
F 3 "" H 5650 7100 60  0000 C CNN
	1    5650 7100
	0    1    1    0   
$EndComp
$Comp
L GND-RESCUE-NOVVO_GPRSshield_v1-1 #PWR22
U 1 1 55431965
P 9800 5950
F 0 "#PWR22" H 9800 5700 50  0001 C CNN
F 1 "GND" H 9800 5800 50  0000 C CNN
F 2 "" H 9800 5950 60  0000 C CNN
F 3 "" H 9800 5950 60  0000 C CNN
	1    9800 5950
	0    -1   -1   0   
$EndComp
$Comp
L Jack_3.5mm_3pin MIC1
U 1 1 5542A8D3
P 6250 7250
F 0 "MIC1" H 6250 7500 60  0000 C CNN
F 1 "Jack_3.5mm_3pin" H 6250 7000 60  0000 C CNN
F 2 "propiosFP:jack_3.5-SMD" H 6250 7250 60  0001 C CNN
F 3 "" H 6250 7250 60  0000 C CNN
	1    6250 7250
	0    -1   1    0   
$EndComp
$Comp
L Jack_3.5mm_3pin SPK1
U 1 1 5542B408
P 7150 7250
F 0 "SPK1" H 7150 7500 60  0000 C CNN
F 1 "Jack_3.5mm_3pin" H 7150 7000 60  0000 C CNN
F 2 "propiosFP:jack_3.5-SMD" H 7150 7250 60  0001 C CNN
F 3 "" H 7150 7250 60  0000 C CNN
	1    7150 7250
	0    -1   1    0   
$EndComp
$Comp
L GND-RESCUE-NOVVO_GPRSshield_v1-1 #PWR27
U 1 1 5542E14C
P 11800 1650
F 0 "#PWR27" H 11800 1650 30  0001 C CNN
F 1 "GND" H 11800 1580 30  0001 C CNN
F 2 "" H 11800 1650 60  0000 C CNN
F 3 "" H 11800 1650 60  0000 C CNN
	1    11800 1650
	0    -1   -1   0   
$EndComp
$Comp
L GND-RESCUE-NOVVO_GPRSshield_v1-1 #PWR9
U 1 1 5542EDF0
P 6000 6550
F 0 "#PWR9" H 6000 6550 30  0001 C CNN
F 1 "GND" H 6000 6480 30  0001 C CNN
F 2 "" H 6000 6550 60  0000 C CNN
F 3 "" H 6000 6550 60  0000 C CNN
	1    6000 6550
	0    1    1    0   
$EndComp
$Comp
L GND-RESCUE-NOVVO_GPRSshield_v1-1 #PWR10
U 1 1 5542EFFD
P 6600 6550
F 0 "#PWR10" H 6600 6550 30  0001 C CNN
F 1 "GND" H 6600 6480 30  0001 C CNN
F 2 "" H 6600 6550 60  0000 C CNN
F 3 "" H 6600 6550 60  0000 C CNN
	1    6600 6550
	0    1    1    0   
$EndComp
$Comp
L GND-RESCUE-NOVVO_GPRSshield_v1-1 #PWR13
U 1 1 5542F456
P 7700 6550
F 0 "#PWR13" H 7700 6550 30  0001 C CNN
F 1 "GND" H 7700 6480 30  0001 C CNN
F 2 "" H 7700 6550 60  0000 C CNN
F 3 "" H 7700 6550 60  0000 C CNN
	1    7700 6550
	0    -1   -1   0   
$EndComp
Text Label 10300 1650 0    40   ~ 0
SCL
Text Label 10300 1750 0    40   ~ 0
SDA
Text Label 10450 2950 2    40   ~ 0
VBOARD
$Comp
L GND-RESCUE-NOVVO_GPRSshield_v1-1 #PWR20
U 1 1 55434F02
P 9700 2750
F 0 "#PWR20" H 9700 2750 30  0001 C CNN
F 1 "GND" H 9700 2680 30  0001 C CNN
F 2 "" H 9700 2750 60  0000 C CNN
F 3 "" H 9700 2750 60  0000 C CNN
	1    9700 2750
	0    1    1    0   
$EndComp
$Comp
L GND-RESCUE-NOVVO_GPRSshield_v1-1 #PWR24
U 1 1 55434F68
P 10400 2750
F 0 "#PWR24" H 10400 2750 30  0001 C CNN
F 1 "GND" H 10400 2680 30  0001 C CNN
F 2 "" H 10400 2750 60  0000 C CNN
F 3 "" H 10400 2750 60  0000 C CNN
	1    10400 2750
	0    -1   -1   0   
$EndComp
Text Label 10400 3550 2    40   ~ 0
MTXD
Text Label 10400 3650 2    40   ~ 0
MRXD
Text Label 10400 4250 2    40   ~ 0
STXD
$Comp
L GND-RESCUE-NOVVO_GPRSshield_v1-1 #PWR23
U 1 1 55439277
P 10300 5300
F 0 "#PWR23" H 10300 5300 30  0001 C CNN
F 1 "GND" H 10300 5230 30  0001 C CNN
F 2 "" H 10300 5300 60  0000 C CNN
F 3 "" H 10300 5300 60  0000 C CNN
	1    10300 5300
	0    -1   -1   0   
$EndComp
$Comp
L GND-RESCUE-NOVVO_GPRSshield_v1-1 #PWR21
U 1 1 554394C2
P 9800 5300
F 0 "#PWR21" H 9800 5300 30  0001 C CNN
F 1 "GND" H 9800 5230 30  0001 C CNN
F 2 "" H 9800 5300 60  0000 C CNN
F 3 "" H 9800 5300 60  0000 C CNN
	1    9800 5300
	0    1    1    0   
$EndComp
Text Label 10400 4700 2    40   ~ 0
SRXD
Text Label 10400 4800 2    40   ~ 0
D9
$Comp
L GND-RESCUE-NOVVO_GPRSshield_v1-1 #PWR6
U 1 1 554785E2
P 5450 3550
F 0 "#PWR6" H 5450 3550 30  0001 C CNN
F 1 "GND" H 5450 3480 30  0001 C CNN
F 2 "" H 5450 3550 60  0000 C CNN
F 3 "" H 5450 3550 60  0000 C CNN
	1    5450 3550
	1    0    0    -1  
$EndComp
$Comp
L BSS138 Q5
U 1 1 5547C44D
P 2600 3750
F 0 "Q5" H 2800 3825 50  0000 L CNN
F 1 "BSS138" H 2800 3750 50  0000 L CNN
F 2 "SMD_Packages:SOT-23" H 2800 3675 50  0000 L CIN
F 3 "" H 2600 3750 50  0000 L CNN
	1    2600 3750
	0    1    1    0   
$EndComp
$Comp
L BSS138 Q6
U 1 1 5547C90D
P 2600 4250
F 0 "Q6" H 2800 4325 50  0000 L CNN
F 1 "BSS138" H 2800 4250 50  0000 L CNN
F 2 "SMD_Packages:SOT-23" H 2800 4175 50  0000 L CIN
F 3 "" H 2600 4250 50  0000 L CNN
	1    2600 4250
	0    1    1    0   
$EndComp
$Comp
L SCHOTTKY D6
U 1 1 554871CC
P 3450 1500
F 0 "D6" H 3450 1600 40  0000 C CNN
F 1 "SCHOTTKY" H 3450 1400 40  0000 C CNN
F 2 "Diodes_SMD:Diode-SMA_Standard" H 3450 1500 60  0001 C CNN
F 3 "" H 3450 1500 60  0000 C CNN
	1    3450 1500
	0    -1   -1   0   
$EndComp
Text Label 10450 2650 2    40   ~ 0
Vext12
Text Label 9650 2650 0    40   ~ 0
Vext12
$Comp
L JUMPER3 JP1
U 1 1 554894DA
P 1800 2700
F 0 "JP1" H 1850 2600 50  0000 L CNN
F 1 "JUMPER3" H 1800 2800 50  0000 C BNN
F 2 "Pin_Headers:Pin_Header_Straight_1x03" H 1800 2700 60  0001 C CNN
F 3 "" H 1800 2700 60  0000 C CNN
	1    1800 2700
	1    0    0    -1  
$EndComp
Text Label 1050 2350 0    40   ~ 0
Vext12
Text Label 2300 2700 2    40   ~ 0
VBOARD
$Comp
L GND-RESCUE-NOVVO_GPRSshield_v1-1 #PWR1
U 1 1 5548C097
P 1150 2900
F 0 "#PWR1" H 1150 2900 30  0001 C CNN
F 1 "GND" H 1150 2830 30  0001 C CNN
F 2 "" H 1150 2900 60  0000 C CNN
F 3 "" H 1150 2900 60  0000 C CNN
	1    1150 2900
	1    0    0    -1  
$EndComp
Text Label 1800 2900 0    40   ~ 0
VIN
$Comp
L D D4
U 1 1 5548E209
P 1300 2700
F 0 "D4" H 1300 2800 50  0000 C CNN
F 1 "D" H 1300 2600 50  0000 C CNN
F 2 "Diodes_SMD:Diode-SMA_Standard" H 1300 2700 60  0001 C CNN
F 3 "" H 1300 2700 60  0000 C CNN
	1    1300 2700
	-1   0    0    1   
$EndComp
Text Label 8300 8250 1    40   ~ 0
VBOARD
Text Label 9050 8200 1    40   ~ 0
VBOARD
$Comp
L R R33
U 1 1 55496476
P 3150 3850
F 0 "R33" V 3230 3850 50  0000 C CNN
F 1 "R" V 3150 3850 50  0000 C CNN
F 2 "Resistors_SMD:R_0805" V 3080 3850 30  0001 C CNN
F 3 "" H 3150 3850 30  0000 C CNN
	1    3150 3850
	0    1    1    0   
$EndComp
$Comp
L R R34
U 1 1 55496569
P 3150 4350
F 0 "R34" V 3230 4350 50  0000 C CNN
F 1 "R" V 3150 4350 50  0000 C CNN
F 2 "Resistors_SMD:R_0805" V 3080 4350 30  0001 C CNN
F 3 "" H 3150 4350 30  0000 C CNN
	1    3150 4350
	0    1    1    0   
$EndComp
$Comp
L R R32
U 1 1 5549662A
P 1700 4050
F 0 "R32" V 1780 4050 50  0000 C CNN
F 1 "R" V 1700 4050 50  0000 C CNN
F 2 "Resistors_SMD:R_0805" V 1630 4050 30  0001 C CNN
F 3 "" H 1700 4050 30  0000 C CNN
	1    1700 4050
	0    1    1    0   
$EndComp
$Comp
L R R31
U 1 1 5549670F
P 1700 3850
F 0 "R31" V 1780 3850 50  0000 C CNN
F 1 "R" V 1700 3850 50  0000 C CNN
F 2 "Resistors_SMD:R_0805" V 1630 3850 30  0001 C CNN
F 3 "" H 1700 3850 30  0000 C CNN
	1    1700 3850
	0    1    1    0   
$EndComp
NoConn ~ 6450 4700
NoConn ~ 6450 4800
NoConn ~ 11350 5650
$Comp
L GND-RESCUE-NOVVO_GPRSshield_v1-1 #PWR18
U 1 1 554A8B35
P 8600 2600
F 0 "#PWR18" H 8600 2600 30  0001 C CNN
F 1 "GND" H 8600 2530 30  0001 C CNN
F 2 "" H 8600 2600 60  0000 C CNN
F 3 "" H 8600 2600 60  0000 C CNN
	1    8600 2600
	0    -1   -1   0   
$EndComp
$Comp
L GND-RESCUE-NOVVO_GPRSshield_v1-1 #PWR17
U 1 1 554A8DE1
P 8600 2300
F 0 "#PWR17" H 8600 2300 30  0001 C CNN
F 1 "GND" H 8600 2230 30  0001 C CNN
F 2 "" H 8600 2300 60  0000 C CNN
F 3 "" H 8600 2300 60  0000 C CNN
	1    8600 2300
	0    -1   -1   0   
$EndComp
$Comp
L GND-RESCUE-NOVVO_GPRSshield_v1-1 #PWR16
U 1 1 554A8F97
P 8600 1900
F 0 "#PWR16" H 8600 1900 30  0001 C CNN
F 1 "GND" H 8600 1830 30  0001 C CNN
F 2 "" H 8600 1900 60  0000 C CNN
F 3 "" H 8600 1900 60  0000 C CNN
	1    8600 1900
	0    -1   -1   0   
$EndComp
$Comp
L GS2 GS3
U 1 1 554C5961
P 1250 2450
F 0 "GS3" H 1350 2600 50  0000 C CNN
F 1 "GS2" H 1350 2301 40  0000 C CNN
F 2 "Connect:GS2" V 1324 2450 30  0000 C CNN
F 3 "" H 1250 2450 60  0000 C CNN
	1    1250 2450
	0    1    1    0   
$EndComp
$Comp
L CONN_01X01 P3
U 1 1 55506705
P 6450 5550
F 0 "P3" H 6450 5650 50  0000 C CNN
F 1 "CONN_01X01" V 6550 5550 50  0000 C CNN
F 2 "SMD_Packages:1Pin" H 6450 5550 60  0001 C CNN
F 3 "" H 6450 5550 60  0000 C CNN
	1    6450 5550
	1    0    0    -1  
$EndComp
Wire Wire Line
	1050 2450 1050 2350
Wire Wire Line
	11400 5750 11400 5950
Wire Wire Line
	8300 8000 8300 8250
Wire Wire Line
	5450 2850 5450 3100
Wire Wire Line
	6050 3000 6050 2850
Wire Wire Line
	1150 2800 1150 2900
Wire Wire Line
	1450 2700 1550 2700
Wire Wire Line
	1800 2800 1800 2900
Wire Wire Line
	2050 2700 2300 2700
Wire Wire Line
	1450 2450 1450 2700
Connection ~ 1400 1150
Wire Wire Line
	9650 2650 9900 2650
Wire Wire Line
	10450 2650 10200 2650
Connection ~ 4050 2400
Connection ~ 3850 2400
Connection ~ 3450 2400
Connection ~ 2550 2400
Wire Wire Line
	2550 2400 4250 2400
Wire Wire Line
	3050 2250 3300 2250
Wire Wire Line
	10200 4700 10400 4700
Wire Wire Line
	9700 4700 9900 4700
Wire Wire Line
	10200 4800 10400 4800
Wire Wire Line
	9700 4800 9900 4800
Wire Wire Line
	9900 4900 10200 4900
Wire Wire Line
	9900 5000 10200 5000
Wire Wire Line
	9900 5100 10200 5100
Wire Wire Line
	9900 5200 10200 5200
Wire Wire Line
	9900 5400 10200 5400
Wire Wire Line
	9800 5300 9900 5300
Wire Wire Line
	10200 5300 10300 5300
Wire Wire Line
	10200 4250 10400 4250
Wire Wire Line
	9700 4250 9900 4250
Wire Wire Line
	9900 4150 10200 4150
Wire Wire Line
	9900 4050 10200 4050
Wire Wire Line
	9900 3950 10200 3950
Wire Wire Line
	9900 3850 10200 3850
Wire Wire Line
	9900 3750 10200 3750
Wire Wire Line
	10200 3650 10400 3650
Wire Wire Line
	10200 3550 10400 3550
Wire Wire Line
	9700 3650 9900 3650
Wire Wire Line
	9700 3550 9900 3550
Wire Wire Line
	9900 3150 10200 3150
Wire Wire Line
	9900 3050 10200 3050
Wire Wire Line
	10200 2750 10400 2750
Wire Wire Line
	10200 2750 10200 2850
Wire Wire Line
	9900 2750 9900 2850
Wire Wire Line
	9700 2750 9900 2750
Wire Wire Line
	10200 2950 10450 2950
Wire Wire Line
	9650 2950 9900 2950
Wire Wire Line
	9900 2150 10200 2150
Wire Wire Line
	9900 2050 10200 2050
Wire Wire Line
	9900 1950 10200 1950
Wire Wire Line
	9900 1850 10200 1850
Wire Wire Line
	10300 1750 10200 1750
Wire Wire Line
	9750 1750 9900 1750
Wire Wire Line
	10300 1650 10200 1650
Wire Wire Line
	9750 1650 9900 1650
Wire Wire Line
	7650 6550 7700 6550
Wire Wire Line
	4250 1350 4250 1250
Wire Wire Line
	4250 2400 4250 1550
Connection ~ 4050 1350
Wire Wire Line
	1400 1400 1400 2250
Wire Wire Line
	1400 1050 1400 1200
Wire Wire Line
	1400 1150 2250 1150
Connection ~ 1600 2250
Connection ~ 1850 2250
Wire Wire Line
	1600 1450 1600 2250
Connection ~ 1600 1150
Connection ~ 1850 1150
Wire Wire Line
	1850 1450 1850 2250
Wire Wire Line
	3450 1550 3450 2400
Wire Wire Line
	3450 1150 3450 1400
Wire Wire Line
	4050 2400 4050 1550
Wire Wire Line
	3850 2400 3850 2050
Wire Wire Line
	3850 1650 3850 1750
Wire Wire Line
	3050 1650 3850 1650
Connection ~ 3850 1350
Wire Wire Line
	3750 1350 4250 1350
Connection ~ 3450 1350
Wire Wire Line
	3050 1350 3550 1350
Wire Wire Line
	3050 1150 3150 1150
Connection ~ 2100 2250
Wire Wire Line
	2100 1650 2100 2250
Wire Wire Line
	3300 1450 3300 1950
Wire Wire Line
	3050 1450 3300 1450
Connection ~ 2550 1950
Wire Wire Line
	2750 1950 2550 1950
Wire Wire Line
	3050 1950 3300 1950
Connection ~ 2550 2250
Wire Wire Line
	2550 1850 2550 2450
Wire Wire Line
	1400 2250 2750 2250
Wire Wire Line
	2250 1350 2100 1350
Wire Wire Line
	2800 4350 3000 4350
Wire Wire Line
	3300 4350 3350 4350
Wire Wire Line
	1450 4350 2400 4350
Wire Wire Line
	11550 6350 11400 6350
Wire Wire Line
	11350 4850 11600 4750
Connection ~ 2300 5400
Wire Wire Line
	1800 5400 2400 5400
Wire Wire Line
	3550 5600 3750 5600
Wire Wire Line
	3100 5600 3250 5600
Wire Wire Line
	1800 5600 1950 5600
Wire Wire Line
	1800 5500 1950 5500
Wire Wire Line
	3100 6750 3450 6750
Wire Wire Line
	2500 6750 2800 6750
Wire Wire Line
	8450 2100 8650 2100
Wire Wire Line
	8450 2300 8600 2300
Wire Wire Line
	8450 2200 8450 2300
Wire Wire Line
	8450 1900 8450 2000
Wire Wire Line
	8450 1900 8600 1900
Wire Wire Line
	6250 5400 5550 5400
Wire Wire Line
	5450 3500 5450 3550
Connection ~ 5150 3500
Wire Wire Line
	5150 3300 5150 3650
Wire Wire Line
	5150 4050 5150 3950
Wire Wire Line
	6450 3000 6050 3000
Wire Wire Line
	8250 6250 8250 6050
Wire Wire Line
	8850 6250 8250 6250
Wire Wire Line
	8100 6450 8100 6050
Wire Wire Line
	6300 3800 6450 3800
Wire Wire Line
	6300 3900 6450 3900
Wire Wire Line
	8450 2500 8600 2500
Wire Wire Line
	8450 2850 8600 2850
Wire Wire Line
	8450 2750 8600 2750
Wire Wire Line
	8450 2600 8600 2600
Wire Notes Line
	5650 6900 5650 6150
Wire Wire Line
	6800 6300 6800 6050
Connection ~ 7850 1500
Wire Wire Line
	7950 1500 7950 1350
Connection ~ 7750 1500
Wire Wire Line
	7650 1500 7950 1500
Wire Wire Line
	7350 1500 7350 1350
Wire Wire Line
	7150 1350 7150 1500
Connection ~ 7950 5400
Connection ~ 7850 5400
Connection ~ 7750 5400
Connection ~ 7650 5400
Connection ~ 7550 5400
Connection ~ 7450 5400
Connection ~ 7350 5400
Connection ~ 7250 5400
Connection ~ 7150 5400
Connection ~ 7050 5400
Wire Wire Line
	6950 5400 8100 5400
Wire Wire Line
	8450 3600 8600 3600
Wire Wire Line
	8450 3500 8600 3500
Wire Wire Line
	8450 3400 8600 3400
Wire Wire Line
	8450 3300 8600 3300
Wire Wire Line
	8450 3100 8600 3100
Wire Wire Line
	8450 3000 8600 3000
Wire Wire Line
	8450 4900 8600 4900
Wire Wire Line
	8450 4800 8600 4800
Wire Wire Line
	8450 4700 8600 4700
Wire Wire Line
	8450 4600 8600 4600
Wire Wire Line
	8450 4500 8600 4500
Wire Wire Line
	8450 4400 8600 4400
Wire Wire Line
	8450 4300 8600 4300
Wire Wire Line
	8450 4200 8600 4200
Wire Wire Line
	8450 4100 8600 4100
Wire Wire Line
	8450 4000 8600 4000
Wire Wire Line
	6300 5000 6450 5000
Wire Wire Line
	6300 4900 6450 4900
Wire Wire Line
	6300 4600 6450 4600
Wire Wire Line
	6300 4500 6450 4500
Wire Wire Line
	6300 4400 6450 4400
Wire Wire Line
	6300 4200 6450 4200
Wire Wire Line
	6300 4100 6450 4100
Wire Wire Line
	6300 3600 6450 3600
Wire Wire Line
	6300 3500 6450 3500
Wire Wire Line
	6300 3400 6450 3400
Wire Wire Line
	6300 3300 6450 3300
Wire Wire Line
	5450 3100 6450 3100
Wire Wire Line
	6300 2800 6450 2800
Wire Wire Line
	6300 2700 6450 2700
Wire Wire Line
	6300 2600 6450 2600
Wire Wire Line
	6300 2500 6450 2500
Wire Wire Line
	6300 2400 6450 2400
Wire Wire Line
	6300 2300 6450 2300
Wire Wire Line
	6300 2200 6450 2200
Wire Wire Line
	6300 2100 6450 2100
Connection ~ 6250 5550
Wire Wire Line
	6250 5400 6250 5850
Wire Wire Line
	5800 5550 6250 5550
Wire Wire Line
	6250 5850 5000 5850
Connection ~ 6800 7100
Wire Wire Line
	6650 7100 7000 7100
Wire Wire Line
	7100 6950 7100 7100
Wire Wire Line
	7000 6950 7100 6950
Connection ~ 5900 7100
Wire Wire Line
	5650 7100 6100 7100
Connection ~ 6400 6950
Wire Wire Line
	6200 6950 6200 7100
Wire Wire Line
	6400 6950 6200 6950
Wire Wire Line
	9050 7950 9050 8200
Wire Wire Line
	8850 6750 8850 6800
Wire Wire Line
	8100 6750 8100 6800
Wire Notes Line
	9300 800  9300 7150
Wire Notes Line
	12294 730  12294 7364
Wire Notes Line
	798  730  12294 730 
Wire Notes Line
	798  8801 9164 8801
Wire Notes Line
	798  730  798  8801
Wire Notes Line
	4800 7200 798  7200
Wire Notes Line
	798  6050 4800 6050
Wire Notes Line
	798  4750 4800 4750
Wire Notes Line
	4800 3100 798  3100
Wire Notes Line
	4800 743  4800 7200
Wire Notes Line
	12294 8801 12294 7305
Wire Notes Line
	9105 8801 12294 8801
Wire Notes Line
	4950 5950 4950 5600
Wire Notes Line
	5550 5950 4950 5950
Wire Notes Line
	5550 5600 5550 5950
Wire Notes Line
	4950 5600 5550 5600
Wire Notes Line
	7800 6900 5650 6900
Wire Notes Line
	7800 6150 7800 6900
Wire Notes Line
	5650 6150 7800 6150
Wire Wire Line
	3900 3500 3900 3400
Wire Wire Line
	11550 1750 11800 1750
Wire Wire Line
	1850 4050 2550 4050
Wire Wire Line
	1450 3850 1550 3850
Wire Wire Line
	1450 3550 1450 3850
Wire Wire Line
	2550 3550 1450 3550
Wire Wire Line
	9900 5850 9800 5850
Wire Wire Line
	11600 3650 11900 3650
Wire Wire Line
	11300 3650 11050 3650
Wire Wire Line
	11000 1650 11250 1650
Wire Wire Line
	11350 5250 11650 5250
Wire Wire Line
	11350 5350 11650 5350
Connection ~ 6400 6700
Wire Wire Line
	6400 6700 6400 7100
Wire Wire Line
	6350 6700 6400 6700
Wire Wire Line
	11350 4950 11600 4950
Connection ~ 5450 5550
Wire Wire Line
	5450 5400 5450 5550
Wire Wire Line
	5400 5550 5500 5550
Wire Wire Line
	8850 6250 8850 6450
Connection ~ 7300 6700
Connection ~ 7300 6400
Wire Wire Line
	7100 6300 7300 6300
Wire Wire Line
	7100 6050 7100 6300
Wire Wire Line
	7300 6700 7350 6700
Wire Wire Line
	7300 6300 7300 7100
Wire Wire Line
	7350 6400 7300 6400
Connection ~ 8850 6750
Wire Wire Line
	8850 6750 8650 6750
Wire Wire Line
	9050 7550 9050 7500
Wire Wire Line
	9050 7200 9050 7100
Connection ~ 7000 6400
Connection ~ 7000 6700
Wire Wire Line
	7000 6050 7000 6950
Wire Wire Line
	7000 6400 6950 6400
Wire Wire Line
	7000 6700 6950 6700
Connection ~ 6400 6400
Wire Wire Line
	6400 6300 6800 6300
Wire Wire Line
	6400 6400 6400 6300
Wire Wire Line
	6400 6400 6350 6400
Connection ~ 11400 5950
Connection ~ 11400 5850
Wire Wire Line
	11350 5750 11400 5750
Wire Wire Line
	11350 5850 11400 5850
Wire Wire Line
	11350 5950 11550 5950
Connection ~ 3900 3850
Connection ~ 3700 3850
Connection ~ 3500 3850
Connection ~ 3350 3850
Wire Wire Line
	3900 3800 3900 3900
Wire Wire Line
	3350 4350 3350 3850
Wire Wire Line
	3300 3850 3900 3850
Connection ~ 8100 6750
Wire Wire Line
	8100 6750 7900 6750
Wire Wire Line
	8300 7600 8300 7500
Wire Wire Line
	2400 5500 2250 5500
Wire Wire Line
	2400 5600 2250 5600
Wire Wire Line
	8300 7200 8300 7100
Connection ~ 5000 5550
Wire Wire Line
	5000 5550 5000 5350
Wire Wire Line
	5100 5550 5000 5550
Wire Wire Line
	11600 3450 11900 3450
Wire Wire Line
	11300 3450 11050 3450
Wire Wire Line
	11550 1850 11800 1850
Wire Wire Line
	1450 4050 1450 4350
Wire Wire Line
	1450 4050 1550 4050
Wire Wire Line
	11550 1950 11800 1950
Wire Wire Line
	1850 3850 2400 3850
Wire Wire Line
	11000 2050 11250 2050
Wire Wire Line
	11900 4750 12100 4850
Wire Wire Line
	11900 4950 12100 4950
Wire Wire Line
	11550 2050 11800 2050
Wire Wire Line
	11600 3550 11900 3550
Wire Wire Line
	11300 3550 11050 3550
Wire Wire Line
	2800 3850 3000 3850
Wire Wire Line
	11600 2900 11900 2900
Wire Wire Line
	11300 2900 11000 2900
Wire Wire Line
	11600 2800 11900 2800
Wire Wire Line
	11300 2800 11000 2800
Wire Wire Line
	11600 2700 11900 2700
Wire Wire Line
	11300 2700 11000 2700
Wire Wire Line
	11600 2600 11900 2600
Wire Wire Line
	11300 2600 11000 2600
Wire Wire Line
	11600 2500 11900 2500
Wire Wire Line
	11300 2500 11000 2500
Wire Wire Line
	11600 2400 11900 2400
Wire Wire Line
	11300 2400 11000 2400
Connection ~ 3700 4200
Connection ~ 3500 4200
Wire Wire Line
	3900 4200 3900 4100
Wire Wire Line
	3700 4200 3700 4150
Wire Wire Line
	3500 4200 3900 4200
Wire Wire Line
	3500 4150 3500 4250
Connection ~ 6650 6550
Wire Wire Line
	6650 6400 6650 6700
Wire Wire Line
	6600 6550 6650 6550
Wire Wire Line
	11550 1650 11800 1650
Connection ~ 6050 6550
Wire Wire Line
	6050 6550 6000 6550
Wire Wire Line
	6050 6400 6050 6700
Connection ~ 8650 7100
Wire Wire Line
	8650 7050 8650 7250
Connection ~ 7650 6550
Wire Wire Line
	7650 6400 7650 6700
Connection ~ 7900 7100
Wire Wire Line
	7900 7050 7900 7250
Connection ~ 3400 5400
Wire Wire Line
	3100 5400 3500 5400
Wire Wire Line
	3400 5100 3400 5400
Wire Wire Line
	2300 5100 3400 5100
Connection ~ 5650 5850
Connection ~ 5450 5850
Wire Wire Line
	5650 5900 5650 5850
Wire Wire Line
	11000 1850 11250 1850
Wire Wire Line
	11450 4350 11700 4350
Wire Wire Line
	11450 4450 11700 4450
Wire Wire Line
	11450 4550 11700 4550
Wire Wire Line
	11450 4250 11700 4250
Wire Wire Line
	11000 1750 11250 1750
Wire Wire Line
	11000 1950 11250 1950
Wire Wire Line
	11350 5150 11650 5150
$EndSCHEMATC
