PCBNEW-LibModule-V1  09/10/2011 06:38:13
# encoding utf-8
$INDEX
pin_array_8x1
$EndINDEX
$MODULE pin_array_8x1
Po 0 0 0 15 4E911716 4E911454 ~~
Li pin_array_8x1
Cd 8 ARRAY PINS
Kw CONN
Sc 4E911454
AR pin_array_8x2
Op 0 0 0
T0 0 -1300 400 400 0 80 N V 21 N "PIN_ARRAY_8"
T1 170 505 400 400 0 80 N V 21 N "Val**"
DS -3900 -900 3900 -900 120 21
DS 3915 70 -3885 70 120 21
$PAD
Sh "1" C 600 600 0 0 0
Dr 400 0 0
At STD N 00E0FFFF
Ne 0 ""
Po -3500 -500
$EndPAD
$PAD
Sh "2" C 600 600 0 0 0
Dr 400 0 0
At STD N 00E0FFFF
Ne 0 ""
Po -2500 -500
$EndPAD
$PAD
Sh "3" C 600 600 0 0 0
Dr 400 0 0
At STD N 00E0FFFF
Ne 0 ""
Po -1500 -500
$EndPAD
$PAD
Sh "4" C 600 600 0 0 0
Dr 400 0 0
At STD N 00E0FFFF
Ne 0 ""
Po -500 -500
$EndPAD
$PAD
Sh "5" C 600 600 0 0 0
Dr 400 0 0
At STD N 00E0FFFF
Ne 0 ""
Po 500 -500
$EndPAD
$PAD
Sh "6" C 600 600 0 0 0
Dr 400 0 0
At STD N 00E0FFFF
Ne 0 ""
Po 1500 -500
$EndPAD
$PAD
Sh "7" C 600 600 0 0 0
Dr 400 0 0
At STD N 00E0FFFF
Ne 0 ""
Po 2500 -500
$EndPAD
$PAD
Sh "8" C 600 600 0 0 0
Dr 400 0 0
At STD N 00E0FFFF
Ne 0 ""
Po 3500 -500
$EndPAD
$EndMODULE  pin_array_8x1
$EndLIBRARY
