EESchema Schematic File Version 2  date Tue 28 Jun 2011 07:34:22 PM EEST
LIBS:gost
LIBS:ul_arduino_uno-01-cache
EELAYER 25  0
EELAYER END
$Descr A4 8283 11700
encoding utf-8
Sheet 1 1
Title ""
Date "28 jun 2011"
Rev ""
Comp ""
Comment1 ""
Comment2 ""
Comment3 ""
Comment4 ""
$EndDescr
Wire Wire Line
	4850 4350 4850 4150
Wire Wire Line
	4850 4150 4550 4150
Wire Wire Line
	4550 4150 4550 2150
Connection ~ 5700 1250
Connection ~ 4550 2650
Wire Wire Line
	4550 2650 4900 2650
Wire Wire Line
	4850 4950 4850 5050
Wire Wire Line
	5350 3950 5350 3750
Wire Wire Line
	6350 3750 6150 3750
Wire Wire Line
	6850 1150 4100 1150
Wire Wire Line
	7100 2950 7000 2950
Wire Wire Line
	7100 3700 7000 3700
Wire Wire Line
	6550 3150 7100 3150
Wire Wire Line
	6550 3800 7100 3800
Connection ~ 6700 3250
Wire Wire Line
	7100 3250 6700 3250
Wire Wire Line
	3350 4150 4450 4150
Wire Wire Line
	3350 4150 3350 4600
Wire Wire Line
	3350 4600 3450 4600
Wire Bus Line
	4450 6950 4450 4300
Wire Wire Line
	6700 1250 6700 4950
Connection ~ 3150 1150
Wire Wire Line
	1750 6650 1750 6750
Wire Wire Line
	6700 4950 7100 4950
Wire Wire Line
	7100 5050 6550 5050
Wire Wire Line
	7100 5250 6550 5250
Wire Wire Line
	3900 7150 3900 5900
Wire Wire Line
	4050 4600 4050 5100
Wire Wire Line
	2900 6500 2800 6500
Wire Wire Line
	4250 2350 4450 2350
Wire Wire Line
	4450 2350 4450 4150
Wire Wire Line
	4050 4600 4350 4600
Connection ~ 1750 2450
Wire Wire Line
	1950 2450 1550 2450
Wire Wire Line
	1950 2450 1950 3600
Connection ~ 6600 7300
Wire Wire Line
	6600 2650 6600 7950
Connection ~ 6600 7550
Connection ~ 6600 7950
Connection ~ 6050 7950
Wire Wire Line
	6800 7950 1750 7950
Connection ~ 6050 7650
Wire Wire Line
	6050 7950 6050 7650
Wire Wire Line
	1750 7950 1750 7550
Wire Wire Line
	1850 6750 1850 7650
Connection ~ 3900 6300
Wire Wire Line
	3900 6300 4000 6300
Wire Wire Line
	2050 6950 2350 6950
Wire Wire Line
	2050 6950 2050 7450
Wire Wire Line
	2050 7450 1750 7450
Connection ~ 3900 6850
Connection ~ 2350 1650
Wire Wire Line
	2350 1600 2350 1900
Wire Wire Line
	2350 1900 2250 1900
Connection ~ 1550 1650
Wire Wire Line
	1550 2450 1550 1150
Wire Wire Line
	3000 5450 3400 5450
Wire Wire Line
	3000 5250 3400 5250
Wire Wire Line
	3400 5050 3000 5050
Wire Wire Line
	2150 4950 1750 4950
Wire Wire Line
	2150 5150 1750 5150
Wire Wire Line
	2150 5350 1750 5350
Wire Wire Line
	2150 5550 1750 5550
Wire Wire Line
	2150 6000 1750 6000
Wire Wire Line
	2150 6200 1750 6200
Wire Wire Line
	2150 6400 1750 6400
Wire Wire Line
	1750 7350 1950 7350
Wire Wire Line
	1950 7350 1950 6850
Wire Wire Line
	1950 6850 3900 6850
Wire Wire Line
	1750 7250 1850 7250
Wire Wire Line
	1850 7150 1750 7150
Wire Wire Line
	5950 6250 6800 6250
Wire Wire Line
	6350 7650 5950 7650
Wire Wire Line
	5950 7250 6350 7250
Wire Wire Line
	5950 6850 6350 6850
Wire Wire Line
	5950 6450 6350 6450
Wire Wire Line
	5950 5050 6350 5050
Wire Wire Line
	5950 5450 6350 5450
Wire Wire Line
	5950 5850 6350 5850
Wire Wire Line
	4550 6050 4950 6050
Wire Wire Line
	4550 5650 4950 5650
Wire Wire Line
	4550 5250 4950 5250
Wire Wire Line
	4550 4850 4950 4850
Connection ~ 2650 7050
Wire Wire Line
	2650 7150 2650 7050
Connection ~ 2650 7650
Wire Wire Line
	2650 7650 2650 7600
Connection ~ 3900 7650
Wire Wire Line
	3700 7650 3700 7250
Wire Wire Line
	2650 3600 2650 2750
Wire Wire Line
	2650 2750 3050 2750
Connection ~ 3050 3150
Wire Wire Line
	3050 2950 3050 3250
Connection ~ 4950 7650
Connection ~ 4950 7050
Connection ~ 4600 7050
Wire Wire Line
	4600 7150 4600 7050
Connection ~ 4250 7650
Wire Wire Line
	4250 7650 4250 7600
Wire Wire Line
	4950 7250 4950 7050
Connection ~ 6800 6250
Connection ~ 7400 6750
Wire Wire Line
	6800 6750 7400 6750
Connection ~ 2300 4050
Connection ~ 3050 3950
Wire Wire Line
	3050 3750 3050 4050
Connection ~ 1750 3750
Wire Wire Line
	1750 3350 3050 3350
Wire Wire Line
	1750 3450 3050 3450
Wire Wire Line
	3050 3450 3050 3550
Connection ~ 2650 4050
Wire Wire Line
	3050 4050 1750 4050
Connection ~ 1950 4050
Wire Wire Line
	6800 6250 6800 6300
Wire Wire Line
	7400 6300 7400 6050
Connection ~ 7400 6250
Wire Wire Line
	4950 7450 4950 7650
Wire Wire Line
	3900 7650 3900 7600
Wire Wire Line
	4600 7600 4600 7650
Connection ~ 4600 7650
Wire Wire Line
	4250 7050 4250 7150
Connection ~ 4250 7050
Wire Wire Line
	3050 3250 1950 3250
Connection ~ 1950 3250
Wire Wire Line
	2300 3600 2300 2550
Wire Wire Line
	2300 2550 3050 2550
Wire Wire Line
	4950 7050 3700 7050
Connection ~ 3900 7050
Wire Wire Line
	2300 7650 2300 7600
Connection ~ 3700 7650
Wire Wire Line
	2300 7050 2300 7150
Wire Wire Line
	4950 5050 4550 5050
Wire Wire Line
	4950 5450 4550 5450
Wire Wire Line
	4950 5850 4550 5850
Wire Wire Line
	4950 6250 4550 6250
Wire Wire Line
	6350 5650 5950 5650
Wire Wire Line
	6350 5250 5950 5250
Wire Wire Line
	6350 4850 5950 4850
Wire Wire Line
	6350 6650 5950 6650
Wire Wire Line
	6350 7050 5950 7050
Wire Wire Line
	6350 7450 5950 7450
Wire Wire Line
	7400 6050 5950 6050
Wire Wire Line
	2700 7050 1750 7050
Connection ~ 2300 7050
Wire Wire Line
	4950 7650 1850 7650
Connection ~ 2300 7650
Connection ~ 1850 7250
Wire Wire Line
	1750 6300 2150 6300
Wire Wire Line
	1750 6100 2150 6100
Wire Wire Line
	1750 5900 2150 5900
Wire Wire Line
	1750 5450 2150 5450
Wire Wire Line
	1750 5250 2150 5250
Wire Wire Line
	1750 5050 2150 5050
Wire Wire Line
	1750 4850 2150 4850
Wire Wire Line
	3000 4950 3400 4950
Wire Wire Line
	3000 5150 3400 5150
Wire Wire Line
	3400 5350 3000 5350
Wire Wire Line
	3400 5550 3000 5550
Wire Wire Line
	4550 6850 4950 6850
Wire Wire Line
	1550 1150 2150 1150
Wire Wire Line
	2350 1650 2750 1650
Wire Wire Line
	2750 1650 2750 1600
Connection ~ 2750 1150
Wire Wire Line
	2900 6300 2350 6300
Connection ~ 2550 6300
Connection ~ 2550 6750
Connection ~ 1850 7150
Wire Wire Line
	2350 6300 2350 6950
Wire Wire Line
	7400 6750 7400 7950
Wire Wire Line
	6600 7300 6700 7300
Wire Wire Line
	7550 7300 7500 7300
Connection ~ 7400 7550
Connection ~ 6800 6750
Wire Wire Line
	3450 4850 3000 4850
Wire Wire Line
	2800 5900 2800 6750
Wire Wire Line
	2800 5900 3750 5900
Connection ~ 2800 6500
Wire Wire Line
	4050 5100 3750 5100
Connection ~ 3900 5100
Connection ~ 4050 4600
Connection ~ 4850 5050
Wire Wire Line
	6550 5350 7100 5350
Wire Wire Line
	6550 5150 7100 5150
Wire Wire Line
	1750 7050 1750 6850
Connection ~ 1750 7050
Wire Wire Line
	2800 6750 1750 6750
Connection ~ 1850 6750
Connection ~ 1750 6750
Wire Wire Line
	6700 4500 6900 4500
Connection ~ 6700 4500
Wire Bus Line
	2250 6550 2250 4300
Wire Bus Line
	2250 4300 6450 4300
Wire Bus Line
	3500 5700 3500 4300
Wire Bus Line
	6450 7750 6450 2800
Wire Wire Line
	6700 4000 7100 4000
Connection ~ 6700 4000
Wire Wire Line
	7100 3900 6550 3900
Wire Wire Line
	7100 3050 6550 3050
Wire Wire Line
	7000 3700 7000 2900
Connection ~ 7000 2950
Wire Wire Line
	2750 1150 3300 1150
Wire Wire Line
	1750 4050 1750 3550
Connection ~ 1750 3650
Wire Wire Line
	6150 3950 6350 3950
Wire Wire Line
	5350 3750 5250 3750
Connection ~ 5350 3750
Wire Wire Line
	4250 2550 4350 2550
Wire Wire Line
	4350 2550 4350 3150
Wire Wire Line
	4350 3150 6150 3150
Wire Wire Line
	6150 3150 6150 2650
Connection ~ 6150 2650
Wire Wire Line
	4550 2150 4250 2150
Wire Wire Line
	4450 2750 5250 2750
Wire Wire Line
	5250 2750 5250 2650
Connection ~ 4450 2750
Connection ~ 5250 1250
Wire Wire Line
	4900 1250 6850 1250
Connection ~ 6700 1250
Connection ~ 6150 1250
$Comp
L POWER_GND #~01
U 1 1 4E09971C
P 5700 2650
F 0 "#~01" V 5650 2600 60  0001 C CNN
F 1 "POWER_GND" V 5750 2600 60  0001 C CNN
	1    5700 2650
	1    0    0    -1  
$EndComp
$Comp
L RES R12
U 1 1 4E099672
P 6150 2650
F 0 "R12" H 6400 2775 60  0000 C CNN
F 1 "1K" H 6650 2775 60  0000 C CNN
	1    6150 2650
	0    1    -1   0   
$EndComp
$Comp
L RES R11
U 1 1 4E099670
P 5700 2650
F 0 "R11" H 5950 2775 60  0000 C CNN
F 1 "1K" H 6200 2775 60  0000 C CNN
	1    5700 2650
	0    1    -1   0   
$EndComp
$Comp
L RES R10
U 1 1 4E09966D
P 5250 2650
F 0 "R10" H 5500 2775 60  0000 C CNN
F 1 "1K" H 5750 2775 60  0000 C CNN
	1    5250 2650
	0    1    -1   0   
$EndComp
$Comp
L RES R9
U 1 1 4E099669
P 4900 2650
F 0 "R9" H 5150 2775 60  0000 C CNN
F 1 "1K" H 5400 2775 60  0000 C CNN
	1    4900 2650
	0    1    -1   0   
$EndComp
$Comp
L LED HL3
U 1 1 4E099659
P 5700 1850
F 0 "HL3" H 6100 1700 60  0000 C CNN
F 1 "3mm" H 6100 2000 60  0000 C CNN
	1    5700 1850
	0    1    -1   0   
$EndComp
$Comp
L LED HL4
U 1 1 4E099657
P 6150 1850
F 0 "HL4" H 6550 1700 60  0000 C CNN
F 1 "3mm" H 6550 2000 60  0000 C CNN
	1    6150 1850
	0    1    -1   0   
$EndComp
$Comp
L LED HL2
U 1 1 4E099655
P 5250 1850
F 0 "HL2" H 5650 1700 60  0000 C CNN
F 1 "3mm" H 5650 2000 60  0000 C CNN
	1    5250 1850
	0    1    -1   0   
$EndComp
$Comp
L LED HL1
U 1 1 4E099650
P 4900 1850
F 0 "HL1" H 5300 1600 60  0000 C CNN
F 1 "3mm" H 5300 1700 60  0000 C CNN
	1    4900 1850
	0    1    -1   0   
$EndComp
$Comp
L POWER_VCC #~02
U 1 1 4DFDFA37
P 5250 3750
F 0 "#~02" V 5050 3500 60  0001 C CNN
F 1 "POWER_VCC" H 5400 3650 60  0001 C CNN
	1    5250 3750
	-1   0    0    -1  
$EndComp
Text Label 6200 3950 0    60   ~ 0
PC4
Text Label 6200 3750 0    60   ~ 0
PC5
Entry Wire Line
	6350 3950 6450 4050
Entry Wire Line
	6350 3750 6450 3850
$Comp
L RES R8
U 1 1 4DFDF9FB
P 5350 3950
F 0 "R8" H 5600 4075 60  0000 C CNN
F 1 "5.1K" H 5850 4075 60  0000 C CNN
	1    5350 3950
	1    0    0    1   
$EndComp
$Comp
L RES R7
U 1 1 4DFDF9FA
P 5350 3750
F 0 "R7" H 5600 3875 60  0000 C CNN
F 1 "5.1K" H 5850 3875 60  0000 C CNN
	1    5350 3750
	1    0    0    -1  
$EndComp
$Comp
L CONN_06_F XS1
U 1 1 4DFDF851
P 1750 3250
F 0 "XS1" H 2000 3350 60  0000 C CNN
F 1 "USB-B" H 2100 2650 60  0000 C CNN
	1    1750 3250
	-1   0    0    -1  
$EndComp
Text Notes 7800 3900 1    60   ~ 0
I2C
Text Notes 7800 3250 1    60   ~ 0
RS232
Text Label 3200 4850 0    60   ~ 0
RXE
Text Label 6750 3900 0    60   ~ 0
PC4
Text Label 6750 3800 0    60   ~ 0
PC5
Text Label 6750 3150 0    60   ~ 0
PD1
Text Label 6750 3050 0    60   ~ 0
RXE
$Comp
L FUSE FU1
U 1 1 4DFB6F79
P 3300 1150
F 0 "FU1" H 3550 1275 60  0000 C CNN
F 1 "MF-NSMF020-2" H 3800 1000 60  0000 C CNN
	1    3300 1150
	1    0    0    -1  
$EndComp
Text Notes 7500 4050 0    60   ~ 0
VCC
Text Notes 7500 3950 0    60   ~ 0
SDA
Text Notes 7500 3850 0    60   ~ 0
SCL
Text Notes 7500 3750 0    60   ~ 0
GND
Text Notes 7500 3300 0    60   ~ 0
VCC
Text Notes 7500 3000 0    60   ~ 0
GND
Text Notes 7550 3200 0    60   ~ 0
TX
Text Notes 7550 3100 0    60   ~ 0
RX
$Comp
L POWER_GND #~03
U 1 1 4DFB6EC4
P 7000 2900
F 0 "#~03" V 6950 2850 60  0001 C CNN
F 1 "POWER_GND" V 7050 2850 60  0001 C CNN
	1    7000 2900
	-1   0    0    1   
$EndComp
Entry Wire Line
	6450 3800 6550 3900
Entry Wire Line
	6450 3700 6550 3800
Entry Wire Line
	6450 3050 6550 3150
Entry Wire Line
	6450 2950 6550 3050
$Comp
L CONN_04_M XP3
U 1 1 4DFB6E16
P 7100 3700
F 0 "XP3" H 7350 3800 60  0000 C CNN
F 1 "WF04R" H 7450 3300 60  0000 C CNN
	1    7100 3700
	1    0    0    -1  
$EndComp
$Comp
L CONN_04_M XP2
U 1 1 4DFB6E12
P 7100 2950
F 0 "XP2" H 7350 3050 60  0000 C CNN
F 1 "WF04R" H 7450 2550 60  0000 C CNN
	1    7100 2950
	1    0    0    -1  
$EndComp
Text Notes 1150 5350 1    60   ~ 0
DigIO
Text Notes 1150 6250 1    60   ~ 0
ADC
Text Notes 1150 6900 1    60   ~ 0
Power
Text Notes 1200 6900 0    60   ~ 0
VIN
Text Notes 1200 6700 0    60   ~ 0
GND
Text Notes 6700 1050 0    60   ~ 0
USB power
$Comp
L CONN_JMP-2 JMP1
U 1 1 4DFB6303
P 6850 1150
F 0 "JMP1" H 7050 950 60  0000 C CNN
F 1 "PLS2R" H 7050 850 60  0000 C CNN
	1    6850 1150
	1    0    0    -1  
$EndComp
$Comp
L CONN_03_F XS6
U 1 1 4DFB5F69
P 1750 6850
F 0 "XS6" H 2250 6550 60  0000 C CNN
F 1 "5.5mm jack" H 1850 6550 60  0000 C CNN
	1    1750 6850
	-1   0    0    1   
$EndComp
Text Notes 7800 5200 1    60   ~ 0
ICSP
Text Notes 7450 5400 0    60   ~ 0
MOSI
Text Notes 7450 5300 0    60   ~ 0
MISO
Text Notes 7500 5200 0    60   ~ 0
SCK
Text Notes 7500 5100 0    60   ~ 0
RES
Text Notes 7500 5000 0    60   ~ 0
VCC
Text Notes 7500 4900 0    60   ~ 0
GND
Text Label 6650 5050 0    60   ~ 0
RES
Text Label 6650 5150 0    60   ~ 0
PB5
Text Label 6650 5250 0    60   ~ 0
PB4
Text Label 6650 5350 0    60   ~ 0
PB3
$Comp
L POWER_GND #~04
U 1 1 4DFB2BC5
P 7100 4850
F 0 "#~04" V 7050 4800 60  0001 C CNN
F 1 "POWER_GND" V 7150 4800 60  0001 C CNN
	1    7100 4850
	-1   0    0    1   
$EndComp
$Comp
L POWER_VCC #~05
U 1 1 4DFB2BB9
P 6900 4500
F 0 "#~05" V 6700 4250 60  0001 C CNN
F 1 "POWER_VCC" H 7050 4400 60  0001 C CNN
	1    6900 4500
	1    0    0    -1  
$EndComp
Entry Wire Line
	6450 5250 6550 5350
Entry Wire Line
	6450 5150 6550 5250
Entry Wire Line
	6450 5050 6550 5150
Entry Wire Line
	6450 4950 6550 5050
$Comp
L CONN_06_M XP1
U 1 1 4DFB2B9C
P 7100 4850
F 0 "XP1" H 7350 4950 60  0000 C CNN
F 1 "PLS6R" H 7450 4250 60  0000 C CNN
	1    7100 4850
	1    0    0    -1  
$EndComp
$Comp
L DIODE_AC VD3
U 1 1 4DFB2075
P 4850 4350
F 0 "VD3" H 5050 4500 60  0000 C CNN
F 1 "BAT54" H 5050 4600 60  0000 C CNN
	1    4850 4350
	0    1    1    0   
$EndComp
$Comp
L RES R5
U 1 1 4DFB1E25
P 3750 5900
F 0 "R5" H 4000 6025 60  0000 C CNN
F 1 "10K" H 4250 6025 60  0000 C CNN
	1    3750 5900
	0    -1   -1   0   
$EndComp
$Comp
L RES R6
U 1 1 4DFB1E21
P 3900 5900
F 0 "R6" H 4150 6025 60  0000 C CNN
F 1 "5.1K" H 4400 6025 60  0000 C CNN
	1    3900 5900
	0    1    -1   0   
$EndComp
$Comp
L DIODE_DUAL_COC VD2
U 1 1 4DFB1D35
P 3450 4600
F 0 "VD2" H 3700 4750 60  0000 C CNN
F 1 "BAT54A" H 4000 4750 60  0000 C CNN
	1    3450 4600
	1    0    0    -1  
$EndComp
Text Label 4150 4600 0    60   ~ 0
PD0
Entry Wire Line
	4350 4600 4450 4700
$Comp
L CAP C14
U 1 1 4DFB05E3
P 6600 2650
F 0 "C14" V 6300 2500 60  0000 C CNN
F 1 "0.33uF" V 6400 2550 60  0000 C CNN
	1    6600 2650
	0    1    1    0   
$EndComp
$Comp
L POWER_VCC #~06
U 1 1 4DFB054D
P 7550 7300
F 0 "#~06" V 7350 7050 60  0001 C CNN
F 1 "POWER_VCC" H 7700 7200 60  0001 C CNN
	1    7550 7300
	1    0    0    -1  
$EndComp
$Comp
L RES R4
U 1 1 4DFB0539
P 6700 7300
F 0 "R4" H 6950 7425 60  0000 C CNN
F 1 "5.1K" H 7200 7425 60  0000 C CNN
	1    6700 7300
	1    0    0    -1  
$EndComp
$Comp
L RES R3
U 1 1 4DFB0537
P 6600 7550
F 0 "R3" H 6850 7675 60  0000 C CNN
F 1 "10K" H 7100 7675 60  0000 C CNN
	1    6600 7550
	1    0    0    -1  
$EndComp
$Comp
L SWITCH_SPST_BUTTON SB1
U 1 1 4DFAFC4A
P 6800 7950
F 0 "SB1" H 7100 8200 60  0000 C CNN
F 1 "0343HIM" H 7100 7900 60  0000 C CNN
	1    6800 7950
	1    0    0    -1  
$EndComp
Text Notes 2450 5600 0    60   ~ 0
IO7
Text Notes 2450 5500 0    60   ~ 0
IO6
Text Notes 2450 5400 0    60   ~ 0
IO5
Text Notes 2450 5300 0    60   ~ 0
IO4
Text Notes 2450 5200 0    60   ~ 0
IO3
Text Notes 2450 5100 0    60   ~ 0
IO2
Text Notes 2450 5000 0    60   ~ 0
IO1
Text Notes 2450 4900 0    60   ~ 0
IO0
Text Notes 1200 5600 0    60   ~ 0
REF
Text Notes 1200 5500 0    60   ~ 0
GND
Text Notes 1200 5400 0    60   ~ 0
SCK
Text Notes 1200 5300 0    60   ~ 0
MISO
Text Notes 1200 5200 0    60   ~ 0
MOSI
Text Notes 1200 5100 0    60   ~ 0
SS
Text Notes 1200 5000 0    60   ~ 0
IO9
Text Notes 1200 4900 0    60   ~ 0
IO8
$Comp
L POWER_VCC #~07
U 1 1 4DFAFAFE
P 4000 6300
F 0 "#~07" V 3800 6050 60  0001 C CNN
F 1 "POWER_VCC" H 4150 6200 60  0001 C CNN
	1    4000 6300
	1    0    0    -1  
$EndComp
$Comp
L CAP C13
U 1 1 4DFAF878
P 2550 6300
F 0 "C13" H 2550 6500 60  0000 C CNN
F 1 "0.33uF" H 2550 6400 60  0000 C CNN
	1    2550 6300
	1    0    0    -1  
$EndComp
$Comp
L GIC_MCP1701 DA2
U 1 1 4DFAF863
P 3900 6300
F 0 "DA2" H 4400 6450 60  0000 C CNN
F 1 "MCP1702-3.3" H 4400 5950 60  0000 C CNN
	1    3900 6300
	-1   0    0    -1  
$EndComp
$Comp
L POWER_GND #~08
U 1 1 4DFAF30D
P 3150 1600
F 0 "#~08" V 3100 1550 60  0001 C CNN
F 1 "POWER_GND" V 3200 1550 60  0001 C CNN
	1    3150 1600
	1    0    0    -1  
$EndComp
$Comp
L IND_CORE L1
U 1 1 4DFAF2EF
P 1750 2450
F 0 "L1" H 2150 2600 60  0000 C CNN
F 1 "FB0603" H 2150 2400 60  0000 C CNN
	1    1750 2450
	0    -1   1    0   
$EndComp
Text Notes 1200 3800 0    60   ~ 0
GND
Text Notes 1200 3700 0    60   ~ 0
GND
Text Notes 1200 3600 0    60   ~ 0
NC
Text Notes 1200 3500 0    60   ~ 0
D+
Text Notes 1200 3400 0    60   ~ 0
D-
Text Notes 1200 3300 0    60   ~ 0
VBUS
Text Label 4550 6850 0    60   ~ 0
REF
Entry Wire Line
	4450 6750 4550 6850
Text Label 1950 5550 0    60   ~ 0
REF
Text Label 1950 5450 0    60   ~ 0
GND
Text Label 1950 5350 0    60   ~ 0
PB5
Text Label 1950 5250 0    60   ~ 0
PB4
Text Label 1950 5150 0    60   ~ 0
PB3
Text Label 1950 5050 0    60   ~ 0
PB2
Text Label 1950 4950 0    60   ~ 0
PB1
Text Label 1950 4850 0    60   ~ 0
PB0
Text Label 3200 5550 0    60   ~ 0
PD7
Text Label 3200 5450 0    60   ~ 0
PD6
Text Label 3200 5350 0    60   ~ 0
PD5
Text Label 3200 5250 0    60   ~ 0
PD4
Text Label 3200 5150 0    60   ~ 0
PD3
Text Label 3200 5050 0    60   ~ 0
PD2
Text Label 3200 4950 0    60   ~ 0
PD1
Text Label 1950 6400 0    60   ~ 0
PC5
Text Label 1950 6300 0    60   ~ 0
PC4
Text Label 1950 6200 0    60   ~ 0
PC3
Text Label 1950 6100 0    60   ~ 0
PC2
Text Label 1950 6000 0    60   ~ 0
PC1
Text Label 1950 5900 0    60   ~ 0
PC0
Entry Wire Line
	2150 6400 2250 6500
Entry Wire Line
	2150 6300 2250 6400
Entry Wire Line
	2150 6200 2250 6300
Entry Wire Line
	2150 6100 2250 6200
Entry Wire Line
	2150 6000 2250 6100
Entry Wire Line
	2150 5900 2250 6000
Entry Wire Line
	2150 5550 2250 5650
Entry Wire Line
	2150 5450 2250 5550
Entry Wire Line
	2150 5350 2250 5450
Entry Wire Line
	2150 5250 2250 5350
Entry Wire Line
	2150 5150 2250 5250
Entry Wire Line
	2150 5050 2250 5150
Entry Wire Line
	2150 4950 2250 5050
Entry Wire Line
	2150 4850 2250 4950
Entry Wire Line
	3400 5550 3500 5650
Entry Wire Line
	3400 5450 3500 5550
Entry Wire Line
	3400 5350 3500 5450
Entry Wire Line
	3400 5250 3500 5350
Entry Wire Line
	3400 5150 3500 5250
Entry Wire Line
	3400 5050 3500 5150
Entry Wire Line
	3400 4950 3500 5050
Text Notes 1200 6450 0    60   ~ 0
AD5
Text Notes 1200 6350 0    60   ~ 0
AD4
Text Notes 1200 6250 0    60   ~ 0
AD3
Text Notes 1200 6150 0    60   ~ 0
AD2
Text Notes 1200 6050 0    60   ~ 0
AD1
Text Notes 1200 5950 0    60   ~ 0
AD0
Text Notes 1200 7600 0    60   ~ 0
RES
Text Notes 1200 7500 0    60   ~ 0
+3.3V
Text Notes 1200 7400 0    60   ~ 0
+5V
Text Notes 1200 7300 0    60   ~ 0
GND
Text Notes 1200 7200 0    60   ~ 0
GND
Text Notes 1200 7100 0    60   ~ 0
VIN
Text Notes 1150 7450 1    60   ~ 0
Power
Text Label 6150 7650 0    60   ~ 0
RES
Text Label 6150 7450 0    60   ~ 0
PC5
Text Label 6150 7250 0    60   ~ 0
PC4
Text Label 6150 7050 0    60   ~ 0
PC3
Text Label 6150 6850 0    60   ~ 0
PC2
Text Label 6150 6650 0    60   ~ 0
PC1
Text Label 6150 6450 0    60   ~ 0
PC0
Text Label 6150 5850 0    60   ~ 0
PB5
Text Label 6150 5650 0    60   ~ 0
PB4
Text Label 6150 5450 0    60   ~ 0
PB3
Text Label 6150 5250 0    60   ~ 0
PB2
Text Label 6150 5050 0    60   ~ 0
PB1
Text Label 6150 4850 0    60   ~ 0
PB0
Text Label 4550 6250 0    60   ~ 0
PD7
Text Label 4550 6050 0    60   ~ 0
PD6
Text Label 4550 5850 0    60   ~ 0
PD5
Text Label 4550 5650 0    60   ~ 0
PD4
Text Label 4550 5450 0    60   ~ 0
PD3
Text Label 4550 5250 0    60   ~ 0
PD2
Text Label 4550 5050 0    60   ~ 0
PD1
Text Label 4550 4850 0    60   ~ 0
PD0
Entry Wire Line
	4450 4750 4550 4850
Entry Wire Line
	4450 4950 4550 5050
Entry Wire Line
	4450 5150 4550 5250
Entry Wire Line
	4450 5350 4550 5450
Entry Wire Line
	4450 5550 4550 5650
Entry Wire Line
	4450 5750 4550 5850
Entry Wire Line
	4450 5950 4550 6050
Entry Wire Line
	4450 6150 4550 6250
Entry Wire Line
	6350 5850 6450 5950
Entry Wire Line
	6350 5650 6450 5750
Entry Wire Line
	6350 5450 6450 5550
Entry Wire Line
	6350 5250 6450 5350
Entry Wire Line
	6350 5050 6450 5150
Entry Wire Line
	6350 4850 6450 4950
Entry Wire Line
	6350 7650 6450 7750
Entry Wire Line
	6350 7450 6450 7550
Entry Wire Line
	6350 7250 6450 7350
Entry Wire Line
	6350 7050 6450 7150
Entry Wire Line
	6350 6850 6450 6950
Entry Wire Line
	6350 6650 6450 6750
Entry Wire Line
	6350 6450 6450 6550
$Comp
L CONN_06_F XS5
U 1 1 4DFACCF1
P 1750 7550
F 0 "XS5" H 2000 7650 60  0000 C CNN
F 1 "PBS-6" H 2050 7750 60  0000 C CNN
	1    1750 7550
	-1   0    0    1   
$EndComp
$Comp
L CAPP C5
U 1 1 4DFACAEE
P 2300 7150
F 0 "C5" H 2400 7050 60  0000 C CNN
F 1 "100uF" H 2450 6800 60  0000 C CNN
	1    2300 7150
	-1   0    0    -1  
$EndComp
$Comp
L CAP C7
U 1 1 4DFACAEA
P 2650 7150
F 0 "C7" H 2800 7050 60  0000 C CNN
F 1 "0.33uF" H 2825 6800 60  0000 C CNN
	1    2650 7150
	-1   0    0    -1  
$EndComp
$Comp
L GIC_LM78XX DA1
U 1 1 4DFACAD4
P 2700 7050
F 0 "DA1" H 3200 7200 60  0000 C CNN
F 1 "78M05" H 3200 6700 60  0000 C CNN
	1    2700 7050
	1    0    0    -1  
$EndComp
$Comp
L POWER_GND #~09
U 1 1 4DFACA7B
P 4600 7650
F 0 "#~09" V 4550 7600 60  0001 C CNN
F 1 "POWER_GND" V 4650 7600 60  0001 C CNN
	1    4600 7650
	1    0    0    -1  
$EndComp
$Comp
L CAP C8
U 1 1 4DFACA66
P 3900 7150
F 0 "C8" H 4050 7050 60  0000 C CNN
F 1 "1uF" H 4075 6800 60  0000 C CNN
	1    3900 7150
	1    0    0    -1  
$EndComp
$Comp
L CAP C9
U 1 1 4DFACA63
P 4250 7150
F 0 "C9" H 4400 7050 60  0000 C CNN
F 1 "0.33uF" H 4425 6800 60  0000 C CNN
	1    4250 7150
	1    0    0    -1  
$EndComp
$Comp
L CAP C10
U 1 1 4DFACA60
P 4600 7150
F 0 "C10" H 4750 7050 60  0000 C CNN
F 1 "0.33uF" H 4775 6800 60  0000 C CNN
	1    4600 7150
	1    0    0    -1  
$EndComp
$Comp
L POWER_GND #~010
U 1 1 4DFACA4A
P 6800 6750
F 0 "#~010" V 6750 6700 60  0001 C CNN
F 1 "POWER_GND" V 6850 6700 60  0001 C CNN
	1    6800 6750
	1    0    0    -1  
$EndComp
$Comp
L CAP C12
U 1 1 4DFACA21
P 7400 6300
F 0 "C12" H 7550 6200 60  0000 C CNN
F 1 "28pF" H 7575 5950 60  0000 C CNN
	1    7400 6300
	1    0    0    -1  
$EndComp
$Comp
L CAP C11
U 1 1 4DFACA1F
P 6800 6300
F 0 "C11" H 6550 6050 60  0000 C CNN
F 1 "28pF" H 6550 5950 60  0000 C CNN
	1    6800 6300
	-1   0    0    -1  
$EndComp
$Comp
L CRYSTAL BQ1
U 1 1 4DFACA15
P 6800 6250
F 0 "BQ1" H 6850 6350 60  0000 C CNN
F 1 "16M" H 7300 6350 60  0000 C CNN
	1    6800 6250
	1    0    0    -1  
$EndComp
$Comp
L RES R2
U 1 1 4DFAC8ED
P 1550 1650
F 0 "R2" H 1800 1775 60  0000 C CNN
F 1 "10K" H 2050 1775 60  0000 C CNN
	1    1550 1650
	1    0    0    -1  
$EndComp
$Comp
L TR_PMOS_GDS VT1
U 1 1 4DFAC8E7
P 2350 1600
F 0 "VT1" V 2950 1500 60  0000 R CNN
F 1 "IRLML5203" V 2950 1850 60  0000 R CNN
	1    2350 1600
	0    1    -1   0   
$EndComp
$Comp
L DIODE_DUAL_AOC VD1
U 1 1 4DFAC8DC
P 2250 1900
F 0 "VD1" H 2700 1500 60  0000 C CNN
F 1 "BAV99" H 2400 1500 60  0000 C CNN
	1    2250 1900
	-1   0    0    -1  
$EndComp
$Comp
L RES R1
U 1 1 4DFAC8D4
P 2250 2150
F 0 "R1" H 2500 2275 60  0000 C CNN
F 1 "1K" H 2750 2275 60  0000 C CNN
	1    2250 2150
	1    0    0    1   
$EndComp
$Comp
L POWER_GND #~011
U 1 1 4DFAC8A7
P 1950 4050
F 0 "#~011" V 1900 4000 60  0001 C CNN
F 1 "POWER_GND" V 2000 4000 60  0001 C CNN
	1    1950 4050
	1    0    0    -1  
$EndComp
$Comp
L CONN_08_F XS4
U 1 1 4DFAC825
P 1750 4850
F 0 "XS4" H 2000 4950 60  0000 C CNN
F 1 "PBS-8" H 2100 4050 60  0000 C CNN
	1    1750 4850
	-1   0    0    -1  
$EndComp
$Comp
L CONN_08_F XS3
U 1 1 4DFAC821
P 3000 4850
F 0 "XS3" H 3250 4950 60  0000 C CNN
F 1 "PBS-8" H 3350 4050 60  0000 C CNN
	1    3000 4850
	-1   0    0    -1  
$EndComp
$Comp
L CONN_06_F XS2
U 1 1 4DFAC81B
P 1750 5900
F 0 "XS2" H 2100 6000 60  0000 C CNN
F 1 "PBS-6" H 1800 6000 60  0000 C CNN
	1    1750 5900
	-1   0    0    -1  
$EndComp
$Comp
L GIC_ATMEGA8_DIP28 DD2
U 1 1 4DFAC7D8
P 5950 4850
F 0 "DD2" H 6450 5000 60  0000 C CNN
F 1 "ATMEGA328-DIP28" H 6450 1900 60  0000 C CNN
	1    5950 4850
	-1   0    0    -1  
$EndComp
$Comp
L CAP C2
U 1 1 4DFAC7C2
P 2750 1150
F 0 "C2" H 2900 1050 60  0000 C CNN
F 1 "0.33uF" H 2925 800 60  0000 C CNN
	1    2750 1150
	1    0    0    -1  
$EndComp
$Comp
L CAP C1
U 1 1 4DFAC7C1
P 3150 1150
F 0 "C1" H 3300 1050 60  0000 C CNN
F 1 "0.33uF" H 3325 800 60  0000 C CNN
	1    3150 1150
	1    0    0    -1  
$EndComp
$Comp
L CAP C6
U 1 1 4DFAC7BE
P 2650 3600
F 0 "C6" H 2800 3500 60  0000 C CNN
F 1 "0.33uF" H 2825 3250 60  0000 C CNN
	1    2650 3600
	1    0    0    -1  
$EndComp
$Comp
L CAP C3
U 1 1 4DFAC7BC
P 1950 3600
F 0 "C3" H 2100 3500 60  0000 C CNN
F 1 "0.33uF" H 2125 3250 60  0000 C CNN
	1    1950 3600
	1    0    0    -1  
$EndComp
$Comp
L CAP C4
U 1 1 4DFAC7BA
P 2300 3600
F 0 "C4" H 2450 3500 60  0000 C CNN
F 1 "0.33uF" H 2475 3250 60  0000 C CNN
	1    2300 3600
	1    0    0    -1  
$EndComp
$Comp
L GIC_CP2102 DD1
U 1 1 4DFAC7B6
P 3050 2150
F 0 "DD1" H 3450 2300 60  0000 C CNN
F 1 "CP2102" H 3750 2300 60  0000 C CNN
	1    3050 2150
	1    0    0    -1  
$EndComp
$EndSCHEMATC
